\relax 
\newcplabel{^_1}{1}
\@writefile{toc}{\contentsline {section}{\numberline {1}Supplementary Methods}{1}}
\@writefile{toc}{\contentsline {subsection}{\numberline {{1.1}}Pearson's $\chi ^2$ Test}{1}}
\newlabel{eq:chi2}{{1}{1}}
\@writefile{loa}{\contentsline {algocf}{\numberline {1}{\ignorespaces Pseudocode of algorithm Pearson's $\chi ^2$ test for a SNP pair via GWIS$_{FI}$.}}{1}}
\newlabel{algo:chi2}{{1}{1}}
\citation{Purcell07}
\citation{plink}
\@writefile{toc}{\contentsline {subsection}{\numberline {{1.2}}$2\chi ^2$ Test}{2}}
\newlabel{eq:01}{{2}{2}}
\@writefile{loa}{\contentsline {algocf}{\numberline {2}{\ignorespaces Pseudocode of algorithm $F$ of $2\chi ^2$ for a SNP pair via GWIS$_{FI}$.}}{2}}
\newlabel{algo:2chi2}{{2}{2}}
\@writefile{toc}{\contentsline {subsection}{\numberline {{1.3}}Pearson Correlation Based Method}{2}}
\newlabel{eq:02}{{3}{2}}
\citation{Hu13}
\@writefile{loa}{\contentsline {algocf}{\numberline {3}{\ignorespaces Algorithm of DPCC (EPIBLASTER) for a SNP pair via GWIS$_{FI}$.}}{3}}
\newlabel{algo:EPI}{{3}{3}}
\@writefile{toc}{\contentsline {subsection}{\numberline {{1.4}}Odds Ratio Based Method}{3}}
\citation{Goudey13}
\citation{Goudey13}
\citation{Goudey13}
\@writefile{loa}{\contentsline {algocf}{\numberline {4}{\ignorespaces Algorithm of EOR (SHEsisEPI) for a SNP pair via GWIS$_{FI}$.}}{4}}
\newlabel{algo:SHE}{{4}{4}}
\@writefile{toc}{\contentsline {subsection}{\numberline {{1.5}}Information Gain Based Method}{4}}
\@writefile{toc}{\contentsline {subsection}{\numberline {{1.6}}SS and DSS}{4}}
\@writefile{loa}{\contentsline {algocf}{\numberline {5}{\ignorespaces Algorithm of IG for a SNP pair via GWIS$_{FI}$.}}{5}}
\newlabel{algo:IG}{{5}{5}}
\@writefile{toc}{\contentsline {section}{\numberline {2}Supplementary Figures}{5}}
\@writefile{lof}{\contentsline {figure}{\numberline {1}{\ignorespaces Overlap between different genome-wide scan methods on BD WTCCC dataset. Note, there are no overlap plots for $2\chi ^2$ or EPIBLASTER stage 1, as no overlap was evident in the first 65K pairs with any another method. Also shown are $-\qopname  \relax o{log}_{10}(p)$-values for the top of each list where available. }}{5}}
\newlabel{fig:overlapBD}{{1}{5}}
\newlabel{fig:pvaluesBD}{{1}{5}}
\@writefile{lof}{\contentsline {figure}{\numberline {2}{\ignorespaces Overlap between different genome-wide scan methods on CD WTCCC dataset. Note, there are no overlap plots for $2\chi ^2$ or EPIBLASTER stage 1, as no overlap was evident in the first 65K pairs with any another method. Also shown are $-\qopname  \relax o{log}_{10}(p)$-values for the top of each list where available. }}{6}}
\newlabel{fig:overlapCD}{{2}{6}}
\newlabel{fig:pvaluesCD}{{2}{6}}
\@writefile{lof}{\contentsline {figure}{\numberline {3}{\ignorespaces Overlap between different genome-wide scan methods on HT WTCCC dataset. Note, there are no overlap plots for $2\chi ^2$ or EPIBLASTER stage 1, as no overlap was evident in the first 65K pairs with any another method. Also shown are $-\qopname  \relax o{log}_{10}(p)$-values for the top of each list where available. }}{6}}
\newlabel{fig:overlapHT}{{3}{6}}
\newlabel{fig:pvaluesHT}{{3}{6}}
\@writefile{lof}{\contentsline {figure}{\numberline {4}{\ignorespaces Overlap between different genome-wide scan methods on RA WTCCC dataset. Note, there are no overlap plots for $2\chi ^2$ or EPIBLASTER stage 1, as no overlap was evident in the first 65K pairs with any another method. Also shown are $-\qopname  \relax o{log}_{10}(p)$-values for the top of each list where available. }}{7}}
\newlabel{fig:overlapRA}{{4}{7}}
\newlabel{fig:pvaluesRA}{{4}{7}}
\@writefile{lof}{\contentsline {figure}{\numberline {5}{\ignorespaces Overlap between different genome-wide scan methods on T1D WTCCC dataset. Note, there are no overlap plots for $2\chi ^2$ or EPIBLASTER stage 1, as no overlap was evident in the first 65K pairs with any another method. Also shown are $-\qopname  \relax o{log}_{10}(p)$-values for the top of each list where available. }}{7}}
\newlabel{fig:overlapT1D}{{5}{7}}
\newlabel{fig:pvaluesT1D}{{5}{7}}
\@writefile{lof}{\contentsline {figure}{\numberline {6}{\ignorespaces Overlap between different genome-wide scan methods on CAD WTCCC dataset. Note, there are no overlap plots for EPIBLASTER stage 1, as no overlap was evident in the first 65K pairs with any another method. Also shown are $-\qopname  \relax o{log}_{10}(p)$-values for the top of each list where available. }}{8}}
\newlabel{fig:overlapCAD}{{6}{8}}
\newlabel{fig:pvaluesCAD}{{6}{8}}
\bibstyle{natbib}
\bibdata{ismb_14}
\bibcite{Goudey13}{{1}{2013}{{Goudey {\em  et~al.}}}{{Goudey, Rawlinson, Wang, Shi, Ferra, Campbell, Stern, Inouye, Ong, and Kowalczyk}}}
\bibcite{Hu13}{{2}{2013}{{Hu {\em  et~al.}}}{{Hu, Chen, Kiralis, Collins, Wejse, Sirugo, Williams, and Moore}}}
\bibcite{plink}{{3}{2007}{{Purcell}}{{Purcell}}}
\bibcite{Purcell07}{{4}{2007}{{Purcell {\em  et~al.}}}{{Purcell, Neale, Todd-Brown, Thomas, Ferreira, Bender, Maller, Sklar, de~Bakker, Daly, and Sham}}}
\global\@namedef{@lastpage@}{9}
