%!PS-Adobe-3.0 EPSF-3.0
%%Creator: MATLAB, The MathWorks, Inc. Version 8.0.0.783 (R2012b). Operating System: Microsoft Windows 7.
%%Title: C:\Users\qwan\Desktop\rerun_noGBoost\overlap_CAD_nogrid.eps
%%CreationDate: 04/09/2014  13:05:07
%%DocumentNeededFonts: Helvetica
%%DocumentProcessColors: Cyan Magenta Yellow Black
%%LanguageLevel: 2
%%Pages: 1
%%BoundingBox:  -206   176   818   614
%%EndComments

%%BeginProlog
% MathWorks dictionary
/MathWorks 160 dict begin
% definition operators
/bdef {bind def} bind def
/ldef {load def} bind def
/xdef {exch def} bdef
/xstore {exch store} bdef
% operator abbreviations
/c  /clip ldef
/cc /concat ldef
/cp /closepath ldef
/gr /grestore ldef
/gs /gsave ldef
/mt /moveto ldef
/np /newpath ldef
/cm /currentmatrix ldef
/sm /setmatrix ldef
/rm /rmoveto ldef
/rl /rlineto ldef
/s {show newpath} bdef
/sc {setcmykcolor} bdef
/sr /setrgbcolor ldef
/sg /setgray ldef
/w /setlinewidth ldef
/j /setlinejoin ldef
/cap /setlinecap ldef
/rc {rectclip} bdef
/rf {rectfill} bdef
% page state control
/pgsv () def
/bpage {/pgsv save def} bdef
/epage {pgsv restore} bdef
/bplot /gsave ldef
/eplot {stroke grestore} bdef
% orientation switch
/portraitMode 0 def /landscapeMode 1 def /rotateMode 2 def
% coordinate system mappings
/dpi2point 0 def
% font control
/FontSize 0 def
/FMS {/FontSize xstore findfont [FontSize 0 0 FontSize neg 0 0]
  makefont setfont} bdef
/ISOLatin1Encoding where {pop /WindowsLatin1Encoding 256 array bdef
ISOLatin1Encoding WindowsLatin1Encoding copy pop
/.notdef/.notdef/quotesinglbase/florin/quotedblbase/ellipsis/dagger
/daggerdbl/circumflex/perthousand/Scaron/guilsinglleft/OE/.notdef/.notdef
/.notdef/.notdef/quoteleft/quoteright/quotedblleft/quotedblright/bullet
/endash/emdash/tilde/trademark/scaron/guilsinglright/oe/.notdef/.notdef
/Ydieresis WindowsLatin1Encoding 128 32 getinterval astore pop}
{/WindowsLatin1Encoding StandardEncoding bdef} ifelse
/reencode {exch dup where {pop load} {pop StandardEncoding} ifelse
  exch dup 3 1 roll findfont dup length dict begin
  { 1 index /FID ne {def}{pop pop} ifelse } forall
  /Encoding exch def currentdict end definefont pop} bdef
/isroman {findfont /CharStrings get /Agrave known} bdef
/FMSR {3 1 roll 1 index dup isroman {reencode} {pop pop} ifelse
  exch FMS} bdef
/csm {1 dpi2point div -1 dpi2point div scale neg translate
 dup landscapeMode eq {pop -90 rotate}
  {rotateMode eq {90 rotate} if} ifelse} bdef
% line types: solid, dotted, dashed, dotdash
/SO { [] 0 setdash } bdef
/DO { [.5 dpi2point mul 4 dpi2point mul] 0 setdash } bdef
/DA { [6 dpi2point mul] 0 setdash } bdef
/DD { [.5 dpi2point mul 4 dpi2point mul 6 dpi2point mul 4
  dpi2point mul] 0 setdash } bdef
% macros for lines and objects
/L {lineto stroke} bdef
/MP {3 1 roll moveto 1 sub {rlineto} repeat} bdef
/AP {{rlineto} repeat} bdef
/PDlw -1 def
/W {/PDlw currentlinewidth def setlinewidth} def
/PP {closepath eofill} bdef
/DP {closepath stroke} bdef
/MR {4 -2 roll moveto dup  0 exch rlineto exch 0 rlineto
  neg 0 exch rlineto closepath} bdef
/FR {MR stroke} bdef
/PR {MR fill} bdef
/L1i {{currentfile picstr readhexstring pop} image} bdef
/tMatrix matrix def
/MakeOval {newpath tMatrix currentmatrix pop translate scale
0 0 1 0 360 arc tMatrix setmatrix} bdef
/FO {MakeOval stroke} bdef
/PO {MakeOval fill} bdef
/PD {currentlinewidth 2 div 0 360 arc fill
   PDlw -1 eq not {PDlw w /PDlw -1 def} if} def
/FA {newpath tMatrix currentmatrix pop translate scale
  0 0 1 5 -2 roll arc tMatrix setmatrix stroke} bdef
/PA {newpath tMatrix currentmatrix pop	translate 0 0 moveto scale
  0 0 1 5 -2 roll arc closepath tMatrix setmatrix fill} bdef
/FAn {newpath tMatrix currentmatrix pop translate scale
  0 0 1 5 -2 roll arcn tMatrix setmatrix stroke} bdef
/PAn {newpath tMatrix currentmatrix pop translate 0 0 moveto scale
  0 0 1 5 -2 roll arcn closepath tMatrix setmatrix fill} bdef
/vradius 0 def /hradius 0 def /lry 0 def
/lrx 0 def /uly 0 def /ulx 0 def /rad 0 def
/MRR {/vradius xdef /hradius xdef /lry xdef /lrx xdef /uly xdef
  /ulx xdef newpath tMatrix currentmatrix pop ulx hradius add uly
  vradius add translate hradius vradius scale 0 0 1 180 270 arc 
  tMatrix setmatrix lrx hradius sub uly vradius add translate
  hradius vradius scale 0 0 1 270 360 arc tMatrix setmatrix
  lrx hradius sub lry vradius sub translate hradius vradius scale
  0 0 1 0 90 arc tMatrix setmatrix ulx hradius add lry vradius sub
  translate hradius vradius scale 0 0 1 90 180 arc tMatrix setmatrix
  closepath} bdef
/FRR {MRR stroke } bdef
/PRR {MRR fill } bdef
/MlrRR {/lry xdef /lrx xdef /uly xdef /ulx xdef /rad lry uly sub 2 div def
  newpath tMatrix currentmatrix pop ulx rad add uly rad add translate
  rad rad scale 0 0 1 90 270 arc tMatrix setmatrix lrx rad sub lry rad
  sub translate rad rad scale 0 0 1 270 90 arc tMatrix setmatrix
  closepath} bdef
/FlrRR {MlrRR stroke } bdef
/PlrRR {MlrRR fill } bdef
/MtbRR {/lry xdef /lrx xdef /uly xdef /ulx xdef /rad lrx ulx sub 2 div def
  newpath tMatrix currentmatrix pop ulx rad add uly rad add translate
  rad rad scale 0 0 1 180 360 arc tMatrix setmatrix lrx rad sub lry rad
  sub translate rad rad scale 0 0 1 0 180 arc tMatrix setmatrix
  closepath} bdef
/FtbRR {MtbRR stroke } bdef
/PtbRR {MtbRR fill } bdef
/stri 6 array def /dtri 6 array def
/smat 6 array def /dmat 6 array def
/tmat1 6 array def /tmat2 6 array def /dif 3 array def
/asub {/ind2 exch def /ind1 exch def dup dup
  ind1 get exch ind2 get sub exch } bdef
/tri_to_matrix {
  2 0 asub 3 1 asub 4 0 asub 5 1 asub
  dup 0 get exch 1 get 7 -1 roll astore } bdef
/compute_transform {
  dmat dtri tri_to_matrix tmat1 invertmatrix 
  smat stri tri_to_matrix tmat2 concatmatrix } bdef
/ds {stri astore pop} bdef
/dt {dtri astore pop} bdef
/db {2 copy /cols xdef /rows xdef mul dup 3 mul string
  currentfile 
  3 index 0 eq {/ASCIIHexDecode filter}
  {/ASCII85Decode filter 3 index 2 eq {/RunLengthDecode filter} if }
  ifelse exch readstring pop
  dup 0 3 index getinterval /rbmap xdef
  dup 2 index dup getinterval /gbmap xdef
  1 index dup 2 mul exch getinterval /bbmap xdef pop pop}bdef
/it {gs np dtri aload pop moveto lineto lineto cp c
  cols rows 8 compute_transform 
  rbmap gbmap bbmap true 3 colorimage gr}bdef
/il {newpath moveto lineto stroke}bdef
currentdict end def
%%EndProlog

%%BeginSetup
MathWorks begin

0 cap

end
%%EndSetup

%%Page: 1 1
%%BeginPageSetup
%%PageBoundingBox:  -206   176   818   614
MathWorks begin
bpage
%%EndPageSetup

%%BeginObject: obj1
bplot

/dpi2point 12 def
portraitMode -2472 7368 csm

    0     0 12292  5256 rc
87 dict begin %Colortable dictionary
/c0 { 0.000000 0.000000 0.000000 sr} bdef
/c1 { 1.000000 1.000000 1.000000 sr} bdef
/c2 { 0.900000 0.000000 0.000000 sr} bdef
/c3 { 0.000000 0.820000 0.000000 sr} bdef
/c4 { 0.000000 0.000000 0.800000 sr} bdef
/c5 { 0.910000 0.820000 0.320000 sr} bdef
/c6 { 1.000000 0.260000 0.820000 sr} bdef
/c7 { 0.000000 0.820000 0.820000 sr} bdef
c0
1 j
1 sg
   0    0 12293 5257 rf
6 w
0 897 2623 0 0 -897 1598 1397 4 MP
PP
-2623 0 0 897 2623 0 0 -897 1598 1397 5 MP stroke
4 w
DO
SO
6 w
0 sg
1598  500 mt 4221  500 L
1598 1397 mt 4221 1397 L
4221 1397 mt 4221  500 L
1598 1397 mt 1598  500 L
1598 1397 mt 4221 1397 L
1598 1397 mt 1598  500 L
1598 1397 mt 1598 1383 L
1598  500 mt 1598  513 L
1598 1397 mt 1598 1370 L
1598  500 mt 1598  526 L
%%IncludeResource: font Helvetica
/Helvetica /WindowsLatin1Encoding 144 FMSR

1492 1609 mt 
(10) s
%%IncludeResource: font Helvetica
/Helvetica /WindowsLatin1Encoding 96 FMSR

1652 1520 mt 
(0) s
1755 1397 mt 1755 1383 L
1755  500 mt 1755  513 L
1848 1397 mt 1848 1383 L
1848  500 mt 1848  513 L
1913 1397 mt 1913 1383 L
1913  500 mt 1913  513 L
1964 1397 mt 1964 1383 L
1964  500 mt 1964  513 L
2006 1397 mt 2006 1383 L
2006  500 mt 2006  513 L
2041 1397 mt 2041 1383 L
2041  500 mt 2041  513 L
2071 1397 mt 2071 1383 L
2071  500 mt 2071  513 L
2098 1397 mt 2098 1383 L
2098  500 mt 2098  513 L
2122 1397 mt 2122 1383 L
2122  500 mt 2122  513 L
2122 1397 mt 2122 1370 L
2122  500 mt 2122  526 L
%%IncludeResource: font Helvetica
/Helvetica /WindowsLatin1Encoding 144 FMSR

2016 1609 mt 
(10) s
%%IncludeResource: font Helvetica
/Helvetica /WindowsLatin1Encoding 96 FMSR

2176 1520 mt 
(1) s
2280 1397 mt 2280 1383 L
2280  500 mt 2280  513 L
2372 1397 mt 2372 1383 L
2372  500 mt 2372  513 L
2438 1397 mt 2438 1383 L
2438  500 mt 2438  513 L
2489 1397 mt 2489 1383 L
2489  500 mt 2489  513 L
2530 1397 mt 2530 1383 L
2530  500 mt 2530  513 L
2565 1397 mt 2565 1383 L
2565  500 mt 2565  513 L
2596 1397 mt 2596 1383 L
2596  500 mt 2596  513 L
2623 1397 mt 2623 1383 L
2623  500 mt 2623  513 L
2647 1397 mt 2647 1383 L
2647  500 mt 2647  513 L
2647 1397 mt 2647 1370 L
2647  500 mt 2647  526 L
%%IncludeResource: font Helvetica
/Helvetica /WindowsLatin1Encoding 144 FMSR

2541 1609 mt 
(10) s
%%IncludeResource: font Helvetica
/Helvetica /WindowsLatin1Encoding 96 FMSR

2701 1520 mt 
(2) s
2805 1397 mt 2805 1383 L
2805  500 mt 2805  513 L
2897 1397 mt 2897 1383 L
2897  500 mt 2897  513 L
2963 1397 mt 2963 1383 L
2963  500 mt 2963  513 L
3013 1397 mt 3013 1383 L
3013  500 mt 3013  513 L
3055 1397 mt 3055 1383 L
3055  500 mt 3055  513 L
3090 1397 mt 3090 1383 L
3090  500 mt 3090  513 L
3120 1397 mt 3120 1383 L
3120  500 mt 3120  513 L
3147 1397 mt 3147 1383 L
3147  500 mt 3147  513 L
3171 1397 mt 3171 1383 L
3171  500 mt 3171  513 L
3171 1397 mt 3171 1370 L
3171  500 mt 3171  526 L
%%IncludeResource: font Helvetica
/Helvetica /WindowsLatin1Encoding 144 FMSR

3065 1609 mt 
(10) s
%%IncludeResource: font Helvetica
/Helvetica /WindowsLatin1Encoding 96 FMSR

3225 1520 mt 
(3) s
3329 1397 mt 3329 1383 L
3329  500 mt 3329  513 L
3422 1397 mt 3422 1383 L
3422  500 mt 3422  513 L
3487 1397 mt 3487 1383 L
3487  500 mt 3487  513 L
3538 1397 mt 3538 1383 L
3538  500 mt 3538  513 L
3580 1397 mt 3580 1383 L
3580  500 mt 3580  513 L
3615 1397 mt 3615 1383 L
3615  500 mt 3615  513 L
3645 1397 mt 3645 1383 L
3645  500 mt 3645  513 L
3672 1397 mt 3672 1383 L
3672  500 mt 3672  513 L
3696 1397 mt 3696 1383 L
3696  500 mt 3696  513 L
3696 1397 mt 3696 1370 L
3696  500 mt 3696  526 L
%%IncludeResource: font Helvetica
/Helvetica /WindowsLatin1Encoding 144 FMSR

3590 1609 mt 
(10) s
%%IncludeResource: font Helvetica
/Helvetica /WindowsLatin1Encoding 96 FMSR

3750 1520 mt 
(4) s
3854 1397 mt 3854 1383 L
3854  500 mt 3854  513 L
3946 1397 mt 3946 1383 L
3946  500 mt 3946  513 L
4012 1397 mt 4012 1383 L
4012  500 mt 4012  513 L
4063 1397 mt 4063 1383 L
4063  500 mt 4063  513 L
4104 1397 mt 4104 1383 L
4104  500 mt 4104  513 L
4139 1397 mt 4139 1383 L
4139  500 mt 4139  513 L
4170 1397 mt 4170 1383 L
4170  500 mt 4170  513 L
4196 1397 mt 4196 1383 L
4196  500 mt 4196  513 L
4221 1397 mt 4221 1383 L
4221  500 mt 4221  513 L
4221 1397 mt 4221 1370 L
4221  500 mt 4221  526 L
%%IncludeResource: font Helvetica
/Helvetica /WindowsLatin1Encoding 144 FMSR

4115 1609 mt 
(10) s
%%IncludeResource: font Helvetica
/Helvetica /WindowsLatin1Encoding 96 FMSR

4275 1520 mt 
(5) s
1598 1397 mt 1611 1397 L
4221 1397 mt 4207 1397 L
1598 1397 mt 1624 1397 L
4221 1397 mt 4194 1397 L
%%IncludeResource: font Helvetica
/Helvetica /WindowsLatin1Encoding 144 FMSR

1350 1450 mt 
(10) s
%%IncludeResource: font Helvetica
/Helvetica /WindowsLatin1Encoding 96 FMSR

1510 1361 mt 
(0) s
1598 1261 mt 1611 1261 L
4221 1261 mt 4207 1261 L
1598 1183 mt 1611 1183 L
4221 1183 mt 4207 1183 L
1598 1126 mt 1611 1126 L
4221 1126 mt 4207 1126 L
1598 1083 mt 1611 1083 L
4221 1083 mt 4207 1083 L
1598 1047 mt 1611 1047 L
4221 1047 mt 4207 1047 L
1598 1017 mt 1611 1017 L
4221 1017 mt 4207 1017 L
1598  991 mt 1611  991 L
4221  991 mt 4207  991 L
1598  969 mt 1611  969 L
4221  969 mt 4207  969 L
1598  948 mt 1611  948 L
4221  948 mt 4207  948 L
1598  948 mt 1624  948 L
4221  948 mt 4194  948 L
%%IncludeResource: font Helvetica
/Helvetica /WindowsLatin1Encoding 144 FMSR

1350 1001 mt 
(10) s
%%IncludeResource: font Helvetica
/Helvetica /WindowsLatin1Encoding 96 FMSR

1510  912 mt 
(1) s
1598  813 mt 1611  813 L
4221  813 mt 4207  813 L
1598  734 mt 1611  734 L
4221  734 mt 4207  734 L
1598  678 mt 1611  678 L
4221  678 mt 4207  678 L
1598  635 mt 1611  635 L
4221  635 mt 4207  635 L
1598  599 mt 1611  599 L
4221  599 mt 4207  599 L
1598  569 mt 1611  569 L
4221  569 mt 4207  569 L
1598  543 mt 1611  543 L
4221  543 mt 4207  543 L
1598  520 mt 1611  520 L
4221  520 mt 4207  520 L
1598  500 mt 1611  500 L
4221  500 mt 4207  500 L
1598  500 mt 1624  500 L
4221  500 mt 4194  500 L
%%IncludeResource: font Helvetica
/Helvetica /WindowsLatin1Encoding 144 FMSR

1350  553 mt 
(10) s
%%IncludeResource: font Helvetica
/Helvetica /WindowsLatin1Encoding 96 FMSR

1510  464 mt 
(2) s
1598  500 mt 4221  500 L
1598 1397 mt 4221 1397 L
4221 1397 mt 4221  500 L
1598 1397 mt 1598  500 L
gs 1598 500 2624 898 rc
24 w
/c8 { 1.000000 0.000000 0.000000 sr} bdef
c8
158 -20 158 -22 158 -29 157 -10 158 -26 158 -3 158 14 158 30 
158 42 56 17 3 2 2 1 2 2 3 3 2 2 2 2 
3 2 2 2 3 2 2 2 3 2 2 2 3 3 3 2 
2 2 3 3 3 2 3 2 2 -4 3 2 3 2 3 3 
3 2 3 3 3 -5 3 3 3 2 3 -5 3 3 4 3 
3 3 3 3 4 2 3 3 3 3 4 3 4 -13 3 3 
4 4 4 3 4 3 3 -5 4 3 4 4 5 3 4 4 
4 3 4 -5 5 4 4 4 5 3 5 4 4 -5 5 -6 
5 5 5 -7 6 -18 5 -8 5 -9 6 5 6 5 6 5 
6 5 6 6 6 5 7 -9 7 6 7 6 7 6 8 7 
7 6 8 7 9 -8 8 7 9 8 9 -9 10 8 10 -10 
11 9 11 -11 12 10 12 10 13 12 14 11 15 -10 15 -13 
17 15 18 -15 20 -18 22 18 24 21 27 23 30 26 35 30 
42 -8 51 -13 65 -22 93 -57 157 135 1598 500 110 MP stroke
/c9 { 0.000000 1.000000 0.000000 sr} bdef
c9
120 46 157 83 158 109 158 123 158 120 158 79 158 28 56 -3 
3 -8 2 2 2 2 3 2 2 2 2 2 3 2 2 2 
3 2 2 -8 3 2 2 2 3 -9 3 3 2 2 3 2 
3 3 3 2 2 -9 3 2 3 2 3 3 3 2 3 3 
3 -10 3 3 3 2 3 3 3 3 4 2 3 3 3 3 
4 3 3 3 3 3 4 3 4 -10 3 3 4 3 4 3 
4 3 3 4 4 -11 4 3 5 4 4 3 4 4 4 -12 
5 4 4 4 5 3 5 4 4 5 5 4 5 4 5 -13 
6 -14 5 5 5 5 6 4 6 5 6 5 6 6 6 5 
6 5 7 6 7 6 7 6 7 6 8 7 7 6 8 7 
9 7 8 7 9 8 9 8 10 8 10 27 11 10 11 -10 
12 10 12 11 13 11 14 10 15 -10 15 -13 17 -34 18 -63 
20 16 22 19 24 21 27 -34 30 26 35 30 42 -43 51 43 
65 75 93 -56 100 -782 1655 1398 108 MP stroke
/c10 { 0.000000 1.000000 1.000000 sr} bdef
c10
103 88 158 135 56 49 3 1 2 2 2 2 3 2 2 3 
2 2 3 2 2 2 3 2 2 2 3 2 2 2 3 3 
3 2 2 2 3 2 3 3 3 2 2 3 3 2 3 2 
3 3 3 2 3 3 3 3 3 2 3 3 3 3 3 2 
4 3 3 3 3 3 4 3 3 2 3 3 4 3 4 4 
3 3 4 3 4 3 4 3 3 4 4 3 4 3 5 4 
4 4 4 3 4 4 5 4 4 4 5 3 5 4 4 5 
5 4 5 4 5 4 6 5 5 4 5 5 6 5 6 5 
6 5 6 5 6 6 6 5 7 6 7 5 7 6 7 7 
8 6 7 7 8 6 9 8 8 7 9 8 9 7 10 9 
10 8 11 10 11 9 12 10 12 11 13 11 14 11 15 13 
15 13 17 15 18 34 20 17 22 19 24 20 27 4 30 26 
35 -7 42 17 51 -17 65 75 93 -56 102 -801 1653 1398 103 MP stroke
0 sg
1 1 3 2 2 2 2 2 3 2 2 2 2 3 3 2 
2 2 3 2 2 2 3 2 2 2 3 3 3 2 2 2 
3 2 3 3 3 2 2 3 3 2 3 2 3 3 3 2 
3 3 3 3 3 2 3 3 3 2 3 3 4 3 3 3 
3 3 4 3 3 2 3 3 4 3 4 3 3 4 4 3 
4 3 4 3 3 4 4 3 4 3 5 4 4 4 4 3 
4 4 5 4 4 4 5 3 5 4 4 5 5 4 5 4 
5 4 6 5 5 4 5 5 6 5 6 5 6 5 6 5 
6 5 6 6 7 6 7 5 7 6 7 7 8 6 7 7 
8 6 9 8 8 7 9 8 9 7 10 9 10 8 11 9 
11 10 12 10 12 11 13 11 6 -347 2237 1398 86 MP stroke
DA
/c11 { 0.000000 0.000000 1.000000 sr} bdef
c11
105 82 158 129 158 114 158 86 158 94 56 -4 3 -14 2 2 
2 2 3 2 2 3 2 2 3 2 2 2 3 2 2 2 
3 2 2 2 3 3 3 2 2 2 3 2 3 3 3 2 
2 3 3 2 3 2 3 3 3 2 3 3 3 -14 3 2 
3 3 3 3 3 2 4 3 3 3 3 3 4 3 3 2 
3 3 4 3 4 4 3 3 4 3 4 3 4 3 3 4 
4 -16 4 4 5 3 4 4 4 4 4 -17 5 4 4 3 
5 4 5 4 4 5 5 4 5 4 5 4 6 5 5 4 
5 5 6 5 6 5 6 5 6 5 6 5 6 6 7 6 
7 5 7 6 7 7 8 6 7 7 8 6 9 8 8 7 
9 8 9 7 10 9 10 8 11 9 11 29 12 10 12 10 
13 11 14 31 15 -11 15 -24 17 15 18 -22 20 -2 22 2 
24 21 27 -21 30 -30 35 -67 42 54 51 -111 39 -628 1874 1398 104 MP stroke
gr

24 w
c11
DA
0 sg
%%IncludeResource: font Helvetica
/Helvetica /WindowsLatin1Encoding 144 FMSR

2640  386 mt 
(Chi) s
%%IncludeResource: font Helvetica
/Helvetica /WindowsLatin1Encoding 108 FMSR

2856  314 mt 
(2) s
%%IncludeResource: font Helvetica
/Helvetica /WindowsLatin1Encoding 144 FMSR

2916  386 mt 
( vs. ) s
1263 1401 mt  -90 rotate
(intersection %) s
90 rotate
2381 1770 mt 
(sorted list length) s
SO
6 w
1 sg
0 897 2623 0 0 -897 5050 1397 4 MP
PP
-2623 0 0 897 2623 0 0 -897 5050 1397 5 MP stroke
4 w
DO
SO
6 w
0 sg
5050  500 mt 7673  500 L
5050 1397 mt 7673 1397 L
7673 1397 mt 7673  500 L
5050 1397 mt 5050  500 L
5050 1397 mt 7673 1397 L
5050 1397 mt 5050  500 L
5050 1397 mt 5050 1383 L
5050  500 mt 5050  513 L
5050 1397 mt 5050 1370 L
5050  500 mt 5050  526 L
4944 1609 mt 
(10) s
%%IncludeResource: font Helvetica
/Helvetica /WindowsLatin1Encoding 96 FMSR

5104 1520 mt 
(0) s
5207 1397 mt 5207 1383 L
5207  500 mt 5207  513 L
5300 1397 mt 5300 1383 L
5300  500 mt 5300  513 L
5365 1397 mt 5365 1383 L
5365  500 mt 5365  513 L
5416 1397 mt 5416 1383 L
5416  500 mt 5416  513 L
5458 1397 mt 5458 1383 L
5458  500 mt 5458  513 L
5493 1397 mt 5493 1383 L
5493  500 mt 5493  513 L
5523 1397 mt 5523 1383 L
5523  500 mt 5523  513 L
5550 1397 mt 5550 1383 L
5550  500 mt 5550  513 L
5574 1397 mt 5574 1383 L
5574  500 mt 5574  513 L
5574 1397 mt 5574 1370 L
5574  500 mt 5574  526 L
%%IncludeResource: font Helvetica
/Helvetica /WindowsLatin1Encoding 144 FMSR

5468 1609 mt 
(10) s
%%IncludeResource: font Helvetica
/Helvetica /WindowsLatin1Encoding 96 FMSR

5628 1520 mt 
(1) s
5732 1397 mt 5732 1383 L
5732  500 mt 5732  513 L
5824 1397 mt 5824 1383 L
5824  500 mt 5824  513 L
5890 1397 mt 5890 1383 L
5890  500 mt 5890  513 L
5941 1397 mt 5941 1383 L
5941  500 mt 5941  513 L
5982 1397 mt 5982 1383 L
5982  500 mt 5982  513 L
6017 1397 mt 6017 1383 L
6017  500 mt 6017  513 L
6048 1397 mt 6048 1383 L
6048  500 mt 6048  513 L
6075 1397 mt 6075 1383 L
6075  500 mt 6075  513 L
6099 1397 mt 6099 1383 L
6099  500 mt 6099  513 L
6099 1397 mt 6099 1370 L
6099  500 mt 6099  526 L
%%IncludeResource: font Helvetica
/Helvetica /WindowsLatin1Encoding 144 FMSR

5993 1609 mt 
(10) s
%%IncludeResource: font Helvetica
/Helvetica /WindowsLatin1Encoding 96 FMSR

6153 1520 mt 
(2) s
6257 1397 mt 6257 1383 L
6257  500 mt 6257  513 L
6349 1397 mt 6349 1383 L
6349  500 mt 6349  513 L
6415 1397 mt 6415 1383 L
6415  500 mt 6415  513 L
6465 1397 mt 6465 1383 L
6465  500 mt 6465  513 L
6507 1397 mt 6507 1383 L
6507  500 mt 6507  513 L
6542 1397 mt 6542 1383 L
6542  500 mt 6542  513 L
6572 1397 mt 6572 1383 L
6572  500 mt 6572  513 L
6599 1397 mt 6599 1383 L
6599  500 mt 6599  513 L
6623 1397 mt 6623 1383 L
6623  500 mt 6623  513 L
6623 1397 mt 6623 1370 L
6623  500 mt 6623  526 L
%%IncludeResource: font Helvetica
/Helvetica /WindowsLatin1Encoding 144 FMSR

6517 1609 mt 
(10) s
%%IncludeResource: font Helvetica
/Helvetica /WindowsLatin1Encoding 96 FMSR

6677 1520 mt 
(3) s
6781 1397 mt 6781 1383 L
6781  500 mt 6781  513 L
6874 1397 mt 6874 1383 L
6874  500 mt 6874  513 L
6939 1397 mt 6939 1383 L
6939  500 mt 6939  513 L
6990 1397 mt 6990 1383 L
6990  500 mt 6990  513 L
7032 1397 mt 7032 1383 L
7032  500 mt 7032  513 L
7067 1397 mt 7067 1383 L
7067  500 mt 7067  513 L
7097 1397 mt 7097 1383 L
7097  500 mt 7097  513 L
7124 1397 mt 7124 1383 L
7124  500 mt 7124  513 L
7148 1397 mt 7148 1383 L
7148  500 mt 7148  513 L
7148 1397 mt 7148 1370 L
7148  500 mt 7148  526 L
%%IncludeResource: font Helvetica
/Helvetica /WindowsLatin1Encoding 144 FMSR

7042 1609 mt 
(10) s
%%IncludeResource: font Helvetica
/Helvetica /WindowsLatin1Encoding 96 FMSR

7202 1520 mt 
(4) s
7306 1397 mt 7306 1383 L
7306  500 mt 7306  513 L
7398 1397 mt 7398 1383 L
7398  500 mt 7398  513 L
7464 1397 mt 7464 1383 L
7464  500 mt 7464  513 L
7515 1397 mt 7515 1383 L
7515  500 mt 7515  513 L
7556 1397 mt 7556 1383 L
7556  500 mt 7556  513 L
7591 1397 mt 7591 1383 L
7591  500 mt 7591  513 L
7622 1397 mt 7622 1383 L
7622  500 mt 7622  513 L
7648 1397 mt 7648 1383 L
7648  500 mt 7648  513 L
7673 1397 mt 7673 1383 L
7673  500 mt 7673  513 L
7673 1397 mt 7673 1370 L
7673  500 mt 7673  526 L
%%IncludeResource: font Helvetica
/Helvetica /WindowsLatin1Encoding 144 FMSR

7567 1609 mt 
(10) s
%%IncludeResource: font Helvetica
/Helvetica /WindowsLatin1Encoding 96 FMSR

7727 1520 mt 
(5) s
5050 1397 mt 5063 1397 L
7673 1397 mt 7659 1397 L
5050 1397 mt 5076 1397 L
7673 1397 mt 7646 1397 L
%%IncludeResource: font Helvetica
/Helvetica /WindowsLatin1Encoding 144 FMSR

4802 1450 mt 
(10) s
%%IncludeResource: font Helvetica
/Helvetica /WindowsLatin1Encoding 96 FMSR

4962 1361 mt 
(0) s
5050 1261 mt 5063 1261 L
7673 1261 mt 7659 1261 L
5050 1183 mt 5063 1183 L
7673 1183 mt 7659 1183 L
5050 1126 mt 5063 1126 L
7673 1126 mt 7659 1126 L
5050 1083 mt 5063 1083 L
7673 1083 mt 7659 1083 L
5050 1047 mt 5063 1047 L
7673 1047 mt 7659 1047 L
5050 1017 mt 5063 1017 L
7673 1017 mt 7659 1017 L
5050  991 mt 5063  991 L
7673  991 mt 7659  991 L
5050  969 mt 5063  969 L
7673  969 mt 7659  969 L
5050  948 mt 5063  948 L
7673  948 mt 7659  948 L
5050  948 mt 5076  948 L
7673  948 mt 7646  948 L
%%IncludeResource: font Helvetica
/Helvetica /WindowsLatin1Encoding 144 FMSR

4802 1001 mt 
(10) s
%%IncludeResource: font Helvetica
/Helvetica /WindowsLatin1Encoding 96 FMSR

4962  912 mt 
(1) s
5050  813 mt 5063  813 L
7673  813 mt 7659  813 L
5050  734 mt 5063  734 L
7673  734 mt 7659  734 L
5050  678 mt 5063  678 L
7673  678 mt 7659  678 L
5050  635 mt 5063  635 L
7673  635 mt 7659  635 L
5050  599 mt 5063  599 L
7673  599 mt 7659  599 L
5050  569 mt 5063  569 L
7673  569 mt 7659  569 L
5050  543 mt 5063  543 L
7673  543 mt 7659  543 L
5050  520 mt 5063  520 L
7673  520 mt 7659  520 L
5050  500 mt 5063  500 L
7673  500 mt 7659  500 L
5050  500 mt 5076  500 L
7673  500 mt 7646  500 L
%%IncludeResource: font Helvetica
/Helvetica /WindowsLatin1Encoding 144 FMSR

4802  553 mt 
(10) s
%%IncludeResource: font Helvetica
/Helvetica /WindowsLatin1Encoding 96 FMSR

4962  464 mt 
(2) s
5050  500 mt 7673  500 L
5050 1397 mt 7673 1397 L
7673 1397 mt 7673  500 L
5050 1397 mt 5050  500 L
gs 5050 500 2624 898 rc
24 w
c11
158 -20 158 -22 158 -29 157 -10 158 -26 158 -3 158 14 158 30 
158 42 56 17 3 2 2 1 2 2 3 3 2 2 2 2 
3 2 2 2 3 2 2 2 3 2 2 2 3 3 3 2 
2 2 3 3 3 2 3 2 2 -4 3 2 3 2 3 3 
3 2 3 3 3 -5 3 3 3 2 3 -5 3 3 4 3 
3 3 3 3 4 2 3 3 3 3 4 3 4 -13 3 3 
4 4 4 3 4 3 3 -5 4 3 4 4 5 3 4 4 
4 3 4 -5 5 4 4 4 5 3 5 4 4 -5 5 -6 
5 5 5 -7 6 -18 5 -8 5 -9 6 5 6 5 6 5 
6 5 6 6 6 5 7 -9 7 6 7 6 7 6 8 7 
7 6 8 7 9 -8 8 7 9 8 9 -9 10 8 10 -10 
11 9 11 -11 12 10 12 10 13 12 14 11 15 -10 15 -13 
17 15 18 -15 20 -18 22 18 24 21 27 23 30 26 35 30 
42 -8 51 -13 65 -22 93 -57 157 135 5050 500 110 MP stroke
c9
158 54 158 52 158 77 157 68 158 76 158 89 158 106 158 102 
158 60 56 -21 3 2 2 2 2 -4 3 2 2 2 2 2 
3 2 2 -4 3 2 2 14 3 2 2 2 3 -23 3 -6 
2 -5 3 2 3 3 3 2 2 -5 3 -6 3 -7 3 3 
3 2 3 3 3 3 3 2 3 3 3 3 3 2 4 3 
3 3 3 3 4 3 3 -7 3 3 4 3 4 4 3 -7 
4 3 4 4 4 3 3 -7 4 4 4 3 5 3 4 4 
4 4 4 3 5 4 4 4 5 4 5 4 4 4 5 23 
5 -25 5 23 6 -14 5 4 5 5 6 5 6 5 6 5 
6 5 6 5 6 6 7 6 7 5 7 6 7 7 8 6 
7 -5 8 7 9 -4 8 7 9 8 9 8 10 -5 10 9 
11 9 11 9 12 10 12 11 13 -2 14 -3 15 -3 15 -3 
17 14 18 -3 20 17 22 -2 24 -2 27 -34 30 10 35 -32 
42 -21 51 62 65 -23 93 -56 100 -782 5107 1398 110 MP stroke
c10
103 88 158 135 56 49 3 1 2 2 2 2 3 2 2 3 
2 2 3 2 2 2 3 2 2 2 3 2 2 2 3 3 
3 2 2 2 3 2 3 3 3 2 2 3 3 2 3 2 
3 3 3 2 3 3 3 3 3 2 3 3 3 3 3 2 
4 3 3 3 3 3 4 3 3 2 3 3 4 3 4 4 
3 3 4 3 4 3 4 3 3 4 4 3 4 3 5 4 
4 4 4 3 4 4 5 4 4 4 5 3 5 4 4 5 
5 4 5 4 5 4 6 5 5 4 5 5 6 5 6 5 
6 5 6 5 6 6 6 5 7 6 7 5 7 6 7 7 
8 6 7 7 8 6 9 -48 8 7 9 8 9 7 10 9 
10 8 11 9 11 10 12 10 12 10 13 12 14 11 15 13 
15 -66 17 15 18 15 20 17 22 19 24 21 27 22 30 26 
35 31 42 35 51 43 65 -78 56 -685 5244 1398 102 MP stroke
DA
c11
77 55 158 100 158 130 158 107 158 101 158 71 56 -35 3 2 
2 2 2 2 3 2 2 2 2 2 3 2 2 2 3 2 
2 2 3 3 2 2 3 2 3 2 2 3 3 2 3 2 
3 3 2 2 3 2 3 3 3 2 3 3 3 2 3 3 
3 3 3 2 3 3 3 3 4 2 3 -10 3 3 4 3 
3 -12 3 3 4 3 4 3 3 3 4 3 4 4 4 3 
3 -12 4 3 4 3 5 4 4 4 4 3 4 4 5 4 
4 4 5 3 5 4 4 5 5 4 5 -13 5 4 6 5 
5 5 5 4 6 5 6 5 6 5 6 5 6 6 6 5 
7 6 7 6 7 6 7 6 8 6 7 7 8 -12 9 -13 
8 7 9 8 9 7 10 -14 10 8 11 10 11 9 12 10 
12 11 13 11 14 11 15 32 15 -13 17 14 18 -14 20 -19 
22 -43 24 21 27 -94 30 -128 35 30 42 36 29 -585 5387 1398 104 MP stroke
c9
1 1 3 2 2 2 2 2 3 2 2 2 2 3 3 2 
2 2 3 2 2 2 3 2 2 2 3 3 3 2 2 2 
3 2 3 3 3 2 2 3 3 2 3 2 3 3 3 2 
3 3 3 3 3 2 3 3 3 2 3 3 4 3 3 3 
3 3 4 3 3 2 3 3 4 3 4 3 0 -91 5993 1398 40 MP stroke
gr

24 w
c9
DA
0 sg
%%IncludeResource: font Helvetica
/Helvetica /WindowsLatin1Encoding 144 FMSR

6138  386 mt 
(SS vs. ) s
4715 1401 mt  -90 rotate
(intersection %) s
90 rotate
5833 1770 mt 
(sorted list length) s
SO
6 w
1 sg
0 897 2623 0 0 -897 8501 1397 4 MP
PP
-2623 0 0 897 2623 0 0 -897 8501 1397 5 MP stroke
4 w
DO
SO
6 w
0 sg
8501  500 mt 11124  500 L
8501 1397 mt 11124 1397 L
11124 1397 mt 11124  500 L
8501 1397 mt 8501  500 L
8501 1397 mt 11124 1397 L
8501 1397 mt 8501  500 L
8501 1397 mt 8501 1383 L
8501  500 mt 8501  513 L
8501 1397 mt 8501 1370 L
8501  500 mt 8501  526 L
8395 1609 mt 
(10) s
%%IncludeResource: font Helvetica
/Helvetica /WindowsLatin1Encoding 96 FMSR

8555 1520 mt 
(0) s
8658 1397 mt 8658 1383 L
8658  500 mt 8658  513 L
8751 1397 mt 8751 1383 L
8751  500 mt 8751  513 L
8816 1397 mt 8816 1383 L
8816  500 mt 8816  513 L
8867 1397 mt 8867 1383 L
8867  500 mt 8867  513 L
8909 1397 mt 8909 1383 L
8909  500 mt 8909  513 L
8944 1397 mt 8944 1383 L
8944  500 mt 8944  513 L
8974 1397 mt 8974 1383 L
8974  500 mt 8974  513 L
9001 1397 mt 9001 1383 L
9001  500 mt 9001  513 L
9025 1397 mt 9025 1383 L
9025  500 mt 9025  513 L
9025 1397 mt 9025 1370 L
9025  500 mt 9025  526 L
%%IncludeResource: font Helvetica
/Helvetica /WindowsLatin1Encoding 144 FMSR

8919 1609 mt 
(10) s
%%IncludeResource: font Helvetica
/Helvetica /WindowsLatin1Encoding 96 FMSR

9079 1520 mt 
(1) s
9183 1397 mt 9183 1383 L
9183  500 mt 9183  513 L
9275 1397 mt 9275 1383 L
9275  500 mt 9275  513 L
9341 1397 mt 9341 1383 L
9341  500 mt 9341  513 L
9392 1397 mt 9392 1383 L
9392  500 mt 9392  513 L
9433 1397 mt 9433 1383 L
9433  500 mt 9433  513 L
9468 1397 mt 9468 1383 L
9468  500 mt 9468  513 L
9499 1397 mt 9499 1383 L
9499  500 mt 9499  513 L
9526 1397 mt 9526 1383 L
9526  500 mt 9526  513 L
9550 1397 mt 9550 1383 L
9550  500 mt 9550  513 L
9550 1397 mt 9550 1370 L
9550  500 mt 9550  526 L
%%IncludeResource: font Helvetica
/Helvetica /WindowsLatin1Encoding 144 FMSR

9444 1609 mt 
(10) s
%%IncludeResource: font Helvetica
/Helvetica /WindowsLatin1Encoding 96 FMSR

9604 1520 mt 
(2) s
9708 1397 mt 9708 1383 L
9708  500 mt 9708  513 L
9800 1397 mt 9800 1383 L
9800  500 mt 9800  513 L
9866 1397 mt 9866 1383 L
9866  500 mt 9866  513 L
9916 1397 mt 9916 1383 L
9916  500 mt 9916  513 L
9958 1397 mt 9958 1383 L
9958  500 mt 9958  513 L
9993 1397 mt 9993 1383 L
9993  500 mt 9993  513 L
10023 1397 mt 10023 1383 L
10023  500 mt 10023  513 L
10050 1397 mt 10050 1383 L
10050  500 mt 10050  513 L
10074 1397 mt 10074 1383 L
10074  500 mt 10074  513 L
10074 1397 mt 10074 1370 L
10074  500 mt 10074  526 L
%%IncludeResource: font Helvetica
/Helvetica /WindowsLatin1Encoding 144 FMSR

9968 1609 mt 
(10) s
%%IncludeResource: font Helvetica
/Helvetica /WindowsLatin1Encoding 96 FMSR

10128 1520 mt 
(3) s
10232 1397 mt 10232 1383 L
10232  500 mt 10232  513 L
10325 1397 mt 10325 1383 L
10325  500 mt 10325  513 L
10390 1397 mt 10390 1383 L
10390  500 mt 10390  513 L
10441 1397 mt 10441 1383 L
10441  500 mt 10441  513 L
10483 1397 mt 10483 1383 L
10483  500 mt 10483  513 L
10518 1397 mt 10518 1383 L
10518  500 mt 10518  513 L
10548 1397 mt 10548 1383 L
10548  500 mt 10548  513 L
10575 1397 mt 10575 1383 L
10575  500 mt 10575  513 L
10599 1397 mt 10599 1383 L
10599  500 mt 10599  513 L
10599 1397 mt 10599 1370 L
10599  500 mt 10599  526 L
%%IncludeResource: font Helvetica
/Helvetica /WindowsLatin1Encoding 144 FMSR

10493 1609 mt 
(10) s
%%IncludeResource: font Helvetica
/Helvetica /WindowsLatin1Encoding 96 FMSR

10653 1520 mt 
(4) s
10757 1397 mt 10757 1383 L
10757  500 mt 10757  513 L
10849 1397 mt 10849 1383 L
10849  500 mt 10849  513 L
10915 1397 mt 10915 1383 L
10915  500 mt 10915  513 L
10966 1397 mt 10966 1383 L
10966  500 mt 10966  513 L
11007 1397 mt 11007 1383 L
11007  500 mt 11007  513 L
11042 1397 mt 11042 1383 L
11042  500 mt 11042  513 L
11073 1397 mt 11073 1383 L
11073  500 mt 11073  513 L
11099 1397 mt 11099 1383 L
11099  500 mt 11099  513 L
11124 1397 mt 11124 1383 L
11124  500 mt 11124  513 L
11124 1397 mt 11124 1370 L
11124  500 mt 11124  526 L
%%IncludeResource: font Helvetica
/Helvetica /WindowsLatin1Encoding 144 FMSR

11018 1609 mt 
(10) s
%%IncludeResource: font Helvetica
/Helvetica /WindowsLatin1Encoding 96 FMSR

11178 1520 mt 
(5) s
8501 1397 mt 8514 1397 L
11124 1397 mt 11110 1397 L
8501 1397 mt 8527 1397 L
11124 1397 mt 11097 1397 L
%%IncludeResource: font Helvetica
/Helvetica /WindowsLatin1Encoding 144 FMSR

8253 1450 mt 
(10) s
%%IncludeResource: font Helvetica
/Helvetica /WindowsLatin1Encoding 96 FMSR

8413 1361 mt 
(0) s
8501 1261 mt 8514 1261 L
11124 1261 mt 11110 1261 L
8501 1183 mt 8514 1183 L
11124 1183 mt 11110 1183 L
8501 1126 mt 8514 1126 L
11124 1126 mt 11110 1126 L
8501 1083 mt 8514 1083 L
11124 1083 mt 11110 1083 L
8501 1047 mt 8514 1047 L
11124 1047 mt 11110 1047 L
8501 1017 mt 8514 1017 L
11124 1017 mt 11110 1017 L
8501  991 mt 8514  991 L
11124  991 mt 11110  991 L
8501  969 mt 8514  969 L
11124  969 mt 11110  969 L
8501  948 mt 8514  948 L
11124  948 mt 11110  948 L
8501  948 mt 8527  948 L
11124  948 mt 11097  948 L
%%IncludeResource: font Helvetica
/Helvetica /WindowsLatin1Encoding 144 FMSR

8253 1001 mt 
(10) s
%%IncludeResource: font Helvetica
/Helvetica /WindowsLatin1Encoding 96 FMSR

8413  912 mt 
(1) s
8501  813 mt 8514  813 L
11124  813 mt 11110  813 L
8501  734 mt 8514  734 L
11124  734 mt 11110  734 L
8501  678 mt 8514  678 L
11124  678 mt 11110  678 L
8501  635 mt 8514  635 L
11124  635 mt 11110  635 L
8501  599 mt 8514  599 L
11124  599 mt 11110  599 L
8501  569 mt 8514  569 L
11124  569 mt 11110  569 L
8501  543 mt 8514  543 L
11124  543 mt 11110  543 L
8501  520 mt 8514  520 L
11124  520 mt 11110  520 L
8501  500 mt 8514  500 L
11124  500 mt 11110  500 L
8501  500 mt 8527  500 L
11124  500 mt 11097  500 L
%%IncludeResource: font Helvetica
/Helvetica /WindowsLatin1Encoding 144 FMSR

8253  553 mt 
(10) s
%%IncludeResource: font Helvetica
/Helvetica /WindowsLatin1Encoding 96 FMSR

8413  464 mt 
(2) s
8501  500 mt 11124  500 L
8501 1397 mt 11124 1397 L
11124 1397 mt 11124  500 L
8501 1397 mt 8501  500 L
gs 8501 500 2624 898 rc
24 w
c11
120 46 157 83 158 109 158 123 158 120 158 79 158 28 56 -3 
3 -8 2 2 2 2 3 2 2 2 2 2 3 2 2 2 
3 2 2 -8 3 2 2 2 3 -9 3 3 2 2 3 2 
3 3 3 2 2 -9 3 2 3 2 3 3 3 2 3 3 
3 -10 3 3 3 2 3 3 3 3 4 2 3 3 3 3 
4 3 3 3 3 3 4 3 4 -10 3 3 4 3 4 3 
4 3 3 4 4 -11 4 3 5 4 4 3 4 4 4 -12 
5 4 4 4 5 3 5 4 4 5 5 4 5 4 5 -13 
6 -14 5 5 5 5 6 4 6 5 6 5 6 6 6 5 
6 5 7 6 7 6 7 6 7 6 8 7 7 6 8 7 
9 7 8 7 9 8 9 8 10 8 10 9 11 9 11 9 
12 10 12 11 13 11 14 -9 15 -10 15 -13 17 -15 18 -63 
20 16 22 19 24 21 27 -34 30 26 35 30 42 -43 51 43 
65 57 93 -57 99 -763 8559 1398 108 MP stroke
c8
158 54 158 52 158 77 157 68 158 76 158 89 158 106 158 102 
158 60 56 -21 3 2 2 2 2 -4 3 2 2 2 2 2 
3 2 2 -4 3 2 2 -5 3 2 2 2 3 -4 3 -6 
2 -5 3 2 3 3 3 2 2 -5 3 -6 3 -7 3 3 
3 2 3 3 3 3 3 2 3 3 3 3 3 2 4 3 
3 3 3 3 4 3 3 -7 3 3 4 3 4 4 3 -7 
4 3 4 4 4 3 3 -7 4 4 4 3 5 3 4 4 
4 4 4 3 5 4 4 4 5 4 5 4 4 4 5 4 
5 -6 5 4 6 5 5 4 5 5 6 5 6 5 6 5 
6 5 6 5 6 6 7 6 7 5 7 6 7 7 8 6 
7 -5 8 7 9 -4 8 7 9 8 9 8 10 -5 10 9 
11 9 11 9 12 10 12 11 13 -2 14 -3 15 -3 15 -3 
17 14 18 -3 20 17 22 -2 24 -2 27 -34 30 -9 35 -13 
42 -21 51 43 65 -4 93 -56 102 -782 8556 1398 110 MP stroke
c10
158 -25 158 -26 158 -22 157 -38 158 -14 158 -24 158 -14 158 26 
158 135 56 49 3 1 2 2 2 2 3 2 2 3 2 2 
3 2 2 2 3 2 2 2 3 2 2 2 3 3 3 2 
2 2 3 2 3 3 3 2 2 3 3 2 3 2 3 3 
3 2 3 3 3 3 3 2 3 3 3 3 3 2 4 3 
3 3 3 3 4 3 3 2 3 3 4 3 4 4 3 3 
4 3 4 3 4 3 3 4 4 3 4 3 5 4 4 4 
4 3 4 4 5 4 4 4 5 3 5 4 4 5 5 4 
5 4 5 4 6 5 5 4 5 5 6 5 6 5 6 5 
6 5 6 6 6 5 7 6 7 5 7 6 7 7 8 6 
7 7 8 6 9 8 8 7 9 8 9 7 10 9 10 8 
11 10 11 9 12 10 12 11 13 11 14 -45 15 13 15 13 
17 -64 18 15 20 17 22 19 24 21 27 22 30 26 35 31 
42 54 51 43 65 75 93 -56 104 -801 8554 1398 110 MP stroke
0 sg
158 -14 158 -10 158 -16 157 -20 158 -19 158 -35 158 -70 158 -79 
158 -76 56 -27 3 2 2 2 2 2 3 2 2 2 2 3 
3 2 2 2 3 2 2 2 3 2 2 -77 3 3 3 2 
2 2 3 2 3 3 3 2 2 3 3 2 3 2 3 3 
3 2 3 3 3 3 3 2 3 3 3 2 3 3 4 3 
3 3 3 3 4 3 3 -133 3 3 4 3 4 3 3 4 
4 3 4 3 4 3 3 4 4 3 4 3 5 4 4 4 
4 3 4 4 5 4 4 4 5 3 5 4 4 5 5 4 
5 4 5 4 6 5 1 -166 9356 1398 69 MP stroke
DA
c11
158 -6 158 -5 158 -1 157 -4 158 1 158 4 158 10 158 19 
158 30 56 35 3 2 2 2 2 2 3 2 2 2 2 2 
3 2 2 2 3 2 2 3 3 2 2 -3 3 3 3 2 
2 2 3 2 3 3 3 2 2 3 3 2 3 2 3 3 
3 2 3 3 3 3 3 -3 3 3 3 3 3 3 4 2 
3 -2 3 3 4 3 3 -2 3 -2 4 -2 4 -3 3 4 
4 -8 4 -9 4 -3 3 -3 4 -3 4 -4 5 -3 4 3 
4 4 4 4 5 4 4 3 5 4 5 -11 4 5 5 4 
5 4 5 -4 6 -3 5 -4 5 4 6 5 6 -4 6 5 
6 -4 6 -5 6 14 7 -36 7 5 7 6 7 7 8 6 
7 -6 8 -7 9 -7 8 7 9 8 9 -8 10 -8 10 8 
11 10 11 9 12 10 12 11 13 11 14 -9 15 -6 15 -10 
17 -11 18 -50 20 -8 22 19 24 20 27 -33 30 -207 19 -519 
8925 1398 105 MP stroke
c9
1 1 3 2 2 2 2 2 3 2 2 2 2 3 3 2 
2 2 3 2 2 2 3 2 2 2 3 3 3 2 2 2 
3 2 3 3 3 2 2 3 3 2 3 2 3 3 3 2 
3 3 3 3 3 2 3 3 3 2 3 3 4 3 3 3 
3 3 4 3 3 21 3 3 4 3 4 3 3 3 4 3 
4 4 4 3 3 3 4 4 4 3 5 4 4 3 4 4 
4 3 5 4 4 4 5 4 5 4 4 4 5 4 5 5 
5 4 6 4 5 -14 5 5 6 5 6 5 6 5 6 5 
6 5 6 6 7 6 7 5 7 6 7 7 8 6 7 7 
3 -243 9265 1398 74 MP stroke
gr

24 w
c9
DA
0 sg
%%IncludeResource: font Helvetica
/Helvetica /WindowsLatin1Encoding 144 FMSR

9537  386 mt 
(DSS vs. ) s
8166 1401 mt  -90 rotate
(intersection %) s
90 rotate
9284 1770 mt 
(sorted list length) s
SO
6 w
1 sg
0 897 2623 0 0 -897 1598 2972 4 MP
PP
-2623 0 0 897 2623 0 0 -897 1598 2972 5 MP stroke
4 w
DO
SO
6 w
0 sg
1598 2075 mt 4221 2075 L
1598 2972 mt 4221 2972 L
4221 2972 mt 4221 2075 L
1598 2972 mt 1598 2075 L
1598 2972 mt 4221 2972 L
1598 2972 mt 1598 2075 L
1598 2972 mt 1598 2958 L
1598 2075 mt 1598 2088 L
1598 2972 mt 1598 2945 L
1598 2075 mt 1598 2101 L
1492 3184 mt 
(10) s
%%IncludeResource: font Helvetica
/Helvetica /WindowsLatin1Encoding 96 FMSR

1652 3095 mt 
(0) s
1755 2972 mt 1755 2958 L
1755 2075 mt 1755 2088 L
1848 2972 mt 1848 2958 L
1848 2075 mt 1848 2088 L
1913 2972 mt 1913 2958 L
1913 2075 mt 1913 2088 L
1964 2972 mt 1964 2958 L
1964 2075 mt 1964 2088 L
2006 2972 mt 2006 2958 L
2006 2075 mt 2006 2088 L
2041 2972 mt 2041 2958 L
2041 2075 mt 2041 2088 L
2071 2972 mt 2071 2958 L
2071 2075 mt 2071 2088 L
2098 2972 mt 2098 2958 L
2098 2075 mt 2098 2088 L
2122 2972 mt 2122 2958 L
2122 2075 mt 2122 2088 L
2122 2972 mt 2122 2945 L
2122 2075 mt 2122 2101 L
%%IncludeResource: font Helvetica
/Helvetica /WindowsLatin1Encoding 144 FMSR

2016 3184 mt 
(10) s
%%IncludeResource: font Helvetica
/Helvetica /WindowsLatin1Encoding 96 FMSR

2176 3095 mt 
(1) s
2280 2972 mt 2280 2958 L
2280 2075 mt 2280 2088 L
2372 2972 mt 2372 2958 L
2372 2075 mt 2372 2088 L
2438 2972 mt 2438 2958 L
2438 2075 mt 2438 2088 L
2489 2972 mt 2489 2958 L
2489 2075 mt 2489 2088 L
2530 2972 mt 2530 2958 L
2530 2075 mt 2530 2088 L
2565 2972 mt 2565 2958 L
2565 2075 mt 2565 2088 L
2596 2972 mt 2596 2958 L
2596 2075 mt 2596 2088 L
2623 2972 mt 2623 2958 L
2623 2075 mt 2623 2088 L
2647 2972 mt 2647 2958 L
2647 2075 mt 2647 2088 L
2647 2972 mt 2647 2945 L
2647 2075 mt 2647 2101 L
%%IncludeResource: font Helvetica
/Helvetica /WindowsLatin1Encoding 144 FMSR

2541 3184 mt 
(10) s
%%IncludeResource: font Helvetica
/Helvetica /WindowsLatin1Encoding 96 FMSR

2701 3095 mt 
(2) s
2805 2972 mt 2805 2958 L
2805 2075 mt 2805 2088 L
2897 2972 mt 2897 2958 L
2897 2075 mt 2897 2088 L
2963 2972 mt 2963 2958 L
2963 2075 mt 2963 2088 L
3013 2972 mt 3013 2958 L
3013 2075 mt 3013 2088 L
3055 2972 mt 3055 2958 L
3055 2075 mt 3055 2088 L
3090 2972 mt 3090 2958 L
3090 2075 mt 3090 2088 L
3120 2972 mt 3120 2958 L
3120 2075 mt 3120 2088 L
3147 2972 mt 3147 2958 L
3147 2075 mt 3147 2088 L
3171 2972 mt 3171 2958 L
3171 2075 mt 3171 2088 L
3171 2972 mt 3171 2945 L
3171 2075 mt 3171 2101 L
%%IncludeResource: font Helvetica
/Helvetica /WindowsLatin1Encoding 144 FMSR

3065 3184 mt 
(10) s
%%IncludeResource: font Helvetica
/Helvetica /WindowsLatin1Encoding 96 FMSR

3225 3095 mt 
(3) s
3329 2972 mt 3329 2958 L
3329 2075 mt 3329 2088 L
3422 2972 mt 3422 2958 L
3422 2075 mt 3422 2088 L
3487 2972 mt 3487 2958 L
3487 2075 mt 3487 2088 L
3538 2972 mt 3538 2958 L
3538 2075 mt 3538 2088 L
3580 2972 mt 3580 2958 L
3580 2075 mt 3580 2088 L
3615 2972 mt 3615 2958 L
3615 2075 mt 3615 2088 L
3645 2972 mt 3645 2958 L
3645 2075 mt 3645 2088 L
3672 2972 mt 3672 2958 L
3672 2075 mt 3672 2088 L
3696 2972 mt 3696 2958 L
3696 2075 mt 3696 2088 L
3696 2972 mt 3696 2945 L
3696 2075 mt 3696 2101 L
%%IncludeResource: font Helvetica
/Helvetica /WindowsLatin1Encoding 144 FMSR

3590 3184 mt 
(10) s
%%IncludeResource: font Helvetica
/Helvetica /WindowsLatin1Encoding 96 FMSR

3750 3095 mt 
(4) s
3854 2972 mt 3854 2958 L
3854 2075 mt 3854 2088 L
3946 2972 mt 3946 2958 L
3946 2075 mt 3946 2088 L
4012 2972 mt 4012 2958 L
4012 2075 mt 4012 2088 L
4063 2972 mt 4063 2958 L
4063 2075 mt 4063 2088 L
4104 2972 mt 4104 2958 L
4104 2075 mt 4104 2088 L
4139 2972 mt 4139 2958 L
4139 2075 mt 4139 2088 L
4170 2972 mt 4170 2958 L
4170 2075 mt 4170 2088 L
4196 2972 mt 4196 2958 L
4196 2075 mt 4196 2088 L
4221 2972 mt 4221 2958 L
4221 2075 mt 4221 2088 L
4221 2972 mt 4221 2945 L
4221 2075 mt 4221 2101 L
%%IncludeResource: font Helvetica
/Helvetica /WindowsLatin1Encoding 144 FMSR

4115 3184 mt 
(10) s
%%IncludeResource: font Helvetica
/Helvetica /WindowsLatin1Encoding 96 FMSR

4275 3095 mt 
(5) s
1598 2972 mt 1611 2972 L
4221 2972 mt 4207 2972 L
1598 2972 mt 1624 2972 L
4221 2972 mt 4194 2972 L
%%IncludeResource: font Helvetica
/Helvetica /WindowsLatin1Encoding 144 FMSR

1350 3025 mt 
(10) s
%%IncludeResource: font Helvetica
/Helvetica /WindowsLatin1Encoding 96 FMSR

1510 2936 mt 
(0) s
1598 2836 mt 1611 2836 L
4221 2836 mt 4207 2836 L
1598 2758 mt 1611 2758 L
4221 2758 mt 4207 2758 L
1598 2701 mt 1611 2701 L
4221 2701 mt 4207 2701 L
1598 2658 mt 1611 2658 L
4221 2658 mt 4207 2658 L
1598 2622 mt 1611 2622 L
4221 2622 mt 4207 2622 L
1598 2592 mt 1611 2592 L
4221 2592 mt 4207 2592 L
1598 2566 mt 1611 2566 L
4221 2566 mt 4207 2566 L
1598 2544 mt 1611 2544 L
4221 2544 mt 4207 2544 L
1598 2523 mt 1611 2523 L
4221 2523 mt 4207 2523 L
1598 2523 mt 1624 2523 L
4221 2523 mt 4194 2523 L
%%IncludeResource: font Helvetica
/Helvetica /WindowsLatin1Encoding 144 FMSR

1350 2576 mt 
(10) s
%%IncludeResource: font Helvetica
/Helvetica /WindowsLatin1Encoding 96 FMSR

1510 2487 mt 
(1) s
1598 2388 mt 1611 2388 L
4221 2388 mt 4207 2388 L
1598 2309 mt 1611 2309 L
4221 2309 mt 4207 2309 L
1598 2253 mt 1611 2253 L
4221 2253 mt 4207 2253 L
1598 2210 mt 1611 2210 L
4221 2210 mt 4207 2210 L
1598 2174 mt 1611 2174 L
4221 2174 mt 4207 2174 L
1598 2144 mt 1611 2144 L
4221 2144 mt 4207 2144 L
1598 2118 mt 1611 2118 L
4221 2118 mt 4207 2118 L
1598 2095 mt 1611 2095 L
4221 2095 mt 4207 2095 L
1598 2075 mt 1611 2075 L
4221 2075 mt 4207 2075 L
1598 2075 mt 1624 2075 L
4221 2075 mt 4194 2075 L
%%IncludeResource: font Helvetica
/Helvetica /WindowsLatin1Encoding 144 FMSR

1350 2128 mt 
(10) s
%%IncludeResource: font Helvetica
/Helvetica /WindowsLatin1Encoding 96 FMSR

1510 2039 mt 
(2) s
1598 2075 mt 4221 2075 L
1598 2972 mt 4221 2972 L
4221 2972 mt 4221 2075 L
1598 2972 mt 1598 2075 L
gs 1598 2075 2624 898 rc
24 w
c11
103 88 158 135 56 49 3 1 2 2 2 2 3 2 2 3 
2 2 3 2 2 2 3 2 2 2 3 2 2 2 3 3 
3 2 2 2 3 2 3 3 3 2 2 3 3 2 3 2 
3 3 3 2 3 3 3 3 3 2 3 3 3 3 3 2 
4 3 3 3 3 3 4 3 3 2 3 3 4 3 4 4 
3 3 4 3 4 3 4 3 3 4 4 3 4 3 5 4 
4 4 4 3 4 4 5 4 4 4 5 3 5 4 4 5 
5 4 5 4 5 4 6 5 5 4 5 5 6 5 6 5 
6 5 6 5 6 6 6 5 7 6 7 5 7 6 7 7 
8 6 7 7 8 6 9 8 8 7 9 8 9 7 10 9 
10 8 11 10 11 9 12 10 12 11 13 11 14 11 15 13 
15 13 17 15 18 16 20 16 22 19 24 21 27 22 30 26 
35 -26 42 36 51 -36 65 57 93 -57 99 -763 1656 2973 103 MP stroke
c8
124 107 158 135 56 48 3 2 2 2 2 2 3 2 2 2 
2 2 3 2 2 2 3 2 2 3 3 2 2 2 3 2 
3 2 2 3 3 2 3 2 3 3 2 2 3 3 3 2 
3 2 3 3 3 3 3 2 3 3 3 2 3 3 3 3 
4 3 3 2 3 3 4 3 3 3 3 3 4 3 4 3 
3 3 4 3 4 4 4 3 3 3 4 4 4 3 5 4 
4 3 4 4 4 3 5 4 4 4 5 4 5 4 4 4 
5 4 5 5 5 4 6 4 5 5 5 5 6 5 6 4 
6 6 6 5 6 5 6 6 7 5 7 6 7 6 7 6 
8 7 7 6 8 7 9 -67 8 7 9 8 9 7 10 9 
10 8 11 9 11 10 12 10 12 10 13 12 14 11 15 13 
15 -66 17 15 18 15 20 17 22 19 24 21 27 22 30 26 
35 31 42 35 51 62 65 -97 56 -685 1792 2973 102 MP stroke
c9
158 -25 158 -26 158 -22 157 -38 158 -14 158 -24 158 -14 158 64 
158 135 56 48 3 2 2 2 2 2 3 2 2 2 2 2 
3 2 2 2 3 2 2 2 3 2 2 3 3 2 3 2 
2 2 3 3 3 2 3 2 2 3 3 2 3 3 3 2 
3 3 3 2 3 3 3 2 3 3 3 3 3 2 4 3 
3 3 3 3 4 3 3 3 3 3 4 3 4 3 3 3 
4 3 4 3 4 3 3 4 4 3 4 4 5 3 4 4 
4 3 4 4 5 4 4 4 5 4 5 4 4 4 5 4 
5 4 5 5 6 4 5 5 5 4 6 5 6 5 6 5 
6 5 6 6 6 5 7 6 7 6 7 6 7 6 8 6 
7 7 8 7 9 -12 8 7 9 8 9 8 10 8 10 9 
11 9 11 10 12 10 12 10 13 11 14 -44 15 13 15 -6 
17 -46 18 16 20 17 22 19 24 20 27 23 30 26 35 30 
42 36 51 62 65 37 93 -56 103 -782 1652 2973 110 MP stroke
0 sg
158 -2 158 -8 158 -20 157 -37 158 -68 158 -93 158 -109 158 63 
158 135 56 48 3 2 2 2 2 2 3 2 2 2 2 2 
3 2 2 2 3 3 2 2 3 2 2 2 3 2 3 3 
2 2 3 2 3 3 3 2 2 2 3 3 3 2 3 3 
3 2 3 3 3 2 3 3 3 3 3 2 3 3 4 3 
3 2 3 3 4 3 3 3 3 3 4 3 4 3 3 3 
4 3 4 4 4 3 3 3 4 4 4 3 5 4 4 3 
4 4 4 4 5 3 4 4 5 4 5 4 4 4 5 4 
5 5 5 4 6 5 5 4 5 5 6 5 6 5 6 5 
6 -107 6 5 6 6 7 6 7 5 7 6 7 7 8 6 
7 7 8 6 9 26 8 7 9 -89 9 -128 10 9 10 8 
11 9 11 10 12 10 12 11 13 11 14 11 15 13 15 13 
17 15 18 15 20 17 22 19 12 -450 2110 2973 102 MP stroke
DA
c11
158 -13 158 -12 158 -10 157 -1 158 -15 158 -46 158 -118 158 56 
158 79 56 44 3 2 2 2 2 2 3 2 2 2 2 2 
3 2 2 2 3 2 2 2 3 2 2 3 3 2 3 2 
2 2 3 3 3 2 3 2 2 3 3 2 3 3 3 2 
3 3 3 2 3 3 3 2 3 3 3 3 3 2 4 3 
3 3 3 3 4 3 3 3 3 3 4 3 4 3 3 3 
4 3 4 3 4 4 3 3 4 3 4 4 5 3 4 4 
4 3 4 4 5 4 4 4 5 4 5 4 4 4 5 4 
5 4 5 5 6 4 5 5 5 4 6 5 6 5 6 5 
6 -13 6 5 6 6 7 5 7 6 7 6 7 6 8 7 
7 6 8 7 9 -11 8 7 9 8 9 8 10 8 10 9 
11 9 11 9 12 10 12 11 13 11 14 -7 15 13 15 13 
17 14 18 16 20 17 22 19 24 20 27 -52 30 -15 35 30 
42 -137 51 43 65 75 59 -703 1789 2973 109 MP stroke
gr

24 w
c11
DA
0 sg
%%IncludeResource: font Helvetica
/Helvetica /WindowsLatin1Encoding 144 FMSR

2404 1961 mt 
(plink fastepi vs. ) s
1263 2976 mt  -90 rotate
(intersection %) s
90 rotate
2381 3345 mt 
(sorted list length) s
SO
6 w
1 sg
0 897 2623 0 0 -897 5050 2972 4 MP
PP
-2623 0 0 897 2623 0 0 -897 5050 2972 5 MP stroke
4 w
DO
SO
6 w
0 sg
5050 2075 mt 7673 2075 L
5050 2972 mt 7673 2972 L
7673 2972 mt 7673 2075 L
5050 2972 mt 5050 2075 L
5050 2972 mt 7673 2972 L
5050 2972 mt 5050 2075 L
5050 2972 mt 5050 2958 L
5050 2075 mt 5050 2088 L
5050 2972 mt 5050 2945 L
5050 2075 mt 5050 2101 L
4944 3184 mt 
(10) s
%%IncludeResource: font Helvetica
/Helvetica /WindowsLatin1Encoding 96 FMSR

5104 3095 mt 
(0) s
5207 2972 mt 5207 2958 L
5207 2075 mt 5207 2088 L
5300 2972 mt 5300 2958 L
5300 2075 mt 5300 2088 L
5365 2972 mt 5365 2958 L
5365 2075 mt 5365 2088 L
5416 2972 mt 5416 2958 L
5416 2075 mt 5416 2088 L
5458 2972 mt 5458 2958 L
5458 2075 mt 5458 2088 L
5493 2972 mt 5493 2958 L
5493 2075 mt 5493 2088 L
5523 2972 mt 5523 2958 L
5523 2075 mt 5523 2088 L
5550 2972 mt 5550 2958 L
5550 2075 mt 5550 2088 L
5574 2972 mt 5574 2958 L
5574 2075 mt 5574 2088 L
5574 2972 mt 5574 2945 L
5574 2075 mt 5574 2101 L
%%IncludeResource: font Helvetica
/Helvetica /WindowsLatin1Encoding 144 FMSR

5468 3184 mt 
(10) s
%%IncludeResource: font Helvetica
/Helvetica /WindowsLatin1Encoding 96 FMSR

5628 3095 mt 
(1) s
5732 2972 mt 5732 2958 L
5732 2075 mt 5732 2088 L
5824 2972 mt 5824 2958 L
5824 2075 mt 5824 2088 L
5890 2972 mt 5890 2958 L
5890 2075 mt 5890 2088 L
5941 2972 mt 5941 2958 L
5941 2075 mt 5941 2088 L
5982 2972 mt 5982 2958 L
5982 2075 mt 5982 2088 L
6017 2972 mt 6017 2958 L
6017 2075 mt 6017 2088 L
6048 2972 mt 6048 2958 L
6048 2075 mt 6048 2088 L
6075 2972 mt 6075 2958 L
6075 2075 mt 6075 2088 L
6099 2972 mt 6099 2958 L
6099 2075 mt 6099 2088 L
6099 2972 mt 6099 2945 L
6099 2075 mt 6099 2101 L
%%IncludeResource: font Helvetica
/Helvetica /WindowsLatin1Encoding 144 FMSR

5993 3184 mt 
(10) s
%%IncludeResource: font Helvetica
/Helvetica /WindowsLatin1Encoding 96 FMSR

6153 3095 mt 
(2) s
6257 2972 mt 6257 2958 L
6257 2075 mt 6257 2088 L
6349 2972 mt 6349 2958 L
6349 2075 mt 6349 2088 L
6415 2972 mt 6415 2958 L
6415 2075 mt 6415 2088 L
6465 2972 mt 6465 2958 L
6465 2075 mt 6465 2088 L
6507 2972 mt 6507 2958 L
6507 2075 mt 6507 2088 L
6542 2972 mt 6542 2958 L
6542 2075 mt 6542 2088 L
6572 2972 mt 6572 2958 L
6572 2075 mt 6572 2088 L
6599 2972 mt 6599 2958 L
6599 2075 mt 6599 2088 L
6623 2972 mt 6623 2958 L
6623 2075 mt 6623 2088 L
6623 2972 mt 6623 2945 L
6623 2075 mt 6623 2101 L
%%IncludeResource: font Helvetica
/Helvetica /WindowsLatin1Encoding 144 FMSR

6517 3184 mt 
(10) s
%%IncludeResource: font Helvetica
/Helvetica /WindowsLatin1Encoding 96 FMSR

6677 3095 mt 
(3) s
6781 2972 mt 6781 2958 L
6781 2075 mt 6781 2088 L
6874 2972 mt 6874 2958 L
6874 2075 mt 6874 2088 L
6939 2972 mt 6939 2958 L
6939 2075 mt 6939 2088 L
6990 2972 mt 6990 2958 L
6990 2075 mt 6990 2088 L
7032 2972 mt 7032 2958 L
7032 2075 mt 7032 2088 L
7067 2972 mt 7067 2958 L
7067 2075 mt 7067 2088 L
7097 2972 mt 7097 2958 L
7097 2075 mt 7097 2088 L
7124 2972 mt 7124 2958 L
7124 2075 mt 7124 2088 L
7148 2972 mt 7148 2958 L
7148 2075 mt 7148 2088 L
7148 2972 mt 7148 2945 L
7148 2075 mt 7148 2101 L
%%IncludeResource: font Helvetica
/Helvetica /WindowsLatin1Encoding 144 FMSR

7042 3184 mt 
(10) s
%%IncludeResource: font Helvetica
/Helvetica /WindowsLatin1Encoding 96 FMSR

7202 3095 mt 
(4) s
7306 2972 mt 7306 2958 L
7306 2075 mt 7306 2088 L
7398 2972 mt 7398 2958 L
7398 2075 mt 7398 2088 L
7464 2972 mt 7464 2958 L
7464 2075 mt 7464 2088 L
7515 2972 mt 7515 2958 L
7515 2075 mt 7515 2088 L
7556 2972 mt 7556 2958 L
7556 2075 mt 7556 2088 L
7591 2972 mt 7591 2958 L
7591 2075 mt 7591 2088 L
7622 2972 mt 7622 2958 L
7622 2075 mt 7622 2088 L
7648 2972 mt 7648 2958 L
7648 2075 mt 7648 2088 L
7673 2972 mt 7673 2958 L
7673 2075 mt 7673 2088 L
7673 2972 mt 7673 2945 L
7673 2075 mt 7673 2101 L
%%IncludeResource: font Helvetica
/Helvetica /WindowsLatin1Encoding 144 FMSR

7567 3184 mt 
(10) s
%%IncludeResource: font Helvetica
/Helvetica /WindowsLatin1Encoding 96 FMSR

7727 3095 mt 
(5) s
5050 2972 mt 5063 2972 L
7673 2972 mt 7659 2972 L
5050 2972 mt 5076 2972 L
7673 2972 mt 7646 2972 L
%%IncludeResource: font Helvetica
/Helvetica /WindowsLatin1Encoding 144 FMSR

4802 3025 mt 
(10) s
%%IncludeResource: font Helvetica
/Helvetica /WindowsLatin1Encoding 96 FMSR

4962 2936 mt 
(0) s
5050 2836 mt 5063 2836 L
7673 2836 mt 7659 2836 L
5050 2758 mt 5063 2758 L
7673 2758 mt 7659 2758 L
5050 2701 mt 5063 2701 L
7673 2701 mt 7659 2701 L
5050 2658 mt 5063 2658 L
7673 2658 mt 7659 2658 L
5050 2622 mt 5063 2622 L
7673 2622 mt 7659 2622 L
5050 2592 mt 5063 2592 L
7673 2592 mt 7659 2592 L
5050 2566 mt 5063 2566 L
7673 2566 mt 7659 2566 L
5050 2544 mt 5063 2544 L
7673 2544 mt 7659 2544 L
5050 2523 mt 5063 2523 L
7673 2523 mt 7659 2523 L
5050 2523 mt 5076 2523 L
7673 2523 mt 7646 2523 L
%%IncludeResource: font Helvetica
/Helvetica /WindowsLatin1Encoding 144 FMSR

4802 2576 mt 
(10) s
%%IncludeResource: font Helvetica
/Helvetica /WindowsLatin1Encoding 96 FMSR

4962 2487 mt 
(1) s
5050 2388 mt 5063 2388 L
7673 2388 mt 7659 2388 L
5050 2309 mt 5063 2309 L
7673 2309 mt 7659 2309 L
5050 2253 mt 5063 2253 L
7673 2253 mt 7659 2253 L
5050 2210 mt 5063 2210 L
7673 2210 mt 7659 2210 L
5050 2174 mt 5063 2174 L
7673 2174 mt 7659 2174 L
5050 2144 mt 5063 2144 L
7673 2144 mt 7659 2144 L
5050 2118 mt 5063 2118 L
7673 2118 mt 7659 2118 L
5050 2095 mt 5063 2095 L
7673 2095 mt 7659 2095 L
5050 2075 mt 5063 2075 L
7673 2075 mt 7659 2075 L
5050 2075 mt 5076 2075 L
7673 2075 mt 7646 2075 L
%%IncludeResource: font Helvetica
/Helvetica /WindowsLatin1Encoding 144 FMSR

4802 2128 mt 
(10) s
%%IncludeResource: font Helvetica
/Helvetica /WindowsLatin1Encoding 96 FMSR

4962 2039 mt 
(2) s
5050 2075 mt 7673 2075 L
5050 2972 mt 7673 2972 L
7673 2972 mt 7673 2075 L
5050 2972 mt 5050 2075 L
gs 5050 2075 2624 898 rc
24 w
c11
1 1 3 2 2 2 2 2 3 2 2 2 2 3 3 2 
2 2 3 2 2 2 3 2 2 2 3 3 3 2 2 2 
3 2 3 3 3 2 2 3 3 2 3 2 3 3 3 2 
3 3 3 3 3 2 3 3 3 2 3 3 4 3 3 3 
3 3 4 3 3 2 3 3 4 3 4 3 3 4 4 3 
4 3 4 3 3 4 4 3 4 3 5 4 4 4 4 3 
4 4 5 4 4 4 5 3 5 4 4 5 5 4 5 4 
5 4 6 5 5 4 5 5 6 5 6 5 6 5 6 5 
6 5 6 6 7 6 7 5 7 6 7 7 8 6 7 7 
8 6 9 8 8 7 9 8 9 7 10 9 10 8 11 9 
11 10 12 10 12 11 13 11 6 -347 5689 2973 86 MP stroke
c9
158 -14 158 -10 158 -16 157 -20 158 -19 158 -35 158 -70 158 -79 
158 -95 56 -8 3 2 2 2 2 2 3 2 2 2 2 3 
3 2 2 2 3 2 2 2 3 2 2 -77 3 3 3 2 
2 2 3 2 3 3 3 2 2 3 3 2 3 2 3 3 
3 2 3 3 3 3 3 2 3 3 3 2 3 3 4 3 
3 3 3 3 4 3 3 -114 3 3 4 3 4 3 3 3 
4 3 4 4 4 3 3 3 4 4 4 3 5 4 4 3 
4 4 4 3 5 4 4 4 5 4 5 4 4 4 5 4 
5 5 5 4 6 4 1 -184 5905 2973 69 MP stroke
c10
158 -2 158 -8 158 -20 157 -37 158 -68 158 -93 158 -128 158 26 
158 154 56 30 3 1 2 2 2 2 3 2 2 3 2 2 
3 2 2 2 3 2 2 2 3 2 2 2 3 3 3 2 
2 2 3 2 3 3 3 2 2 3 3 2 3 2 3 3 
3 2 3 3 3 3 3 2 3 3 3 3 3 2 4 3 
3 3 3 3 4 3 3 2 3 3 4 3 4 4 3 3 
4 3 4 3 4 3 3 4 4 3 4 3 5 4 4 4 
4 3 4 4 5 4 4 4 5 3 5 4 4 5 5 4 
5 4 5 4 6 5 5 4 5 5 6 5 6 5 6 5 
6 -51 6 5 6 6 7 6 7 5 7 6 7 7 8 6 
7 7 8 6 9 8 8 7 9 -71 9 -109 10 8 10 9 
11 9 11 10 12 10 12 10 13 11 14 -7 15 13 15 13 
17 15 18 15 20 17 22 19 13 -450 5561 2973 102 MP stroke
DA
c11
158 -7 158 -9 158 -8 157 -12 158 -16 158 -14 158 -31 158 -62 
158 -56 56 -30 3 1 2 2 2 2 3 2 2 3 2 2 
3 -24 2 2 3 2 2 2 3 2 2 2 3 3 3 2 
2 2 3 2 3 3 3 2 2 3 3 2 3 2 3 3 
3 2 3 3 3 3 3 2 3 3 3 3 3 2 4 3 
3 3 3 3 4 3 3 2 3 3 4 -27 4 3 3 4 
4 3 4 3 4 -32 3 3 4 3 4 4 5 -21 4 3 
4 -71 4 4 5 4 4 -75 5 3 5 4 4 5 5 4 
5 4 5 4 6 5 5 4 5 5 6 5 6 5 6 5 
6 5 6 6 6 5 7 6 7 5 7 -110 7 6 8 7 
7 6 8 7 9 7 8 7 9 8 9 27 10 8 10 9 
11 9 11 9 5 -352 5727 2973 92 MP stroke
gr

24 w
c11
DA
0 sg
%%IncludeResource: font Helvetica
/Helvetica /WindowsLatin1Encoding 144 FMSR

5932 1961 mt 
(Info. Gain vs. ) s
4715 2976 mt  -90 rotate
(intersection %) s
90 rotate
5833 3345 mt 
(sorted list length) s
SO
6 w
1 sg
0 897 2623 0 0 -897 8501 2972 4 MP
PP
-2623 0 0 897 2623 0 0 -897 8501 2972 5 MP stroke
4 w
DO
SO
6 w
0 sg
8501 2075 mt 11124 2075 L
8501 2972 mt 11124 2972 L
11124 2972 mt 11124 2075 L
8501 2972 mt 8501 2075 L
8501 2972 mt 11124 2972 L
8501 2972 mt 8501 2075 L
8501 2972 mt 8501 2958 L
8501 2075 mt 8501 2088 L
8501 2972 mt 8501 2945 L
8501 2075 mt 8501 2101 L
8395 3184 mt 
(10) s
%%IncludeResource: font Helvetica
/Helvetica /WindowsLatin1Encoding 96 FMSR

8555 3095 mt 
(0) s
8658 2972 mt 8658 2958 L
8658 2075 mt 8658 2088 L
8751 2972 mt 8751 2958 L
8751 2075 mt 8751 2088 L
8816 2972 mt 8816 2958 L
8816 2075 mt 8816 2088 L
8867 2972 mt 8867 2958 L
8867 2075 mt 8867 2088 L
8909 2972 mt 8909 2958 L
8909 2075 mt 8909 2088 L
8944 2972 mt 8944 2958 L
8944 2075 mt 8944 2088 L
8974 2972 mt 8974 2958 L
8974 2075 mt 8974 2088 L
9001 2972 mt 9001 2958 L
9001 2075 mt 9001 2088 L
9025 2972 mt 9025 2958 L
9025 2075 mt 9025 2088 L
9025 2972 mt 9025 2945 L
9025 2075 mt 9025 2101 L
%%IncludeResource: font Helvetica
/Helvetica /WindowsLatin1Encoding 144 FMSR

8919 3184 mt 
(10) s
%%IncludeResource: font Helvetica
/Helvetica /WindowsLatin1Encoding 96 FMSR

9079 3095 mt 
(1) s
9183 2972 mt 9183 2958 L
9183 2075 mt 9183 2088 L
9275 2972 mt 9275 2958 L
9275 2075 mt 9275 2088 L
9341 2972 mt 9341 2958 L
9341 2075 mt 9341 2088 L
9392 2972 mt 9392 2958 L
9392 2075 mt 9392 2088 L
9433 2972 mt 9433 2958 L
9433 2075 mt 9433 2088 L
9468 2972 mt 9468 2958 L
9468 2075 mt 9468 2088 L
9499 2972 mt 9499 2958 L
9499 2075 mt 9499 2088 L
9526 2972 mt 9526 2958 L
9526 2075 mt 9526 2088 L
9550 2972 mt 9550 2958 L
9550 2075 mt 9550 2088 L
9550 2972 mt 9550 2945 L
9550 2075 mt 9550 2101 L
%%IncludeResource: font Helvetica
/Helvetica /WindowsLatin1Encoding 144 FMSR

9444 3184 mt 
(10) s
%%IncludeResource: font Helvetica
/Helvetica /WindowsLatin1Encoding 96 FMSR

9604 3095 mt 
(2) s
9708 2972 mt 9708 2958 L
9708 2075 mt 9708 2088 L
9800 2972 mt 9800 2958 L
9800 2075 mt 9800 2088 L
9866 2972 mt 9866 2958 L
9866 2075 mt 9866 2088 L
9916 2972 mt 9916 2958 L
9916 2075 mt 9916 2088 L
9958 2972 mt 9958 2958 L
9958 2075 mt 9958 2088 L
9993 2972 mt 9993 2958 L
9993 2075 mt 9993 2088 L
10023 2972 mt 10023 2958 L
10023 2075 mt 10023 2088 L
10050 2972 mt 10050 2958 L
10050 2075 mt 10050 2088 L
10074 2972 mt 10074 2958 L
10074 2075 mt 10074 2088 L
10074 2972 mt 10074 2945 L
10074 2075 mt 10074 2101 L
%%IncludeResource: font Helvetica
/Helvetica /WindowsLatin1Encoding 144 FMSR

9968 3184 mt 
(10) s
%%IncludeResource: font Helvetica
/Helvetica /WindowsLatin1Encoding 96 FMSR

10128 3095 mt 
(3) s
10232 2972 mt 10232 2958 L
10232 2075 mt 10232 2088 L
10325 2972 mt 10325 2958 L
10325 2075 mt 10325 2088 L
10390 2972 mt 10390 2958 L
10390 2075 mt 10390 2088 L
10441 2972 mt 10441 2958 L
10441 2075 mt 10441 2088 L
10483 2972 mt 10483 2958 L
10483 2075 mt 10483 2088 L
10518 2972 mt 10518 2958 L
10518 2075 mt 10518 2088 L
10548 2972 mt 10548 2958 L
10548 2075 mt 10548 2088 L
10575 2972 mt 10575 2958 L
10575 2075 mt 10575 2088 L
10599 2972 mt 10599 2958 L
10599 2075 mt 10599 2088 L
10599 2972 mt 10599 2945 L
10599 2075 mt 10599 2101 L
%%IncludeResource: font Helvetica
/Helvetica /WindowsLatin1Encoding 144 FMSR

10493 3184 mt 
(10) s
%%IncludeResource: font Helvetica
/Helvetica /WindowsLatin1Encoding 96 FMSR

10653 3095 mt 
(4) s
10757 2972 mt 10757 2958 L
10757 2075 mt 10757 2088 L
10849 2972 mt 10849 2958 L
10849 2075 mt 10849 2088 L
10915 2972 mt 10915 2958 L
10915 2075 mt 10915 2088 L
10966 2972 mt 10966 2958 L
10966 2075 mt 10966 2088 L
11007 2972 mt 11007 2958 L
11007 2075 mt 11007 2088 L
11042 2972 mt 11042 2958 L
11042 2075 mt 11042 2088 L
11073 2972 mt 11073 2958 L
11073 2075 mt 11073 2088 L
11099 2972 mt 11099 2958 L
11099 2075 mt 11099 2088 L
11124 2972 mt 11124 2958 L
11124 2075 mt 11124 2088 L
11124 2972 mt 11124 2945 L
11124 2075 mt 11124 2101 L
%%IncludeResource: font Helvetica
/Helvetica /WindowsLatin1Encoding 144 FMSR

11018 3184 mt 
(10) s
%%IncludeResource: font Helvetica
/Helvetica /WindowsLatin1Encoding 96 FMSR

11178 3095 mt 
(5) s
8501 2972 mt 8514 2972 L
11124 2972 mt 11110 2972 L
8501 2972 mt 8527 2972 L
11124 2972 mt 11097 2972 L
%%IncludeResource: font Helvetica
/Helvetica /WindowsLatin1Encoding 144 FMSR

8253 3025 mt 
(10) s
%%IncludeResource: font Helvetica
/Helvetica /WindowsLatin1Encoding 96 FMSR

8413 2936 mt 
(0) s
8501 2836 mt 8514 2836 L
11124 2836 mt 11110 2836 L
8501 2758 mt 8514 2758 L
11124 2758 mt 11110 2758 L
8501 2701 mt 8514 2701 L
11124 2701 mt 11110 2701 L
8501 2658 mt 8514 2658 L
11124 2658 mt 11110 2658 L
8501 2622 mt 8514 2622 L
11124 2622 mt 11110 2622 L
8501 2592 mt 8514 2592 L
11124 2592 mt 11110 2592 L
8501 2566 mt 8514 2566 L
11124 2566 mt 11110 2566 L
8501 2544 mt 8514 2544 L
11124 2544 mt 11110 2544 L
8501 2523 mt 8514 2523 L
11124 2523 mt 11110 2523 L
8501 2523 mt 8527 2523 L
11124 2523 mt 11097 2523 L
%%IncludeResource: font Helvetica
/Helvetica /WindowsLatin1Encoding 144 FMSR

8253 2576 mt 
(10) s
%%IncludeResource: font Helvetica
/Helvetica /WindowsLatin1Encoding 96 FMSR

8413 2487 mt 
(1) s
8501 2388 mt 8514 2388 L
11124 2388 mt 11110 2388 L
8501 2309 mt 8514 2309 L
11124 2309 mt 11110 2309 L
8501 2253 mt 8514 2253 L
11124 2253 mt 11110 2253 L
8501 2210 mt 8514 2210 L
11124 2210 mt 11110 2210 L
8501 2174 mt 8514 2174 L
11124 2174 mt 11110 2174 L
8501 2144 mt 8514 2144 L
11124 2144 mt 11110 2144 L
8501 2118 mt 8514 2118 L
11124 2118 mt 11110 2118 L
8501 2095 mt 8514 2095 L
11124 2095 mt 11110 2095 L
8501 2075 mt 8514 2075 L
11124 2075 mt 11110 2075 L
8501 2075 mt 8527 2075 L
11124 2075 mt 11097 2075 L
%%IncludeResource: font Helvetica
/Helvetica /WindowsLatin1Encoding 144 FMSR

8253 2128 mt 
(10) s
%%IncludeResource: font Helvetica
/Helvetica /WindowsLatin1Encoding 96 FMSR

8413 2039 mt 
(2) s
8501 2075 mt 11124 2075 L
8501 2972 mt 11124 2972 L
11124 2972 mt 11124 2075 L
8501 2972 mt 8501 2075 L
gs 8501 2075 2624 898 rc
24 w
c11
105 82 158 129 158 114 158 86 158 94 56 -4 3 -14 2 2 
2 2 3 2 2 3 2 2 3 2 2 2 3 2 2 2 
3 2 2 2 3 3 3 2 2 2 3 2 3 3 3 2 
2 3 3 2 3 2 3 3 3 2 3 3 3 -14 3 2 
3 3 3 3 3 2 4 3 3 3 3 3 4 3 3 2 
3 3 4 3 4 4 3 3 4 3 4 3 4 3 3 4 
4 -16 4 4 5 3 4 4 4 4 4 -17 5 4 4 3 
5 4 5 4 4 5 5 4 5 4 5 4 6 5 5 4 
5 5 6 5 6 5 6 5 6 5 6 5 6 6 7 6 
7 5 7 6 7 7 8 6 7 7 8 6 9 8 8 7 
9 8 9 7 10 9 10 8 11 9 11 10 12 10 12 10 
13 12 14 11 15 -10 15 13 17 15 18 -41 20 17 22 -17 
24 21 27 -21 30 -30 35 -48 42 35 51 -92 38 -628 8778 2973 104 MP stroke
c8
77 55 158 100 158 130 158 107 158 101 158 71 56 -35 3 2 
2 2 2 2 3 2 2 2 2 2 3 2 2 2 3 2 
2 2 3 3 2 2 3 2 3 2 2 3 3 2 3 2 
3 3 2 2 3 2 3 3 3 2 3 3 3 2 3 3 
3 3 3 2 3 3 3 3 4 2 3 -10 3 3 4 3 
3 -12 3 3 4 3 4 3 3 3 4 3 4 4 4 3 
3 -12 4 3 4 3 5 4 4 4 4 3 4 4 5 4 
4 4 5 3 5 4 4 5 5 4 5 -13 5 4 6 5 
5 5 5 4 6 5 6 5 6 5 6 5 6 6 6 5 
7 6 7 6 7 6 7 6 8 6 7 7 8 -12 9 5 
8 7 9 8 9 8 10 -33 10 8 11 10 11 9 12 10 
12 11 13 11 14 11 15 32 15 -32 17 15 18 4 20 -37 
22 -25 24 21 27 -113 30 -109 35 30 42 36 29 -585 8838 2973 104 MP stroke
c9
158 -6 158 -5 158 -1 157 -4 158 1 158 4 158 10 158 19 
158 30 56 35 3 2 2 2 2 2 3 2 2 2 2 2 
3 2 2 2 3 2 2 3 3 2 2 -3 3 3 3 2 
2 2 3 2 3 3 3 2 2 3 3 2 3 2 3 3 
3 2 3 3 3 3 3 -3 3 3 3 3 3 3 4 2 
3 -2 3 3 4 3 3 -2 3 -2 4 -2 4 -3 3 4 
4 -8 4 -9 4 -3 3 -3 4 -3 4 -4 5 -3 4 3 
4 4 4 4 5 4 4 3 5 4 5 -11 4 5 5 4 
5 4 5 -4 6 -3 5 -4 5 4 6 5 6 -4 6 5 
6 -4 6 -5 6 -5 7 -17 7 5 7 6 7 7 8 6 
7 -6 8 -7 9 -7 8 7 9 8 9 -8 10 -8 10 8 
11 10 11 9 12 10 12 11 13 -8 14 10 15 -6 15 9 
17 -12 18 -68 20 -27 22 38 24 20 27 -52 30 -169 19 -538 
8925 2973 105 MP stroke
c10
158 -13 158 -12 158 -10 157 -1 158 -15 158 -27 158 -137 158 56 
158 79 56 -30 3 1 2 2 2 2 3 2 2 3 2 2 
3 2 2 2 3 2 2 2 3 2 2 2 3 3 3 2 
2 2 3 2 3 3 3 2 2 3 3 2 3 2 3 3 
3 2 3 3 3 3 3 2 3 3 3 3 3 2 4 3 
3 3 3 3 4 3 3 2 3 3 4 3 4 4 3 3 
4 3 4 3 4 3 3 4 4 3 4 3 5 4 4 4 
4 3 4 4 5 4 4 4 5 3 5 4 4 5 5 4 
5 4 5 4 6 5 5 4 5 5 6 5 6 5 6 5 
6 5 6 6 6 5 7 6 7 5 7 6 7 7 8 6 
7 7 8 6 9 8 8 7 9 8 9 7 10 9 10 8 
11 10 11 9 12 10 12 11 13 11 14 11 15 13 15 13 
17 15 18 16 20 35 22 37 24 21 27 -52 30 -72 35 49 
42 -99 51 43 65 38 59 -685 8692 2973 109 MP stroke
0 sg
158 -7 158 -9 158 -8 157 -12 158 -16 158 -14 158 -31 158 -43 
158 -75 56 -30 3 1 2 2 2 2 3 2 2 3 2 2 
3 -24 2 2 3 2 2 2 3 2 2 2 3 3 3 2 
2 2 3 2 3 3 3 2 2 3 3 2 3 2 3 3 
3 2 3 3 3 3 3 2 3 3 3 3 3 2 4 3 
3 3 3 3 4 3 3 2 3 3 4 -27 4 3 3 4 
4 3 4 3 4 -32 3 3 4 3 4 4 5 -21 4 3 
4 -71 4 4 5 4 4 -75 5 3 5 4 4 5 5 4 
5 4 5 4 6 5 5 4 5 5 6 5 6 5 6 5 
6 5 6 6 6 5 7 6 7 5 7 -129 7 7 8 6 
7 7 8 6 9 8 8 7 9 8 9 7 10 9 10 8 
11 9 11 10 5 -315 9178 2973 92 MP stroke
gr

24 w
%%IncludeResource: font Helvetica
/Helvetica /WindowsLatin1Encoding 144 FMSR

9345 1961 mt 
(SHEsisEpi vs. ) s
8166 2976 mt  -90 rotate
(intersection %) s
90 rotate
9284 3345 mt 
(sorted list length) s
6 w
1 sg
0 897 2623 0 0 -897 5050 4547 4 MP
PP
-2623 0 0 897 2623 0 0 -897 5050 4547 5 MP stroke
4 w
DO
SO
6 w
0 sg
5050 3650 mt 7673 3650 L
5050 4547 mt 7673 4547 L
7673 4547 mt 7673 3650 L
5050 4547 mt 5050 3650 L
5050 4547 mt 7673 4547 L
5050 4547 mt 5050 3650 L
5050 4547 mt 5050 4533 L
5050 3650 mt 5050 3663 L
5050 4547 mt 5050 4520 L
5050 3650 mt 5050 3676 L
4944 4759 mt 
(10) s
%%IncludeResource: font Helvetica
/Helvetica /WindowsLatin1Encoding 96 FMSR

5104 4670 mt 
(0) s
5207 4547 mt 5207 4533 L
5207 3650 mt 5207 3663 L
5300 4547 mt 5300 4533 L
5300 3650 mt 5300 3663 L
5365 4547 mt 5365 4533 L
5365 3650 mt 5365 3663 L
5416 4547 mt 5416 4533 L
5416 3650 mt 5416 3663 L
5458 4547 mt 5458 4533 L
5458 3650 mt 5458 3663 L
5493 4547 mt 5493 4533 L
5493 3650 mt 5493 3663 L
5523 4547 mt 5523 4533 L
5523 3650 mt 5523 3663 L
5550 4547 mt 5550 4533 L
5550 3650 mt 5550 3663 L
5574 4547 mt 5574 4533 L
5574 3650 mt 5574 3663 L
5574 4547 mt 5574 4520 L
5574 3650 mt 5574 3676 L
%%IncludeResource: font Helvetica
/Helvetica /WindowsLatin1Encoding 144 FMSR

5468 4759 mt 
(10) s
%%IncludeResource: font Helvetica
/Helvetica /WindowsLatin1Encoding 96 FMSR

5628 4670 mt 
(1) s
5732 4547 mt 5732 4533 L
5732 3650 mt 5732 3663 L
5824 4547 mt 5824 4533 L
5824 3650 mt 5824 3663 L
5890 4547 mt 5890 4533 L
5890 3650 mt 5890 3663 L
5941 4547 mt 5941 4533 L
5941 3650 mt 5941 3663 L
5982 4547 mt 5982 4533 L
5982 3650 mt 5982 3663 L
6017 4547 mt 6017 4533 L
6017 3650 mt 6017 3663 L
6048 4547 mt 6048 4533 L
6048 3650 mt 6048 3663 L
6075 4547 mt 6075 4533 L
6075 3650 mt 6075 3663 L
6099 4547 mt 6099 4533 L
6099 3650 mt 6099 3663 L
6099 4547 mt 6099 4520 L
6099 3650 mt 6099 3676 L
%%IncludeResource: font Helvetica
/Helvetica /WindowsLatin1Encoding 144 FMSR

5993 4759 mt 
(10) s
%%IncludeResource: font Helvetica
/Helvetica /WindowsLatin1Encoding 96 FMSR

6153 4670 mt 
(2) s
6257 4547 mt 6257 4533 L
6257 3650 mt 6257 3663 L
6349 4547 mt 6349 4533 L
6349 3650 mt 6349 3663 L
6415 4547 mt 6415 4533 L
6415 3650 mt 6415 3663 L
6465 4547 mt 6465 4533 L
6465 3650 mt 6465 3663 L
6507 4547 mt 6507 4533 L
6507 3650 mt 6507 3663 L
6542 4547 mt 6542 4533 L
6542 3650 mt 6542 3663 L
6572 4547 mt 6572 4533 L
6572 3650 mt 6572 3663 L
6599 4547 mt 6599 4533 L
6599 3650 mt 6599 3663 L
6623 4547 mt 6623 4533 L
6623 3650 mt 6623 3663 L
6623 4547 mt 6623 4520 L
6623 3650 mt 6623 3676 L
%%IncludeResource: font Helvetica
/Helvetica /WindowsLatin1Encoding 144 FMSR

6517 4759 mt 
(10) s
%%IncludeResource: font Helvetica
/Helvetica /WindowsLatin1Encoding 96 FMSR

6677 4670 mt 
(3) s
6781 4547 mt 6781 4533 L
6781 3650 mt 6781 3663 L
6874 4547 mt 6874 4533 L
6874 3650 mt 6874 3663 L
6939 4547 mt 6939 4533 L
6939 3650 mt 6939 3663 L
6990 4547 mt 6990 4533 L
6990 3650 mt 6990 3663 L
7032 4547 mt 7032 4533 L
7032 3650 mt 7032 3663 L
7067 4547 mt 7067 4533 L
7067 3650 mt 7067 3663 L
7097 4547 mt 7097 4533 L
7097 3650 mt 7097 3663 L
7124 4547 mt 7124 4533 L
7124 3650 mt 7124 3663 L
7148 4547 mt 7148 4533 L
7148 3650 mt 7148 3663 L
7148 4547 mt 7148 4520 L
7148 3650 mt 7148 3676 L
%%IncludeResource: font Helvetica
/Helvetica /WindowsLatin1Encoding 144 FMSR

7042 4759 mt 
(10) s
%%IncludeResource: font Helvetica
/Helvetica /WindowsLatin1Encoding 96 FMSR

7202 4670 mt 
(4) s
7306 4547 mt 7306 4533 L
7306 3650 mt 7306 3663 L
7398 4547 mt 7398 4533 L
7398 3650 mt 7398 3663 L
7464 4547 mt 7464 4533 L
7464 3650 mt 7464 3663 L
7515 4547 mt 7515 4533 L
7515 3650 mt 7515 3663 L
7556 4547 mt 7556 4533 L
7556 3650 mt 7556 3663 L
7591 4547 mt 7591 4533 L
7591 3650 mt 7591 3663 L
7622 4547 mt 7622 4533 L
7622 3650 mt 7622 3663 L
7648 4547 mt 7648 4533 L
7648 3650 mt 7648 3663 L
7673 4547 mt 7673 4533 L
7673 3650 mt 7673 3663 L
7673 4547 mt 7673 4520 L
7673 3650 mt 7673 3676 L
%%IncludeResource: font Helvetica
/Helvetica /WindowsLatin1Encoding 144 FMSR

7567 4759 mt 
(10) s
%%IncludeResource: font Helvetica
/Helvetica /WindowsLatin1Encoding 96 FMSR

7727 4670 mt 
(5) s
5050 4547 mt 5063 4547 L
7673 4547 mt 7659 4547 L
5050 4547 mt 5076 4547 L
7673 4547 mt 7646 4547 L
%%IncludeResource: font Helvetica
/Helvetica /WindowsLatin1Encoding 144 FMSR

4802 4600 mt 
(10) s
%%IncludeResource: font Helvetica
/Helvetica /WindowsLatin1Encoding 96 FMSR

4962 4511 mt 
(0) s
5050 4411 mt 5063 4411 L
7673 4411 mt 7659 4411 L
5050 4333 mt 5063 4333 L
7673 4333 mt 7659 4333 L
5050 4276 mt 5063 4276 L
7673 4276 mt 7659 4276 L
5050 4233 mt 5063 4233 L
7673 4233 mt 7659 4233 L
5050 4197 mt 5063 4197 L
7673 4197 mt 7659 4197 L
5050 4167 mt 5063 4167 L
7673 4167 mt 7659 4167 L
5050 4141 mt 5063 4141 L
7673 4141 mt 7659 4141 L
5050 4119 mt 5063 4119 L
7673 4119 mt 7659 4119 L
5050 4098 mt 5063 4098 L
7673 4098 mt 7659 4098 L
5050 4098 mt 5076 4098 L
7673 4098 mt 7646 4098 L
%%IncludeResource: font Helvetica
/Helvetica /WindowsLatin1Encoding 144 FMSR

4802 4151 mt 
(10) s
%%IncludeResource: font Helvetica
/Helvetica /WindowsLatin1Encoding 96 FMSR

4962 4062 mt 
(1) s
5050 3963 mt 5063 3963 L
7673 3963 mt 7659 3963 L
5050 3884 mt 5063 3884 L
7673 3884 mt 7659 3884 L
5050 3828 mt 5063 3828 L
7673 3828 mt 7659 3828 L
5050 3785 mt 5063 3785 L
7673 3785 mt 7659 3785 L
5050 3749 mt 5063 3749 L
7673 3749 mt 7659 3749 L
5050 3719 mt 5063 3719 L
7673 3719 mt 7659 3719 L
5050 3693 mt 5063 3693 L
7673 3693 mt 7659 3693 L
5050 3670 mt 5063 3670 L
7673 3670 mt 7659 3670 L
5050 3650 mt 5063 3650 L
7673 3650 mt 7659 3650 L
5050 3650 mt 5076 3650 L
7673 3650 mt 7646 3650 L
%%IncludeResource: font Helvetica
/Helvetica /WindowsLatin1Encoding 144 FMSR

4802 3703 mt 
(10) s
%%IncludeResource: font Helvetica
/Helvetica /WindowsLatin1Encoding 96 FMSR

4962 3614 mt 
(2) s
5050 3650 mt 7673 3650 L
5050 4547 mt 7673 4547 L
7673 4547 mt 7673 3650 L
5050 4547 mt 5050 3650 L
gs 5050 3650 2624 898 rc
24 w
c8
1 1 3 2 2 2 2 2 3 2 2 2 2 3 3 2 
2 2 3 2 2 2 3 2 2 2 3 3 3 2 2 2 
3 2 3 3 3 2 2 3 3 2 3 2 3 3 3 2 
3 3 3 3 3 2 3 3 3 2 3 3 4 3 3 3 
3 3 4 3 3 2 3 3 4 3 4 3 0 -91 5993 4548 40 MP stroke
c9
23 20 3 2 2 2 2 2 3 2 2 2 2 2 3 2 
2 2 3 2 2 3 3 2 2 2 3 2 3 2 2 3 
3 2 3 2 3 3 2 2 3 3 3 2 3 2 3 3 
3 3 3 2 3 3 3 2 3 3 3 3 4 3 3 2 
3 3 4 3 3 3 3 3 4 3 4 3 3 -15 4 3 
4 3 4 3 3 4 4 3 4 3 5 4 4 4 4 3 
4 4 5 4 4 4 5 3 5 4 4 5 5 4 5 4 
5 4 6 5 5 4 5 5 6 5 6 5 6 5 6 5 
6 5 6 6 7 6 7 5 7 6 7 7 8 6 7 7 
3 -243 5814 4548 74 MP stroke
gr

24 w
c9
0 sg
%%IncludeResource: font Helvetica
/Helvetica /WindowsLatin1Encoding 144 FMSR

6052 3536 mt 
(2Chi) s
%%IncludeResource: font Helvetica
/Helvetica /WindowsLatin1Encoding 108 FMSR

6348 3464 mt 
(2) s
%%IncludeResource: font Helvetica
/Helvetica /WindowsLatin1Encoding 144 FMSR

6408 3536 mt 
( vs. ) s
4715 4551 mt  -90 rotate
(intersection %) s
90 rotate
5833 4920 mt 
(sorted list length) s
%%IncludeResource: font Helvetica
/Helvetica /WindowsLatin1Encoding 120 FMSR

5033 4590 mt 
( ) s
7657 3692 mt 
( ) s
6 w
1 sg
0 1857 1272 0 0 -1857 2243 5258 4 MP
PP
-1272 0 0 1857 1272 0 0 -1857 2243 5258 5 MP stroke
4 w
DO
SO
6 w
0 sg
2243 3401 mt 3515 3401 L
2243 5258 mt 3515 5258 L
3515 5258 mt 3515 3401 L
2243 5258 mt 2243 3401 L
2243 5258 mt 3515 5258 L
2243 5258 mt 2243 3401 L
2243 3401 mt 3515 3401 L
2243 5258 mt 3515 5258 L
3515 5258 mt 3515 3401 L
2243 5258 mt 2243 3401 L
%%IncludeResource: font Helvetica
/Helvetica /WindowsLatin1Encoding 144 FMSR

2712 3628 mt 
(Chi) s
%%IncludeResource: font Helvetica
/Helvetica /WindowsLatin1Encoding 108 FMSR

2928 3556 mt 
(2) s
24 w
c11
361 0 2315 3557 2 MP stroke
0 sg
%%IncludeResource: font Helvetica
/Helvetica /WindowsLatin1Encoding 144 FMSR

2712 3848 mt 
(SS) s
c8
361 0 2315 3796 2 MP stroke
0 sg
2712 4061 mt 
(DSS) s
c9
361 0 2315 4009 2 MP stroke
0 sg
2712 4274 mt 
(plink fastepi) s
c10
361 0 2315 4222 2 MP stroke
0 sg
2712 4488 mt 
(Info. Gain) s
361 0 2315 4436 2 MP stroke
2712 4701 mt 
(SHEsisEpi) s
DA
c11
361 0 2315 4649 2 MP stroke
SO
0 sg
2712 4914 mt 
(Epiblaster) s
DA
c8
361 0 2315 4862 2 MP stroke
SO
0 sg
2712 5172 mt 
(2Chi) s
%%IncludeResource: font Helvetica
/Helvetica /WindowsLatin1Encoding 108 FMSR

3008 5100 mt 
(2) s
DA
6 w
c9
361 0 2315 5101 2 MP stroke
SO
1 sg
0 897 2623 0 0 -897 8501 4547 4 MP
PP
-2623 0 0 897 2623 0 0 -897 8501 4547 5 MP stroke
4 w
DO
SO
6 w
0 sg
8501 3650 mt 11124 3650 L
8501 4547 mt 11124 4547 L
11124 4547 mt 11124 3650 L
8501 4547 mt 8501 3650 L
8501 4547 mt 11124 4547 L
8501 4547 mt 8501 3650 L
8501 4547 mt 8501 4533 L
8501 3650 mt 8501 3663 L
8501 4547 mt 8501 4520 L
8501 3650 mt 8501 3676 L
%%IncludeResource: font Helvetica
/Helvetica /WindowsLatin1Encoding 144 FMSR

8395 4759 mt 
(10) s
%%IncludeResource: font Helvetica
/Helvetica /WindowsLatin1Encoding 96 FMSR

8555 4670 mt 
(0) s
8658 4547 mt 8658 4533 L
8658 3650 mt 8658 3663 L
8751 4547 mt 8751 4533 L
8751 3650 mt 8751 3663 L
8816 4547 mt 8816 4533 L
8816 3650 mt 8816 3663 L
8867 4547 mt 8867 4533 L
8867 3650 mt 8867 3663 L
8909 4547 mt 8909 4533 L
8909 3650 mt 8909 3663 L
8944 4547 mt 8944 4533 L
8944 3650 mt 8944 3663 L
8974 4547 mt 8974 4533 L
8974 3650 mt 8974 3663 L
9001 4547 mt 9001 4533 L
9001 3650 mt 9001 3663 L
9025 4547 mt 9025 4533 L
9025 3650 mt 9025 3663 L
9025 4547 mt 9025 4520 L
9025 3650 mt 9025 3676 L
%%IncludeResource: font Helvetica
/Helvetica /WindowsLatin1Encoding 144 FMSR

8919 4759 mt 
(10) s
%%IncludeResource: font Helvetica
/Helvetica /WindowsLatin1Encoding 96 FMSR

9079 4670 mt 
(1) s
9183 4547 mt 9183 4533 L
9183 3650 mt 9183 3663 L
9275 4547 mt 9275 4533 L
9275 3650 mt 9275 3663 L
9341 4547 mt 9341 4533 L
9341 3650 mt 9341 3663 L
9392 4547 mt 9392 4533 L
9392 3650 mt 9392 3663 L
9433 4547 mt 9433 4533 L
9433 3650 mt 9433 3663 L
9468 4547 mt 9468 4533 L
9468 3650 mt 9468 3663 L
9499 4547 mt 9499 4533 L
9499 3650 mt 9499 3663 L
9526 4547 mt 9526 4533 L
9526 3650 mt 9526 3663 L
9550 4547 mt 9550 4533 L
9550 3650 mt 9550 3663 L
9550 4547 mt 9550 4520 L
9550 3650 mt 9550 3676 L
%%IncludeResource: font Helvetica
/Helvetica /WindowsLatin1Encoding 144 FMSR

9444 4759 mt 
(10) s
%%IncludeResource: font Helvetica
/Helvetica /WindowsLatin1Encoding 96 FMSR

9604 4670 mt 
(2) s
9708 4547 mt 9708 4533 L
9708 3650 mt 9708 3663 L
9800 4547 mt 9800 4533 L
9800 3650 mt 9800 3663 L
9866 4547 mt 9866 4533 L
9866 3650 mt 9866 3663 L
9916 4547 mt 9916 4533 L
9916 3650 mt 9916 3663 L
9958 4547 mt 9958 4533 L
9958 3650 mt 9958 3663 L
9993 4547 mt 9993 4533 L
9993 3650 mt 9993 3663 L
10023 4547 mt 10023 4533 L
10023 3650 mt 10023 3663 L
10050 4547 mt 10050 4533 L
10050 3650 mt 10050 3663 L
10074 4547 mt 10074 4533 L
10074 3650 mt 10074 3663 L
10074 4547 mt 10074 4520 L
10074 3650 mt 10074 3676 L
%%IncludeResource: font Helvetica
/Helvetica /WindowsLatin1Encoding 144 FMSR

9968 4759 mt 
(10) s
%%IncludeResource: font Helvetica
/Helvetica /WindowsLatin1Encoding 96 FMSR

10128 4670 mt 
(3) s
10232 4547 mt 10232 4533 L
10232 3650 mt 10232 3663 L
10325 4547 mt 10325 4533 L
10325 3650 mt 10325 3663 L
10390 4547 mt 10390 4533 L
10390 3650 mt 10390 3663 L
10441 4547 mt 10441 4533 L
10441 3650 mt 10441 3663 L
10483 4547 mt 10483 4533 L
10483 3650 mt 10483 3663 L
10518 4547 mt 10518 4533 L
10518 3650 mt 10518 3663 L
10548 4547 mt 10548 4533 L
10548 3650 mt 10548 3663 L
10575 4547 mt 10575 4533 L
10575 3650 mt 10575 3663 L
10599 4547 mt 10599 4533 L
10599 3650 mt 10599 3663 L
10599 4547 mt 10599 4520 L
10599 3650 mt 10599 3676 L
%%IncludeResource: font Helvetica
/Helvetica /WindowsLatin1Encoding 144 FMSR

10493 4759 mt 
(10) s
%%IncludeResource: font Helvetica
/Helvetica /WindowsLatin1Encoding 96 FMSR

10653 4670 mt 
(4) s
10757 4547 mt 10757 4533 L
10757 3650 mt 10757 3663 L
10849 4547 mt 10849 4533 L
10849 3650 mt 10849 3663 L
10915 4547 mt 10915 4533 L
10915 3650 mt 10915 3663 L
10966 4547 mt 10966 4533 L
10966 3650 mt 10966 3663 L
11007 4547 mt 11007 4533 L
11007 3650 mt 11007 3663 L
11042 4547 mt 11042 4533 L
11042 3650 mt 11042 3663 L
11073 4547 mt 11073 4533 L
11073 3650 mt 11073 3663 L
11099 4547 mt 11099 4533 L
11099 3650 mt 11099 3663 L
11124 4547 mt 11124 4533 L
11124 3650 mt 11124 3663 L
11124 4547 mt 11124 4520 L
11124 3650 mt 11124 3676 L
%%IncludeResource: font Helvetica
/Helvetica /WindowsLatin1Encoding 144 FMSR

11018 4759 mt 
(10) s
%%IncludeResource: font Helvetica
/Helvetica /WindowsLatin1Encoding 96 FMSR

11178 4670 mt 
(5) s
8501 4547 mt 8514 4547 L
11124 4547 mt 11110 4547 L
8501 4547 mt 8527 4547 L
11124 4547 mt 11097 4547 L
%%IncludeResource: font Helvetica
/Helvetica /WindowsLatin1Encoding 144 FMSR

8253 4600 mt 
(10) s
%%IncludeResource: font Helvetica
/Helvetica /WindowsLatin1Encoding 96 FMSR

8413 4511 mt 
(0) s
8501 4456 mt 8514 4456 L
11124 4456 mt 11110 4456 L
8501 4404 mt 8514 4404 L
11124 4404 mt 11110 4404 L
8501 4366 mt 8514 4366 L
11124 4366 mt 11110 4366 L
8501 4338 mt 8514 4338 L
11124 4338 mt 11110 4338 L
8501 4314 mt 8514 4314 L
11124 4314 mt 11110 4314 L
8501 4294 mt 8514 4294 L
11124 4294 mt 11110 4294 L
8501 4276 mt 8514 4276 L
11124 4276 mt 11110 4276 L
8501 4261 mt 8514 4261 L
11124 4261 mt 11110 4261 L
8501 4248 mt 8514 4248 L
11124 4248 mt 11110 4248 L
8501 4248 mt 8527 4248 L
11124 4248 mt 11097 4248 L
%%IncludeResource: font Helvetica
/Helvetica /WindowsLatin1Encoding 144 FMSR

8253 4301 mt 
(10) s
%%IncludeResource: font Helvetica
/Helvetica /WindowsLatin1Encoding 96 FMSR

8413 4212 mt 
(1) s
8501 4157 mt 8514 4157 L
11124 4157 mt 11110 4157 L
8501 4105 mt 8514 4105 L
11124 4105 mt 11110 4105 L
8501 4067 mt 8514 4067 L
11124 4067 mt 11110 4067 L
8501 4039 mt 8514 4039 L
11124 4039 mt 11110 4039 L
8501 4015 mt 8514 4015 L
11124 4015 mt 11110 4015 L
8501 3995 mt 8514 3995 L
11124 3995 mt 11110 3995 L
8501 3977 mt 8514 3977 L
11124 3977 mt 11110 3977 L
8501 3962 mt 8514 3962 L
11124 3962 mt 11110 3962 L
8501 3949 mt 8514 3949 L
11124 3949 mt 11110 3949 L
8501 3949 mt 8527 3949 L
11124 3949 mt 11097 3949 L
%%IncludeResource: font Helvetica
/Helvetica /WindowsLatin1Encoding 144 FMSR

8253 4002 mt 
(10) s
%%IncludeResource: font Helvetica
/Helvetica /WindowsLatin1Encoding 96 FMSR

8413 3913 mt 
(2) s
8501 3858 mt 8514 3858 L
11124 3858 mt 11110 3858 L
8501 3806 mt 8514 3806 L
11124 3806 mt 11110 3806 L
8501 3768 mt 8514 3768 L
11124 3768 mt 11110 3768 L
8501 3740 mt 8514 3740 L
11124 3740 mt 11110 3740 L
8501 3716 mt 8514 3716 L
11124 3716 mt 11110 3716 L
8501 3696 mt 8514 3696 L
11124 3696 mt 11110 3696 L
8501 3678 mt 8514 3678 L
11124 3678 mt 11110 3678 L
8501 3663 mt 8514 3663 L
11124 3663 mt 11110 3663 L
8501 3650 mt 8514 3650 L
11124 3650 mt 11110 3650 L
8501 3650 mt 8527 3650 L
11124 3650 mt 11097 3650 L
%%IncludeResource: font Helvetica
/Helvetica /WindowsLatin1Encoding 144 FMSR

8253 3703 mt 
(10) s
%%IncludeResource: font Helvetica
/Helvetica /WindowsLatin1Encoding 96 FMSR

8413 3614 mt 
(3) s
8501 3650 mt 11124 3650 L
8501 4547 mt 11124 4547 L
11124 4547 mt 11124 3650 L
8501 4547 mt 8501 3650 L
%%IncludeResource: font Helvetica
/Helvetica /WindowsLatin1Encoding 144 FMSR

9292 3536 mt 
(pvalues for CAD) s
8102 4384 mt  -90 rotate
(-log) s
90 rotate
%%IncludeResource: font Helvetica
/Helvetica /WindowsLatin1Encoding 108 FMSR

8174 4108 mt  -90 rotate
(10) s
90 rotate
%%IncludeResource: font Helvetica
/Helvetica /WindowsLatin1Encoding 144 FMSR

8102 3988 mt  -90 rotate
(\(p\)) s
90 rotate
9284 4920 mt 
(sorted list length) s
gs 8501 3650 2624 898 rc
24 w
c11
158 4 158 4 158 4 157 4 158 3 158 4 158 5 158 6 
158 10 56 3 3 0 2 1 2 0 3 0 2 0 2 0 
3 1 2 0 3 0 2 0 3 0 2 1 3 0 3 0 
2 0 3 0 3 0 3 1 2 0 3 0 3 0 3 0 
3 0 3 1 3 0 3 0 3 0 3 0 3 1 4 0 
3 1 3 0 4 0 3 0 3 1 4 0 4 0 3 1 
4 0 4 0 4 0 3 0 4 0 4 0 5 0 4 1 
4 0 4 0 5 0 4 0 5 0 5 0 4 0 5 1 
5 0 5 0 6 0 5 1 5 0 6 0 6 1 6 1 
6 0 6 0 6 0 7 1 7 0 7 1 7 0 8 1 
7 0 8 1 9 0 8 0 9 1 9 1 10 1 10 0 
11 1 11 0 12 3 12 0 13 1 14 1 15 0 15 1 
17 5 18 1 20 2 22 1 24 2 27 4 30 7 35 10 
42 17 51 48 65 3 93 1 157 4 8501 4048 110 MP stroke
c8
158 4 158 4 158 4 157 4 158 5 158 5 158 4 158 6 
158 7 56 2 3 0 2 0 2 1 3 0 2 0 2 0 
3 1 2 0 3 0 2 0 3 0 2 0 3 0 3 0 
2 0 3 1 3 0 3 0 2 0 3 0 3 0 3 0 
3 1 3 1 3 0 3 0 3 0 3 0 3 0 4 0 
3 0 3 0 4 0 3 0 3 1 4 0 4 0 3 1 
4 0 4 0 4 1 3 0 4 0 4 2 5 0 4 1 
4 0 4 1 5 1 4 0 5 1 5 1 4 0 5 0 
5 0 5 1 6 0 5 0 5 2 6 0 6 0 6 2 
6 0 6 0 6 0 7 0 7 0 7 2 7 0 8 0 
7 0 8 1 9 1 8 1 9 1 9 1 10 1 10 1 
11 0 11 0 12 2 12 2 13 2 14 2 15 2 15 0 
17 2 18 2 20 0 22 1 24 2 27 12 30 4 35 1 
42 11 51 1 65 0 93 6 157 5 8501 4073 110 MP stroke
c10
158 7 158 6 158 6 157 5 158 6 158 5 158 5 158 4 
158 4 56 2 3 0 2 0 2 0 3 0 2 0 2 0 
3 1 2 0 3 0 2 0 3 0 2 0 3 0 3 0 
2 0 3 0 3 0 3 0 2 0 3 1 3 0 3 0 
3 0 3 0 3 0 3 0 3 0 3 0 3 0 4 0 
3 0 3 1 4 0 3 0 3 0 4 0 4 0 3 0 
4 0 4 0 4 0 3 0 4 0 4 0 5 0 4 0 
4 0 4 1 5 0 4 0 5 0 5 0 4 0 5 0 
5 0 5 1 6 0 5 0 5 0 6 0 6 1 6 0 
6 0 6 0 6 1 7 0 7 0 7 0 7 1 8 0 
7 0 8 0 9 0 8 1 9 0 9 1 10 0 10 1 
11 0 11 1 12 0 12 0 13 0 14 0 15 0 15 0 
17 1 18 3 20 4 22 0 24 0 27 1 30 2 35 6 
42 4 51 6 65 4 93 42 157 2 8501 4177 110 MP stroke
DA
c11
158 3 158 2 158 2 157 3 158 2 158 2 158 2 158 2 
158 2 56 2 3 0 2 0 2 0 3 0 2 0 2 0 
3 0 2 0 3 0 2 0 3 0 2 1 3 0 3 0 
2 0 3 0 3 0 3 0 2 0 3 0 3 0 3 0 
3 1 3 0 3 0 3 0 3 0 3 0 3 0 4 0 
3 1 3 0 4 0 3 0 3 1 4 0 4 0 3 0 
4 0 4 1 4 1 3 0 4 0 4 1 5 0 4 0 
4 1 4 0 5 0 4 0 5 1 5 1 4 0 5 0 
5 0 5 1 6 0 5 0 5 0 6 0 6 0 6 1 
6 0 6 0 6 0 7 0 7 0 7 0 7 0 8 0 
7 1 8 1 9 1 8 0 9 0 9 0 10 1 10 1 
11 0 11 1 12 1 12 0 13 1 14 1 15 0 15 0 
17 1 18 1 20 1 22 2 24 0 27 0 30 1 35 0 
42 0 51 2 65 0 93 3 157 23 8501 4406 110 MP stroke
c9
158 1 158 90 158 0 157 0 158 0 158 1 158 0 158 1 
158 1 56 1 3 0 2 0 2 0 3 0 2 0 2 0 
3 0 2 0 3 0 2 0 3 0 2 0 3 0 3 0 
2 0 3 0 3 0 3 0 2 0 3 0 3 0 3 0 
3 1 3 0 3 0 3 0 3 0 3 0 3 0 4 0 
3 0 3 0 4 0 3 0 3 0 4 0 4 0 3 0 
4 0 4 0 4 0 3 1 4 0 4 0 5 0 4 0 
4 0 4 0 5 0 4 0 5 0 5 0 4 0 5 0 
5 0 5 1 6 0 5 1 5 0 6 0 6 0 6 1 
6 0 6 0 6 1 7 0 7 0 7 2 7 0 8 1 
7 0 8 0 9 2 8 0 9 0 9 2 10 0 10 1 
11 2 11 0 12 0 12 3 13 0 14 1 15 5 15 0 
17 0 18 0 20 8 22 0 24 0 27 0 30 2 35 9 
42 4 51 1 65 14 93 23 157 7 8501 3732 110 MP stroke
SO
6 w
gr

c9

end %%Color Dict

eplot
%%EndObject

epage
end

showpage

%%Trailer
%%EOF
