%!PS-Adobe-3.0 EPSF-3.0
%%Creator: MATLAB, The MathWorks, Inc. Version 8.0.0.783 (R2012b). Operating System: Microsoft Windows 7.
%%Title: C:\Users\qwan\Desktop\rerun_noGBoost\overlap_RA_nogrid.eps
%%CreationDate: 04/09/2014  13:06:46
%%DocumentNeededFonts: Helvetica
%%DocumentProcessColors: Cyan Magenta Yellow Black
%%LanguageLevel: 2
%%Pages: 1
%%BoundingBox:  -206   176   818   614
%%EndComments

%%BeginProlog
% MathWorks dictionary
/MathWorks 160 dict begin
% definition operators
/bdef {bind def} bind def
/ldef {load def} bind def
/xdef {exch def} bdef
/xstore {exch store} bdef
% operator abbreviations
/c  /clip ldef
/cc /concat ldef
/cp /closepath ldef
/gr /grestore ldef
/gs /gsave ldef
/mt /moveto ldef
/np /newpath ldef
/cm /currentmatrix ldef
/sm /setmatrix ldef
/rm /rmoveto ldef
/rl /rlineto ldef
/s {show newpath} bdef
/sc {setcmykcolor} bdef
/sr /setrgbcolor ldef
/sg /setgray ldef
/w /setlinewidth ldef
/j /setlinejoin ldef
/cap /setlinecap ldef
/rc {rectclip} bdef
/rf {rectfill} bdef
% page state control
/pgsv () def
/bpage {/pgsv save def} bdef
/epage {pgsv restore} bdef
/bplot /gsave ldef
/eplot {stroke grestore} bdef
% orientation switch
/portraitMode 0 def /landscapeMode 1 def /rotateMode 2 def
% coordinate system mappings
/dpi2point 0 def
% font control
/FontSize 0 def
/FMS {/FontSize xstore findfont [FontSize 0 0 FontSize neg 0 0]
  makefont setfont} bdef
/ISOLatin1Encoding where {pop /WindowsLatin1Encoding 256 array bdef
ISOLatin1Encoding WindowsLatin1Encoding copy pop
/.notdef/.notdef/quotesinglbase/florin/quotedblbase/ellipsis/dagger
/daggerdbl/circumflex/perthousand/Scaron/guilsinglleft/OE/.notdef/.notdef
/.notdef/.notdef/quoteleft/quoteright/quotedblleft/quotedblright/bullet
/endash/emdash/tilde/trademark/scaron/guilsinglright/oe/.notdef/.notdef
/Ydieresis WindowsLatin1Encoding 128 32 getinterval astore pop}
{/WindowsLatin1Encoding StandardEncoding bdef} ifelse
/reencode {exch dup where {pop load} {pop StandardEncoding} ifelse
  exch dup 3 1 roll findfont dup length dict begin
  { 1 index /FID ne {def}{pop pop} ifelse } forall
  /Encoding exch def currentdict end definefont pop} bdef
/isroman {findfont /CharStrings get /Agrave known} bdef
/FMSR {3 1 roll 1 index dup isroman {reencode} {pop pop} ifelse
  exch FMS} bdef
/csm {1 dpi2point div -1 dpi2point div scale neg translate
 dup landscapeMode eq {pop -90 rotate}
  {rotateMode eq {90 rotate} if} ifelse} bdef
% line types: solid, dotted, dashed, dotdash
/SO { [] 0 setdash } bdef
/DO { [.5 dpi2point mul 4 dpi2point mul] 0 setdash } bdef
/DA { [6 dpi2point mul] 0 setdash } bdef
/DD { [.5 dpi2point mul 4 dpi2point mul 6 dpi2point mul 4
  dpi2point mul] 0 setdash } bdef
% macros for lines and objects
/L {lineto stroke} bdef
/MP {3 1 roll moveto 1 sub {rlineto} repeat} bdef
/AP {{rlineto} repeat} bdef
/PDlw -1 def
/W {/PDlw currentlinewidth def setlinewidth} def
/PP {closepath eofill} bdef
/DP {closepath stroke} bdef
/MR {4 -2 roll moveto dup  0 exch rlineto exch 0 rlineto
  neg 0 exch rlineto closepath} bdef
/FR {MR stroke} bdef
/PR {MR fill} bdef
/L1i {{currentfile picstr readhexstring pop} image} bdef
/tMatrix matrix def
/MakeOval {newpath tMatrix currentmatrix pop translate scale
0 0 1 0 360 arc tMatrix setmatrix} bdef
/FO {MakeOval stroke} bdef
/PO {MakeOval fill} bdef
/PD {currentlinewidth 2 div 0 360 arc fill
   PDlw -1 eq not {PDlw w /PDlw -1 def} if} def
/FA {newpath tMatrix currentmatrix pop translate scale
  0 0 1 5 -2 roll arc tMatrix setmatrix stroke} bdef
/PA {newpath tMatrix currentmatrix pop	translate 0 0 moveto scale
  0 0 1 5 -2 roll arc closepath tMatrix setmatrix fill} bdef
/FAn {newpath tMatrix currentmatrix pop translate scale
  0 0 1 5 -2 roll arcn tMatrix setmatrix stroke} bdef
/PAn {newpath tMatrix currentmatrix pop translate 0 0 moveto scale
  0 0 1 5 -2 roll arcn closepath tMatrix setmatrix fill} bdef
/vradius 0 def /hradius 0 def /lry 0 def
/lrx 0 def /uly 0 def /ulx 0 def /rad 0 def
/MRR {/vradius xdef /hradius xdef /lry xdef /lrx xdef /uly xdef
  /ulx xdef newpath tMatrix currentmatrix pop ulx hradius add uly
  vradius add translate hradius vradius scale 0 0 1 180 270 arc 
  tMatrix setmatrix lrx hradius sub uly vradius add translate
  hradius vradius scale 0 0 1 270 360 arc tMatrix setmatrix
  lrx hradius sub lry vradius sub translate hradius vradius scale
  0 0 1 0 90 arc tMatrix setmatrix ulx hradius add lry vradius sub
  translate hradius vradius scale 0 0 1 90 180 arc tMatrix setmatrix
  closepath} bdef
/FRR {MRR stroke } bdef
/PRR {MRR fill } bdef
/MlrRR {/lry xdef /lrx xdef /uly xdef /ulx xdef /rad lry uly sub 2 div def
  newpath tMatrix currentmatrix pop ulx rad add uly rad add translate
  rad rad scale 0 0 1 90 270 arc tMatrix setmatrix lrx rad sub lry rad
  sub translate rad rad scale 0 0 1 270 90 arc tMatrix setmatrix
  closepath} bdef
/FlrRR {MlrRR stroke } bdef
/PlrRR {MlrRR fill } bdef
/MtbRR {/lry xdef /lrx xdef /uly xdef /ulx xdef /rad lrx ulx sub 2 div def
  newpath tMatrix currentmatrix pop ulx rad add uly rad add translate
  rad rad scale 0 0 1 180 360 arc tMatrix setmatrix lrx rad sub lry rad
  sub translate rad rad scale 0 0 1 0 180 arc tMatrix setmatrix
  closepath} bdef
/FtbRR {MtbRR stroke } bdef
/PtbRR {MtbRR fill } bdef
/stri 6 array def /dtri 6 array def
/smat 6 array def /dmat 6 array def
/tmat1 6 array def /tmat2 6 array def /dif 3 array def
/asub {/ind2 exch def /ind1 exch def dup dup
  ind1 get exch ind2 get sub exch } bdef
/tri_to_matrix {
  2 0 asub 3 1 asub 4 0 asub 5 1 asub
  dup 0 get exch 1 get 7 -1 roll astore } bdef
/compute_transform {
  dmat dtri tri_to_matrix tmat1 invertmatrix 
  smat stri tri_to_matrix tmat2 concatmatrix } bdef
/ds {stri astore pop} bdef
/dt {dtri astore pop} bdef
/db {2 copy /cols xdef /rows xdef mul dup 3 mul string
  currentfile 
  3 index 0 eq {/ASCIIHexDecode filter}
  {/ASCII85Decode filter 3 index 2 eq {/RunLengthDecode filter} if }
  ifelse exch readstring pop
  dup 0 3 index getinterval /rbmap xdef
  dup 2 index dup getinterval /gbmap xdef
  1 index dup 2 mul exch getinterval /bbmap xdef pop pop}bdef
/it {gs np dtri aload pop moveto lineto lineto cp c
  cols rows 8 compute_transform 
  rbmap gbmap bbmap true 3 colorimage gr}bdef
/il {newpath moveto lineto stroke}bdef
currentdict end def
%%EndProlog

%%BeginSetup
MathWorks begin

0 cap

end
%%EndSetup

%%Page: 1 1
%%BeginPageSetup
%%PageBoundingBox:  -206   176   818   614
MathWorks begin
bpage
%%EndPageSetup

%%BeginObject: obj1
bplot

/dpi2point 12 def
portraitMode -2472 7368 csm

    0     0 12292  5256 rc
87 dict begin %Colortable dictionary
/c0 { 0.000000 0.000000 0.000000 sr} bdef
/c1 { 1.000000 1.000000 1.000000 sr} bdef
/c2 { 0.900000 0.000000 0.000000 sr} bdef
/c3 { 0.000000 0.820000 0.000000 sr} bdef
/c4 { 0.000000 0.000000 0.800000 sr} bdef
/c5 { 0.910000 0.820000 0.320000 sr} bdef
/c6 { 1.000000 0.260000 0.820000 sr} bdef
/c7 { 0.000000 0.820000 0.820000 sr} bdef
c0
1 j
1 sg
   0    0 12293 5257 rf
6 w
0 929 2623 0 0 -929 1598 1397 4 MP
PP
-2623 0 0 929 2623 0 0 -929 1598 1397 5 MP stroke
4 w
DO
SO
6 w
0 sg
1598  468 mt 4221  468 L
1598 1397 mt 4221 1397 L
4221 1397 mt 4221  468 L
1598 1397 mt 1598  468 L
1598 1397 mt 4221 1397 L
1598 1397 mt 1598  468 L
1598 1397 mt 1598 1383 L
1598  468 mt 1598  481 L
1598 1397 mt 1598 1370 L
1598  468 mt 1598  494 L
%%IncludeResource: font Helvetica
/Helvetica /WindowsLatin1Encoding 144 FMSR

1492 1609 mt 
(10) s
%%IncludeResource: font Helvetica
/Helvetica /WindowsLatin1Encoding 96 FMSR

1652 1520 mt 
(0) s
1755 1397 mt 1755 1383 L
1755  468 mt 1755  481 L
1848 1397 mt 1848 1383 L
1848  468 mt 1848  481 L
1913 1397 mt 1913 1383 L
1913  468 mt 1913  481 L
1964 1397 mt 1964 1383 L
1964  468 mt 1964  481 L
2006 1397 mt 2006 1383 L
2006  468 mt 2006  481 L
2041 1397 mt 2041 1383 L
2041  468 mt 2041  481 L
2071 1397 mt 2071 1383 L
2071  468 mt 2071  481 L
2098 1397 mt 2098 1383 L
2098  468 mt 2098  481 L
2122 1397 mt 2122 1383 L
2122  468 mt 2122  481 L
2122 1397 mt 2122 1370 L
2122  468 mt 2122  494 L
%%IncludeResource: font Helvetica
/Helvetica /WindowsLatin1Encoding 144 FMSR

2016 1609 mt 
(10) s
%%IncludeResource: font Helvetica
/Helvetica /WindowsLatin1Encoding 96 FMSR

2176 1520 mt 
(1) s
2280 1397 mt 2280 1383 L
2280  468 mt 2280  481 L
2372 1397 mt 2372 1383 L
2372  468 mt 2372  481 L
2438 1397 mt 2438 1383 L
2438  468 mt 2438  481 L
2489 1397 mt 2489 1383 L
2489  468 mt 2489  481 L
2530 1397 mt 2530 1383 L
2530  468 mt 2530  481 L
2565 1397 mt 2565 1383 L
2565  468 mt 2565  481 L
2596 1397 mt 2596 1383 L
2596  468 mt 2596  481 L
2623 1397 mt 2623 1383 L
2623  468 mt 2623  481 L
2647 1397 mt 2647 1383 L
2647  468 mt 2647  481 L
2647 1397 mt 2647 1370 L
2647  468 mt 2647  494 L
%%IncludeResource: font Helvetica
/Helvetica /WindowsLatin1Encoding 144 FMSR

2541 1609 mt 
(10) s
%%IncludeResource: font Helvetica
/Helvetica /WindowsLatin1Encoding 96 FMSR

2701 1520 mt 
(2) s
2805 1397 mt 2805 1383 L
2805  468 mt 2805  481 L
2897 1397 mt 2897 1383 L
2897  468 mt 2897  481 L
2963 1397 mt 2963 1383 L
2963  468 mt 2963  481 L
3013 1397 mt 3013 1383 L
3013  468 mt 3013  481 L
3055 1397 mt 3055 1383 L
3055  468 mt 3055  481 L
3090 1397 mt 3090 1383 L
3090  468 mt 3090  481 L
3120 1397 mt 3120 1383 L
3120  468 mt 3120  481 L
3147 1397 mt 3147 1383 L
3147  468 mt 3147  481 L
3171 1397 mt 3171 1383 L
3171  468 mt 3171  481 L
3171 1397 mt 3171 1370 L
3171  468 mt 3171  494 L
%%IncludeResource: font Helvetica
/Helvetica /WindowsLatin1Encoding 144 FMSR

3065 1609 mt 
(10) s
%%IncludeResource: font Helvetica
/Helvetica /WindowsLatin1Encoding 96 FMSR

3225 1520 mt 
(3) s
3329 1397 mt 3329 1383 L
3329  468 mt 3329  481 L
3422 1397 mt 3422 1383 L
3422  468 mt 3422  481 L
3487 1397 mt 3487 1383 L
3487  468 mt 3487  481 L
3538 1397 mt 3538 1383 L
3538  468 mt 3538  481 L
3580 1397 mt 3580 1383 L
3580  468 mt 3580  481 L
3615 1397 mt 3615 1383 L
3615  468 mt 3615  481 L
3645 1397 mt 3645 1383 L
3645  468 mt 3645  481 L
3672 1397 mt 3672 1383 L
3672  468 mt 3672  481 L
3696 1397 mt 3696 1383 L
3696  468 mt 3696  481 L
3696 1397 mt 3696 1370 L
3696  468 mt 3696  494 L
%%IncludeResource: font Helvetica
/Helvetica /WindowsLatin1Encoding 144 FMSR

3590 1609 mt 
(10) s
%%IncludeResource: font Helvetica
/Helvetica /WindowsLatin1Encoding 96 FMSR

3750 1520 mt 
(4) s
3854 1397 mt 3854 1383 L
3854  468 mt 3854  481 L
3946 1397 mt 3946 1383 L
3946  468 mt 3946  481 L
4012 1397 mt 4012 1383 L
4012  468 mt 4012  481 L
4063 1397 mt 4063 1383 L
4063  468 mt 4063  481 L
4104 1397 mt 4104 1383 L
4104  468 mt 4104  481 L
4139 1397 mt 4139 1383 L
4139  468 mt 4139  481 L
4170 1397 mt 4170 1383 L
4170  468 mt 4170  481 L
4196 1397 mt 4196 1383 L
4196  468 mt 4196  481 L
4221 1397 mt 4221 1383 L
4221  468 mt 4221  481 L
4221 1397 mt 4221 1370 L
4221  468 mt 4221  494 L
%%IncludeResource: font Helvetica
/Helvetica /WindowsLatin1Encoding 144 FMSR

4115 1609 mt 
(10) s
%%IncludeResource: font Helvetica
/Helvetica /WindowsLatin1Encoding 96 FMSR

4275 1520 mt 
(5) s
1598 1397 mt 1611 1397 L
4221 1397 mt 4207 1397 L
1598 1397 mt 1624 1397 L
4221 1397 mt 4194 1397 L
%%IncludeResource: font Helvetica
/Helvetica /WindowsLatin1Encoding 144 FMSR

1350 1450 mt 
(10) s
%%IncludeResource: font Helvetica
/Helvetica /WindowsLatin1Encoding 96 FMSR

1510 1361 mt 
(0) s
1598 1257 mt 1611 1257 L
4221 1257 mt 4207 1257 L
1598 1175 mt 1611 1175 L
4221 1175 mt 4207 1175 L
1598 1117 mt 1611 1117 L
4221 1117 mt 4207 1117 L
1598 1072 mt 1611 1072 L
4221 1072 mt 4207 1072 L
1598 1035 mt 1611 1035 L
4221 1035 mt 4207 1035 L
1598 1004 mt 1611 1004 L
4221 1004 mt 4207 1004 L
1598  977 mt 1611  977 L
4221  977 mt 4207  977 L
1598  953 mt 1611  953 L
4221  953 mt 4207  953 L
1598  932 mt 1611  932 L
4221  932 mt 4207  932 L
1598  932 mt 1624  932 L
4221  932 mt 4194  932 L
%%IncludeResource: font Helvetica
/Helvetica /WindowsLatin1Encoding 144 FMSR

1350  985 mt 
(10) s
%%IncludeResource: font Helvetica
/Helvetica /WindowsLatin1Encoding 96 FMSR

1510  896 mt 
(1) s
1598  792 mt 1611  792 L
4221  792 mt 4207  792 L
1598  710 mt 1611  710 L
4221  710 mt 4207  710 L
1598  652 mt 1611  652 L
4221  652 mt 4207  652 L
1598  607 mt 1611  607 L
4221  607 mt 4207  607 L
1598  571 mt 1611  571 L
4221  571 mt 4207  571 L
1598  539 mt 1611  539 L
4221  539 mt 4207  539 L
1598  513 mt 1611  513 L
4221  513 mt 4207  513 L
1598  489 mt 1611  489 L
4221  489 mt 4207  489 L
1598  468 mt 1611  468 L
4221  468 mt 4207  468 L
1598  468 mt 1624  468 L
4221  468 mt 4194  468 L
%%IncludeResource: font Helvetica
/Helvetica /WindowsLatin1Encoding 144 FMSR

1350  521 mt 
(10) s
%%IncludeResource: font Helvetica
/Helvetica /WindowsLatin1Encoding 96 FMSR

1510  432 mt 
(2) s
1598  468 mt 4221  468 L
1598 1397 mt 4221 1397 L
4221 1397 mt 4221  468 L
1598 1397 mt 1598  468 L
gs 1598 468 2624 930 rc
24 w
/c8 { 1.000000 0.000000 0.000000 sr} bdef
c8
158 -20 158 -21 158 -20 157 -31 158 -46 158 -30 158 -35 158 24 
158 102 56 43 3 2 2 2 2 2 3 2 2 2 2 2 
3 -5 2 -5 3 2 2 2 3 2 2 3 3 2 3 2 
2 3 3 -6 3 2 3 3 2 -6 3 3 3 2 3 3 
3 2 3 3 3 3 3 2 3 -5 3 2 3 3 4 3 
3 3 3 3 4 3 3 3 3 3 4 3 4 -6 3 3 
4 4 4 -6 4 3 3 4 4 3 4 4 5 -7 4 4 
4 4 4 4 5 4 4 4 5 4 5 4 4 4 5 4 
5 5 5 -6 6 5 5 4 5 5 6 -6 6 6 6 -7 
6 6 6 5 6 6 7 6 7 -7 7 7 7 6 8 -6 
7 7 8 7 9 7 8 -6 9 8 9 8 10 8 10 -6 
11 10 11 10 12 -6 12 -7 13 -8 14 -9 15 13 15 -9 
17 -43 18 -21 20 -28 22 20 24 21 27 24 30 27 35 31 
42 36 51 -13 65 -23 93 -58 99 -791 1656 1398 110 MP stroke
/c9 { 0.000000 1.000000 0.000000 sr} bdef
c9
142 126 158 118 158 114 158 140 56 50 3 2 2 2 2 2 
3 2 2 2 2 2 3 2 2 3 3 2 2 2 3 2 
2 3 3 2 3 2 2 3 3 2 3 2 3 3 2 2 
3 3 3 2 3 3 3 3 3 2 3 3 3 3 3 2 
3 3 3 3 4 3 3 3 3 3 4 3 3 3 3 3 
4 3 4 3 3 3 4 4 4 3 4 3 3 4 4 3 
4 4 5 3 4 4 4 4 4 4 5 4 4 4 5 4 
5 4 4 -10 5 5 5 4 5 4 6 5 5 5 5 5 
6 5 6 5 6 5 6 5 6 6 6 6 7 6 7 6 
7 6 7 6 8 7 7 7 8 7 9 7 8 -7 9 8 
9 -8 10 -9 10 9 11 -10 11 10 12 -11 12 -13 13 -15 
14 12 15 13 15 -17 17 -22 18 -29 20 -41 22 20 24 21 
27 24 30 27 35 31 42 36 51 -36 65 77 93 -58 102 -810 
1653 1398 105 MP stroke
/c10 { 0.000000 1.000000 1.000000 sr} bdef
c10
103 92 56 49 3 2 2 2 2 2 3 3 2 2 2 2 
3 2 2 2 3 2 2 3 3 2 2 2 3 2 3 3 
2 2 3 3 3 2 3 2 2 3 3 2 3 3 3 2 
3 3 3 3 3 2 3 3 3 3 3 3 3 2 4 3 
3 3 3 3 4 3 3 3 3 3 4 3 4 4 3 3 
4 3 4 3 4 4 3 3 4 4 4 3 5 4 4 4 
4 3 4 4 5 4 4 4 5 4 5 4 4 5 5 4 
5 4 5 5 6 5 5 4 5 5 6 5 6 5 6 6 
6 5 6 5 6 6 7 6 7 6 7 6 7 7 8 6 
7 7 8 7 9 7 8 8 9 8 9 8 10 9 10 9 
11 9 11 10 12 10 12 11 13 12 14 12 15 13 15 14 
17 15 18 16 20 18 22 19 24 21 27 24 30 -113 19 -538 
2022 1398 97 MP stroke
DA
/c11 { 0.000000 0.000000 1.000000 sr} bdef
c11
88 79 158 125 158 140 158 140 56 50 3 2 2 2 2 2 
3 2 2 2 2 2 3 3 2 2 3 2 2 2 3 2 
2 3 3 2 3 2 2 3 3 2 3 2 3 3 2 2 
3 3 3 2 3 3 3 3 3 2 3 3 3 3 3 2 
3 3 3 3 4 3 3 3 3 3 4 3 3 3 3 3 
4 3 4 3 3 3 4 4 4 3 4 3 3 4 4 3 
4 4 5 3 4 4 4 4 4 4 5 4 4 4 5 4 
5 4 4 23 5 5 5 4 5 -29 6 4 5 5 5 5 
6 -11 6 -13 6 -14 6 6 6 5 6 6 7 6 7 6 
7 6 7 6 8 -14 7 6 8 8 9 7 8 -43 9 8 
9 8 10 9 10 8 11 10 11 10 12 10 12 -20 13 -25 
14 12 15 13 15 14 17 34 18 16 20 -27 22 -39 24 -61 
27 24 30 8 35 31 42 37 51 -95 65 58 58 -709 1790 1398 104 MP stroke
gr

24 w
c11
DA
0 sg
%%IncludeResource: font Helvetica
/Helvetica /WindowsLatin1Encoding 144 FMSR

2640  354 mt 
(Chi) s
%%IncludeResource: font Helvetica
/Helvetica /WindowsLatin1Encoding 108 FMSR

2856  282 mt 
(2) s
%%IncludeResource: font Helvetica
/Helvetica /WindowsLatin1Encoding 144 FMSR

2916  354 mt 
( vs. ) s
1263 1385 mt  -90 rotate
(intersection %) s
90 rotate
2381 1770 mt 
(sorted list length) s
SO
6 w
1 sg
0 929 2623 0 0 -929 5050 1397 4 MP
PP
-2623 0 0 929 2623 0 0 -929 5050 1397 5 MP stroke
4 w
DO
SO
6 w
0 sg
5050  468 mt 7673  468 L
5050 1397 mt 7673 1397 L
7673 1397 mt 7673  468 L
5050 1397 mt 5050  468 L
5050 1397 mt 7673 1397 L
5050 1397 mt 5050  468 L
5050 1397 mt 5050 1383 L
5050  468 mt 5050  481 L
5050 1397 mt 5050 1370 L
5050  468 mt 5050  494 L
4944 1609 mt 
(10) s
%%IncludeResource: font Helvetica
/Helvetica /WindowsLatin1Encoding 96 FMSR

5104 1520 mt 
(0) s
5207 1397 mt 5207 1383 L
5207  468 mt 5207  481 L
5300 1397 mt 5300 1383 L
5300  468 mt 5300  481 L
5365 1397 mt 5365 1383 L
5365  468 mt 5365  481 L
5416 1397 mt 5416 1383 L
5416  468 mt 5416  481 L
5458 1397 mt 5458 1383 L
5458  468 mt 5458  481 L
5493 1397 mt 5493 1383 L
5493  468 mt 5493  481 L
5523 1397 mt 5523 1383 L
5523  468 mt 5523  481 L
5550 1397 mt 5550 1383 L
5550  468 mt 5550  481 L
5574 1397 mt 5574 1383 L
5574  468 mt 5574  481 L
5574 1397 mt 5574 1370 L
5574  468 mt 5574  494 L
%%IncludeResource: font Helvetica
/Helvetica /WindowsLatin1Encoding 144 FMSR

5468 1609 mt 
(10) s
%%IncludeResource: font Helvetica
/Helvetica /WindowsLatin1Encoding 96 FMSR

5628 1520 mt 
(1) s
5732 1397 mt 5732 1383 L
5732  468 mt 5732  481 L
5824 1397 mt 5824 1383 L
5824  468 mt 5824  481 L
5890 1397 mt 5890 1383 L
5890  468 mt 5890  481 L
5941 1397 mt 5941 1383 L
5941  468 mt 5941  481 L
5982 1397 mt 5982 1383 L
5982  468 mt 5982  481 L
6017 1397 mt 6017 1383 L
6017  468 mt 6017  481 L
6048 1397 mt 6048 1383 L
6048  468 mt 6048  481 L
6075 1397 mt 6075 1383 L
6075  468 mt 6075  481 L
6099 1397 mt 6099 1383 L
6099  468 mt 6099  481 L
6099 1397 mt 6099 1370 L
6099  468 mt 6099  494 L
%%IncludeResource: font Helvetica
/Helvetica /WindowsLatin1Encoding 144 FMSR

5993 1609 mt 
(10) s
%%IncludeResource: font Helvetica
/Helvetica /WindowsLatin1Encoding 96 FMSR

6153 1520 mt 
(2) s
6257 1397 mt 6257 1383 L
6257  468 mt 6257  481 L
6349 1397 mt 6349 1383 L
6349  468 mt 6349  481 L
6415 1397 mt 6415 1383 L
6415  468 mt 6415  481 L
6465 1397 mt 6465 1383 L
6465  468 mt 6465  481 L
6507 1397 mt 6507 1383 L
6507  468 mt 6507  481 L
6542 1397 mt 6542 1383 L
6542  468 mt 6542  481 L
6572 1397 mt 6572 1383 L
6572  468 mt 6572  481 L
6599 1397 mt 6599 1383 L
6599  468 mt 6599  481 L
6623 1397 mt 6623 1383 L
6623  468 mt 6623  481 L
6623 1397 mt 6623 1370 L
6623  468 mt 6623  494 L
%%IncludeResource: font Helvetica
/Helvetica /WindowsLatin1Encoding 144 FMSR

6517 1609 mt 
(10) s
%%IncludeResource: font Helvetica
/Helvetica /WindowsLatin1Encoding 96 FMSR

6677 1520 mt 
(3) s
6781 1397 mt 6781 1383 L
6781  468 mt 6781  481 L
6874 1397 mt 6874 1383 L
6874  468 mt 6874  481 L
6939 1397 mt 6939 1383 L
6939  468 mt 6939  481 L
6990 1397 mt 6990 1383 L
6990  468 mt 6990  481 L
7032 1397 mt 7032 1383 L
7032  468 mt 7032  481 L
7067 1397 mt 7067 1383 L
7067  468 mt 7067  481 L
7097 1397 mt 7097 1383 L
7097  468 mt 7097  481 L
7124 1397 mt 7124 1383 L
7124  468 mt 7124  481 L
7148 1397 mt 7148 1383 L
7148  468 mt 7148  481 L
7148 1397 mt 7148 1370 L
7148  468 mt 7148  494 L
%%IncludeResource: font Helvetica
/Helvetica /WindowsLatin1Encoding 144 FMSR

7042 1609 mt 
(10) s
%%IncludeResource: font Helvetica
/Helvetica /WindowsLatin1Encoding 96 FMSR

7202 1520 mt 
(4) s
7306 1397 mt 7306 1383 L
7306  468 mt 7306  481 L
7398 1397 mt 7398 1383 L
7398  468 mt 7398  481 L
7464 1397 mt 7464 1383 L
7464  468 mt 7464  481 L
7515 1397 mt 7515 1383 L
7515  468 mt 7515  481 L
7556 1397 mt 7556 1383 L
7556  468 mt 7556  481 L
7591 1397 mt 7591 1383 L
7591  468 mt 7591  481 L
7622 1397 mt 7622 1383 L
7622  468 mt 7622  481 L
7648 1397 mt 7648 1383 L
7648  468 mt 7648  481 L
7673 1397 mt 7673 1383 L
7673  468 mt 7673  481 L
7673 1397 mt 7673 1370 L
7673  468 mt 7673  494 L
%%IncludeResource: font Helvetica
/Helvetica /WindowsLatin1Encoding 144 FMSR

7567 1609 mt 
(10) s
%%IncludeResource: font Helvetica
/Helvetica /WindowsLatin1Encoding 96 FMSR

7727 1520 mt 
(5) s
5050 1397 mt 5063 1397 L
7673 1397 mt 7659 1397 L
5050 1397 mt 5076 1397 L
7673 1397 mt 7646 1397 L
%%IncludeResource: font Helvetica
/Helvetica /WindowsLatin1Encoding 144 FMSR

4802 1450 mt 
(10) s
%%IncludeResource: font Helvetica
/Helvetica /WindowsLatin1Encoding 96 FMSR

4962 1361 mt 
(0) s
5050 1257 mt 5063 1257 L
7673 1257 mt 7659 1257 L
5050 1175 mt 5063 1175 L
7673 1175 mt 7659 1175 L
5050 1117 mt 5063 1117 L
7673 1117 mt 7659 1117 L
5050 1072 mt 5063 1072 L
7673 1072 mt 7659 1072 L
5050 1035 mt 5063 1035 L
7673 1035 mt 7659 1035 L
5050 1004 mt 5063 1004 L
7673 1004 mt 7659 1004 L
5050  977 mt 5063  977 L
7673  977 mt 7659  977 L
5050  953 mt 5063  953 L
7673  953 mt 7659  953 L
5050  932 mt 5063  932 L
7673  932 mt 7659  932 L
5050  932 mt 5076  932 L
7673  932 mt 7646  932 L
%%IncludeResource: font Helvetica
/Helvetica /WindowsLatin1Encoding 144 FMSR

4802  985 mt 
(10) s
%%IncludeResource: font Helvetica
/Helvetica /WindowsLatin1Encoding 96 FMSR

4962  896 mt 
(1) s
5050  792 mt 5063  792 L
7673  792 mt 7659  792 L
5050  710 mt 5063  710 L
7673  710 mt 7659  710 L
5050  652 mt 5063  652 L
7673  652 mt 7659  652 L
5050  607 mt 5063  607 L
7673  607 mt 7659  607 L
5050  571 mt 5063  571 L
7673  571 mt 7659  571 L
5050  539 mt 5063  539 L
7673  539 mt 7659  539 L
5050  513 mt 5063  513 L
7673  513 mt 7659  513 L
5050  489 mt 5063  489 L
7673  489 mt 7659  489 L
5050  468 mt 5063  468 L
7673  468 mt 7659  468 L
5050  468 mt 5076  468 L
7673  468 mt 7646  468 L
%%IncludeResource: font Helvetica
/Helvetica /WindowsLatin1Encoding 144 FMSR

4802  521 mt 
(10) s
%%IncludeResource: font Helvetica
/Helvetica /WindowsLatin1Encoding 96 FMSR

4962  432 mt 
(2) s
5050  468 mt 7673  468 L
5050 1397 mt 7673 1397 L
7673 1397 mt 7673  468 L
5050 1397 mt 5050  468 L
gs 5050 468 2624 930 rc
24 w
c11
158 -20 158 -21 158 -20 157 -31 158 -46 158 -30 158 -35 158 24 
158 102 56 43 3 2 2 2 2 2 3 2 2 2 2 2 
3 -5 2 -5 3 2 2 2 3 2 2 3 3 2 3 2 
2 3 3 -6 3 2 3 3 2 -6 3 3 3 2 3 3 
3 2 3 3 3 3 3 2 3 -5 3 2 3 3 4 3 
3 3 3 3 4 3 3 3 3 3 4 3 4 -6 3 3 
4 4 4 -6 4 3 3 4 4 3 4 4 5 -7 4 4 
4 4 4 4 5 4 4 4 5 4 5 4 4 4 5 4 
5 5 5 -6 6 5 5 4 5 5 6 -6 6 6 6 -7 
6 6 6 5 6 6 7 6 7 -7 7 7 7 6 8 -6 
7 7 8 7 9 7 8 -6 9 8 9 8 10 8 10 -6 
11 10 11 10 12 -6 12 -7 13 -8 14 -9 15 13 15 -9 
17 -43 18 -21 20 -28 22 20 24 21 27 24 30 27 35 31 
42 36 51 -13 65 -23 93 -58 99 -791 5108 1398 110 MP stroke
c9
121 104 158 140 158 127 158 127 158 152 56 31 3 2 2 2 
2 2 3 2 2 2 2 2 3 2 2 3 3 2 2 2 
3 2 2 3 3 2 3 2 2 3 3 2 3 2 3 3 
2 2 3 3 3 2 3 3 3 3 3 2 3 3 3 3 
3 2 3 3 3 3 4 3 3 3 3 3 4 3 3 3 
3 3 4 3 4 3 3 3 4 3 4 4 4 3 3 4 
4 3 4 4 5 3 4 -3 4 -4 4 4 5 4 4 4 
5 4 5 4 4 -3 5 4 5 5 5 4 6 5 5 5 
5 5 6 5 6 5 6 -3 6 5 6 -2 6 5 7 6 
7 -2 7 6 7 6 8 7 7 -2 8 7 9 7 8 -2 
9 8 9 -12 10 -13 10 8 11 -2 11 -4 12 11 12 -3 
13 11 14 13 15 -2 15 -3 17 15 18 -1 20 -2 22 -2 
24 -2 27 -3 30 -5 35 -5 42 11 51 -13 65 38 93 0 
157 0 5050 468 106 MP stroke
c10
103 92 56 49 3 2 2 2 2 2 3 3 2 2 2 2 
3 2 2 2 3 2 2 3 3 2 2 2 3 2 3 3 
2 2 3 3 3 2 3 2 2 3 3 2 3 3 3 2 
3 3 3 3 3 2 3 3 3 3 3 3 3 2 4 3 
3 3 3 3 4 3 3 3 3 3 4 3 4 4 3 3 
4 3 4 3 4 4 3 3 4 4 4 3 5 4 4 4 
4 3 4 4 5 4 4 4 5 4 5 4 4 5 5 4 
5 4 5 5 6 5 5 4 5 5 6 5 6 5 6 -134 
6 5 6 6 6 5 7 6 2 -219 5851 1398 70 MP stroke
DA
c11
18 16 158 140 158 130 158 140 158 140 56 40 3 2 2 2 
2 2 3 2 2 2 2 2 3 2 2 3 3 2 2 2 
3 2 2 3 3 2 3 2 2 3 3 2 3 2 3 3 
2 2 3 3 3 2 3 3 3 3 3 2 3 3 3 3 
3 2 3 3 3 3 4 -8 3 3 3 3 4 3 3 3 
3 3 4 4 4 3 3 3 4 3 4 4 4 3 3 3 
4 4 4 3 5 4 4 4 4 4 4 3 5 4 4 -7 
5 -7 5 4 4 4 5 5 5 -8 5 -9 6 5 5 5 
5 5 6 -9 6 -10 6 -11 6 5 6 -12 6 6 7 6 
7 6 7 6 7 6 8 -12 7 7 8 7 9 7 8 -14 
9 8 9 9 10 8 10 -15 11 -17 11 10 12 -21 12 11 
13 11 14 13 15 13 15 14 17 34 18 -3 20 17 22 -17 
24 -82 27 -58 30 27 35 31 42 37 51 45 65 77 93 -58 
105 -810 5102 1398 106 MP stroke
gr

24 w
c11
DA
0 sg
%%IncludeResource: font Helvetica
/Helvetica /WindowsLatin1Encoding 144 FMSR

6138  354 mt 
(SS vs. ) s
4715 1385 mt  -90 rotate
(intersection %) s
90 rotate
5833 1770 mt 
(sorted list length) s
SO
6 w
1 sg
0 929 2623 0 0 -929 8501 1397 4 MP
PP
-2623 0 0 929 2623 0 0 -929 8501 1397 5 MP stroke
4 w
DO
SO
6 w
0 sg
8501  468 mt 11124  468 L
8501 1397 mt 11124 1397 L
11124 1397 mt 11124  468 L
8501 1397 mt 8501  468 L
8501 1397 mt 11124 1397 L
8501 1397 mt 8501  468 L
8501 1397 mt 8501 1383 L
8501  468 mt 8501  481 L
8501 1397 mt 8501 1370 L
8501  468 mt 8501  494 L
8395 1609 mt 
(10) s
%%IncludeResource: font Helvetica
/Helvetica /WindowsLatin1Encoding 96 FMSR

8555 1520 mt 
(0) s
8658 1397 mt 8658 1383 L
8658  468 mt 8658  481 L
8751 1397 mt 8751 1383 L
8751  468 mt 8751  481 L
8816 1397 mt 8816 1383 L
8816  468 mt 8816  481 L
8867 1397 mt 8867 1383 L
8867  468 mt 8867  481 L
8909 1397 mt 8909 1383 L
8909  468 mt 8909  481 L
8944 1397 mt 8944 1383 L
8944  468 mt 8944  481 L
8974 1397 mt 8974 1383 L
8974  468 mt 8974  481 L
9001 1397 mt 9001 1383 L
9001  468 mt 9001  481 L
9025 1397 mt 9025 1383 L
9025  468 mt 9025  481 L
9025 1397 mt 9025 1370 L
9025  468 mt 9025  494 L
%%IncludeResource: font Helvetica
/Helvetica /WindowsLatin1Encoding 144 FMSR

8919 1609 mt 
(10) s
%%IncludeResource: font Helvetica
/Helvetica /WindowsLatin1Encoding 96 FMSR

9079 1520 mt 
(1) s
9183 1397 mt 9183 1383 L
9183  468 mt 9183  481 L
9275 1397 mt 9275 1383 L
9275  468 mt 9275  481 L
9341 1397 mt 9341 1383 L
9341  468 mt 9341  481 L
9392 1397 mt 9392 1383 L
9392  468 mt 9392  481 L
9433 1397 mt 9433 1383 L
9433  468 mt 9433  481 L
9468 1397 mt 9468 1383 L
9468  468 mt 9468  481 L
9499 1397 mt 9499 1383 L
9499  468 mt 9499  481 L
9526 1397 mt 9526 1383 L
9526  468 mt 9526  481 L
9550 1397 mt 9550 1383 L
9550  468 mt 9550  481 L
9550 1397 mt 9550 1370 L
9550  468 mt 9550  494 L
%%IncludeResource: font Helvetica
/Helvetica /WindowsLatin1Encoding 144 FMSR

9444 1609 mt 
(10) s
%%IncludeResource: font Helvetica
/Helvetica /WindowsLatin1Encoding 96 FMSR

9604 1520 mt 
(2) s
9708 1397 mt 9708 1383 L
9708  468 mt 9708  481 L
9800 1397 mt 9800 1383 L
9800  468 mt 9800  481 L
9866 1397 mt 9866 1383 L
9866  468 mt 9866  481 L
9916 1397 mt 9916 1383 L
9916  468 mt 9916  481 L
9958 1397 mt 9958 1383 L
9958  468 mt 9958  481 L
9993 1397 mt 9993 1383 L
9993  468 mt 9993  481 L
10023 1397 mt 10023 1383 L
10023  468 mt 10023  481 L
10050 1397 mt 10050 1383 L
10050  468 mt 10050  481 L
10074 1397 mt 10074 1383 L
10074  468 mt 10074  481 L
10074 1397 mt 10074 1370 L
10074  468 mt 10074  494 L
%%IncludeResource: font Helvetica
/Helvetica /WindowsLatin1Encoding 144 FMSR

9968 1609 mt 
(10) s
%%IncludeResource: font Helvetica
/Helvetica /WindowsLatin1Encoding 96 FMSR

10128 1520 mt 
(3) s
10232 1397 mt 10232 1383 L
10232  468 mt 10232  481 L
10325 1397 mt 10325 1383 L
10325  468 mt 10325  481 L
10390 1397 mt 10390 1383 L
10390  468 mt 10390  481 L
10441 1397 mt 10441 1383 L
10441  468 mt 10441  481 L
10483 1397 mt 10483 1383 L
10483  468 mt 10483  481 L
10518 1397 mt 10518 1383 L
10518  468 mt 10518  481 L
10548 1397 mt 10548 1383 L
10548  468 mt 10548  481 L
10575 1397 mt 10575 1383 L
10575  468 mt 10575  481 L
10599 1397 mt 10599 1383 L
10599  468 mt 10599  481 L
10599 1397 mt 10599 1370 L
10599  468 mt 10599  494 L
%%IncludeResource: font Helvetica
/Helvetica /WindowsLatin1Encoding 144 FMSR

10493 1609 mt 
(10) s
%%IncludeResource: font Helvetica
/Helvetica /WindowsLatin1Encoding 96 FMSR

10653 1520 mt 
(4) s
10757 1397 mt 10757 1383 L
10757  468 mt 10757  481 L
10849 1397 mt 10849 1383 L
10849  468 mt 10849  481 L
10915 1397 mt 10915 1383 L
10915  468 mt 10915  481 L
10966 1397 mt 10966 1383 L
10966  468 mt 10966  481 L
11007 1397 mt 11007 1383 L
11007  468 mt 11007  481 L
11042 1397 mt 11042 1383 L
11042  468 mt 11042  481 L
11073 1397 mt 11073 1383 L
11073  468 mt 11073  481 L
11099 1397 mt 11099 1383 L
11099  468 mt 11099  481 L
11124 1397 mt 11124 1383 L
11124  468 mt 11124  481 L
11124 1397 mt 11124 1370 L
11124  468 mt 11124  494 L
%%IncludeResource: font Helvetica
/Helvetica /WindowsLatin1Encoding 144 FMSR

11018 1609 mt 
(10) s
%%IncludeResource: font Helvetica
/Helvetica /WindowsLatin1Encoding 96 FMSR

11178 1520 mt 
(5) s
8501 1397 mt 8514 1397 L
11124 1397 mt 11110 1397 L
8501 1397 mt 8527 1397 L
11124 1397 mt 11097 1397 L
%%IncludeResource: font Helvetica
/Helvetica /WindowsLatin1Encoding 144 FMSR

8253 1450 mt 
(10) s
%%IncludeResource: font Helvetica
/Helvetica /WindowsLatin1Encoding 96 FMSR

8413 1361 mt 
(0) s
8501 1257 mt 8514 1257 L
11124 1257 mt 11110 1257 L
8501 1175 mt 8514 1175 L
11124 1175 mt 11110 1175 L
8501 1117 mt 8514 1117 L
11124 1117 mt 11110 1117 L
8501 1072 mt 8514 1072 L
11124 1072 mt 11110 1072 L
8501 1035 mt 8514 1035 L
11124 1035 mt 11110 1035 L
8501 1004 mt 8514 1004 L
11124 1004 mt 11110 1004 L
8501  977 mt 8514  977 L
11124  977 mt 11110  977 L
8501  953 mt 8514  953 L
11124  953 mt 11110  953 L
8501  932 mt 8514  932 L
11124  932 mt 11110  932 L
8501  932 mt 8527  932 L
11124  932 mt 11097  932 L
%%IncludeResource: font Helvetica
/Helvetica /WindowsLatin1Encoding 144 FMSR

8253  985 mt 
(10) s
%%IncludeResource: font Helvetica
/Helvetica /WindowsLatin1Encoding 96 FMSR

8413  896 mt 
(1) s
8501  792 mt 8514  792 L
11124  792 mt 11110  792 L
8501  710 mt 8514  710 L
11124  710 mt 11110  710 L
8501  652 mt 8514  652 L
11124  652 mt 11110  652 L
8501  607 mt 8514  607 L
11124  607 mt 11110  607 L
8501  571 mt 8514  571 L
11124  571 mt 11110  571 L
8501  539 mt 8514  539 L
11124  539 mt 11110  539 L
8501  513 mt 8514  513 L
11124  513 mt 11110  513 L
8501  489 mt 8514  489 L
11124  489 mt 11110  489 L
8501  468 mt 8514  468 L
11124  468 mt 11110  468 L
8501  468 mt 8527  468 L
11124  468 mt 11097  468 L
%%IncludeResource: font Helvetica
/Helvetica /WindowsLatin1Encoding 144 FMSR

8253  521 mt 
(10) s
%%IncludeResource: font Helvetica
/Helvetica /WindowsLatin1Encoding 96 FMSR

8413  432 mt 
(2) s
8501  468 mt 11124  468 L
8501 1397 mt 11124 1397 L
11124 1397 mt 11124  468 L
8501 1397 mt 8501  468 L
gs 8501 468 2624 930 rc
24 w
c11
142 126 158 118 158 114 158 140 56 50 3 2 2 2 2 2 
3 2 2 2 2 2 3 2 2 3 3 2 2 2 3 2 
2 3 3 2 3 2 2 3 3 2 3 2 3 3 2 2 
3 3 3 2 3 3 3 3 3 2 3 3 3 3 3 2 
3 3 3 3 4 3 3 3 3 3 4 3 3 3 3 3 
4 3 4 3 3 3 4 4 4 3 4 3 3 4 4 3 
4 4 5 3 4 4 4 4 4 4 5 4 4 4 5 4 
5 4 4 -10 5 5 5 4 5 4 6 5 5 5 5 5 
6 5 6 5 6 5 6 5 6 6 6 6 7 6 7 6 
7 6 7 6 8 7 7 7 8 7 9 7 8 -7 9 8 
9 -8 10 -9 10 9 11 -10 11 10 12 -11 12 -13 13 -15 
14 12 15 13 15 -17 17 -22 18 -29 20 -41 22 20 24 21 
27 24 30 27 35 31 42 36 51 -36 65 58 93 -58 99 -791 
8559 1398 105 MP stroke
c8
121 104 158 140 158 127 158 127 158 133 56 50 3 2 2 2 
2 2 3 2 2 2 2 2 3 2 2 3 3 2 2 2 
3 2 2 3 3 2 3 2 2 3 3 2 3 2 3 3 
2 2 3 3 3 2 3 3 3 3 3 2 3 3 3 3 
3 2 3 3 3 3 4 3 3 3 3 3 4 3 3 3 
3 3 4 3 4 3 3 3 4 3 4 4 4 3 3 4 
4 3 4 4 5 3 4 -3 4 -4 4 4 5 4 4 4 
5 4 5 4 4 -3 5 4 5 5 5 4 6 5 5 5 
5 5 6 5 6 5 6 -3 6 5 6 -2 6 5 7 6 
7 -2 7 6 7 6 8 7 7 -2 8 7 9 7 8 -2 
9 8 9 -12 10 -13 10 8 11 -2 11 -4 12 11 12 -3 
13 11 14 13 15 -2 15 -3 17 15 18 -1 20 -2 22 -2 
24 -2 27 -3 30 -5 35 -5 42 -9 51 -13 65 58 93 0 
157 0 8501 468 106 MP stroke
c10
158 -21 158 -9 158 -6 157 4 158 10 158 0 158 6 158 -139 
158 81 56 50 3 2 2 2 2 2 3 2 2 2 2 3 
3 2 2 2 3 2 2 2 3 3 2 2 3 2 3 3 
2 2 3 2 3 3 3 2 2 -79 3 2 3 3 3 2 
3 3 3 3 3 2 3 3 3 3 3 3 3 2 4 3 
3 3 3 3 4 3 3 3 3 3 4 3 4 4 3 3 
4 3 4 3 4 4 3 3 4 4 4 3 5 4 4 4 
4 3 4 4 5 4 4 4 5 4 5 4 4 5 5 4 
5 4 5 5 6 5 5 4 5 5 6 5 6 5 6 6 
6 5 6 5 6 6 7 6 7 6 7 6 7 7 8 6 
7 7 8 7 9 7 8 8 9 8 9 8 10 9 10 9 
11 -131 11 10 5 -326 9178 1398 92 MP stroke
0 sg
158 -7 158 -9 158 -13 157 -11 158 -55 158 -13 158 -32 158 -320 
158 56 56 49 3 -99 2 2 2 2 3 3 2 2 2 2 
3 2 2 2 3 2 2 3 3 2 2 2 3 2 3 3 
2 2 3 3 3 2 3 2 2 22 3 3 3 2 3 3 
3 2 3 3 3 3 3 2 3 3 3 3 3 -156 4 2 
3 3 3 3 4 3 3 3 3 3 4 4 4 3 3 3 
4 3 4 4 4 3 3 3 4 4 4 3 5 4 4 4 
4 4 4 3 5 4 4 4 5 4 5 5 4 4 5 4 
5 5 2 -163 9366 1398 67 MP stroke
DA
c11
158 3 158 6 158 5 157 16 158 8 158 23 158 21 158 15 
158 55 56 -4 3 -1 2 2 2 2 3 -2 2 2 2 3 
3 2 2 2 3 -1 2 -2 3 -5 2 2 3 -1 3 2 
2 -2 3 3 3 2 3 -1 2 -2 3 3 3 2 3 3 
3 -2 3 3 3 -2 3 -6 3 -2 3 -6 3 -2 4 -2 
3 -3 3 -2 4 -2 3 3 3 3 4 -3 4 -2 3 -9 
4 -9 4 3 4 4 3 -3 4 15 4 -30 5 4 4 -4 
4 4 4 -4 5 4 4 -13 5 -14 5 4 4 4 5 4 
5 -5 5 -17 6 5 5 5 5 4 6 -6 6 -20 6 -24 
6 -11 6 6 6 6 7 5 7 6 7 -11 7 6 8 -12 
7 7 8 7 9 7 8 -14 9 8 9 -15 10 -18 10 8 
11 -21 11 10 12 10 12 11 13 11 14 13 15 13 15 33 
17 -4 18 16 20 17 22 -17 24 -24 27 -15 30 -74 35 31 
42 37 51 64 65 58 93 -58 105 -810 8553 1398 110 MP stroke
gr

24 w
c11
DA
0 sg
%%IncludeResource: font Helvetica
/Helvetica /WindowsLatin1Encoding 144 FMSR

9537  354 mt 
(DSS vs. ) s
8166 1385 mt  -90 rotate
(intersection %) s
90 rotate
9284 1770 mt 
(sorted list length) s
SO
6 w
1 sg
0 929 2623 0 0 -929 1598 2972 4 MP
PP
-2623 0 0 929 2623 0 0 -929 1598 2972 5 MP stroke
4 w
DO
SO
6 w
0 sg
1598 2043 mt 4221 2043 L
1598 2972 mt 4221 2972 L
4221 2972 mt 4221 2043 L
1598 2972 mt 1598 2043 L
1598 2972 mt 4221 2972 L
1598 2972 mt 1598 2043 L
1598 2972 mt 1598 2958 L
1598 2043 mt 1598 2056 L
1598 2972 mt 1598 2945 L
1598 2043 mt 1598 2069 L
1492 3184 mt 
(10) s
%%IncludeResource: font Helvetica
/Helvetica /WindowsLatin1Encoding 96 FMSR

1652 3095 mt 
(0) s
1755 2972 mt 1755 2958 L
1755 2043 mt 1755 2056 L
1848 2972 mt 1848 2958 L
1848 2043 mt 1848 2056 L
1913 2972 mt 1913 2958 L
1913 2043 mt 1913 2056 L
1964 2972 mt 1964 2958 L
1964 2043 mt 1964 2056 L
2006 2972 mt 2006 2958 L
2006 2043 mt 2006 2056 L
2041 2972 mt 2041 2958 L
2041 2043 mt 2041 2056 L
2071 2972 mt 2071 2958 L
2071 2043 mt 2071 2056 L
2098 2972 mt 2098 2958 L
2098 2043 mt 2098 2056 L
2122 2972 mt 2122 2958 L
2122 2043 mt 2122 2056 L
2122 2972 mt 2122 2945 L
2122 2043 mt 2122 2069 L
%%IncludeResource: font Helvetica
/Helvetica /WindowsLatin1Encoding 144 FMSR

2016 3184 mt 
(10) s
%%IncludeResource: font Helvetica
/Helvetica /WindowsLatin1Encoding 96 FMSR

2176 3095 mt 
(1) s
2280 2972 mt 2280 2958 L
2280 2043 mt 2280 2056 L
2372 2972 mt 2372 2958 L
2372 2043 mt 2372 2056 L
2438 2972 mt 2438 2958 L
2438 2043 mt 2438 2056 L
2489 2972 mt 2489 2958 L
2489 2043 mt 2489 2056 L
2530 2972 mt 2530 2958 L
2530 2043 mt 2530 2056 L
2565 2972 mt 2565 2958 L
2565 2043 mt 2565 2056 L
2596 2972 mt 2596 2958 L
2596 2043 mt 2596 2056 L
2623 2972 mt 2623 2958 L
2623 2043 mt 2623 2056 L
2647 2972 mt 2647 2958 L
2647 2043 mt 2647 2056 L
2647 2972 mt 2647 2945 L
2647 2043 mt 2647 2069 L
%%IncludeResource: font Helvetica
/Helvetica /WindowsLatin1Encoding 144 FMSR

2541 3184 mt 
(10) s
%%IncludeResource: font Helvetica
/Helvetica /WindowsLatin1Encoding 96 FMSR

2701 3095 mt 
(2) s
2805 2972 mt 2805 2958 L
2805 2043 mt 2805 2056 L
2897 2972 mt 2897 2958 L
2897 2043 mt 2897 2056 L
2963 2972 mt 2963 2958 L
2963 2043 mt 2963 2056 L
3013 2972 mt 3013 2958 L
3013 2043 mt 3013 2056 L
3055 2972 mt 3055 2958 L
3055 2043 mt 3055 2056 L
3090 2972 mt 3090 2958 L
3090 2043 mt 3090 2056 L
3120 2972 mt 3120 2958 L
3120 2043 mt 3120 2056 L
3147 2972 mt 3147 2958 L
3147 2043 mt 3147 2056 L
3171 2972 mt 3171 2958 L
3171 2043 mt 3171 2056 L
3171 2972 mt 3171 2945 L
3171 2043 mt 3171 2069 L
%%IncludeResource: font Helvetica
/Helvetica /WindowsLatin1Encoding 144 FMSR

3065 3184 mt 
(10) s
%%IncludeResource: font Helvetica
/Helvetica /WindowsLatin1Encoding 96 FMSR

3225 3095 mt 
(3) s
3329 2972 mt 3329 2958 L
3329 2043 mt 3329 2056 L
3422 2972 mt 3422 2958 L
3422 2043 mt 3422 2056 L
3487 2972 mt 3487 2958 L
3487 2043 mt 3487 2056 L
3538 2972 mt 3538 2958 L
3538 2043 mt 3538 2056 L
3580 2972 mt 3580 2958 L
3580 2043 mt 3580 2056 L
3615 2972 mt 3615 2958 L
3615 2043 mt 3615 2056 L
3645 2972 mt 3645 2958 L
3645 2043 mt 3645 2056 L
3672 2972 mt 3672 2958 L
3672 2043 mt 3672 2056 L
3696 2972 mt 3696 2958 L
3696 2043 mt 3696 2056 L
3696 2972 mt 3696 2945 L
3696 2043 mt 3696 2069 L
%%IncludeResource: font Helvetica
/Helvetica /WindowsLatin1Encoding 144 FMSR

3590 3184 mt 
(10) s
%%IncludeResource: font Helvetica
/Helvetica /WindowsLatin1Encoding 96 FMSR

3750 3095 mt 
(4) s
3854 2972 mt 3854 2958 L
3854 2043 mt 3854 2056 L
3946 2972 mt 3946 2958 L
3946 2043 mt 3946 2056 L
4012 2972 mt 4012 2958 L
4012 2043 mt 4012 2056 L
4063 2972 mt 4063 2958 L
4063 2043 mt 4063 2056 L
4104 2972 mt 4104 2958 L
4104 2043 mt 4104 2056 L
4139 2972 mt 4139 2958 L
4139 2043 mt 4139 2056 L
4170 2972 mt 4170 2958 L
4170 2043 mt 4170 2056 L
4196 2972 mt 4196 2958 L
4196 2043 mt 4196 2056 L
4221 2972 mt 4221 2958 L
4221 2043 mt 4221 2056 L
4221 2972 mt 4221 2945 L
4221 2043 mt 4221 2069 L
%%IncludeResource: font Helvetica
/Helvetica /WindowsLatin1Encoding 144 FMSR

4115 3184 mt 
(10) s
%%IncludeResource: font Helvetica
/Helvetica /WindowsLatin1Encoding 96 FMSR

4275 3095 mt 
(5) s
1598 2972 mt 1611 2972 L
4221 2972 mt 4207 2972 L
1598 2972 mt 1624 2972 L
4221 2972 mt 4194 2972 L
%%IncludeResource: font Helvetica
/Helvetica /WindowsLatin1Encoding 144 FMSR

1350 3025 mt 
(10) s
%%IncludeResource: font Helvetica
/Helvetica /WindowsLatin1Encoding 96 FMSR

1510 2936 mt 
(0) s
1598 2832 mt 1611 2832 L
4221 2832 mt 4207 2832 L
1598 2750 mt 1611 2750 L
4221 2750 mt 4207 2750 L
1598 2692 mt 1611 2692 L
4221 2692 mt 4207 2692 L
1598 2647 mt 1611 2647 L
4221 2647 mt 4207 2647 L
1598 2610 mt 1611 2610 L
4221 2610 mt 4207 2610 L
1598 2579 mt 1611 2579 L
4221 2579 mt 4207 2579 L
1598 2552 mt 1611 2552 L
4221 2552 mt 4207 2552 L
1598 2528 mt 1611 2528 L
4221 2528 mt 4207 2528 L
1598 2507 mt 1611 2507 L
4221 2507 mt 4207 2507 L
1598 2507 mt 1624 2507 L
4221 2507 mt 4194 2507 L
%%IncludeResource: font Helvetica
/Helvetica /WindowsLatin1Encoding 144 FMSR

1350 2560 mt 
(10) s
%%IncludeResource: font Helvetica
/Helvetica /WindowsLatin1Encoding 96 FMSR

1510 2471 mt 
(1) s
1598 2367 mt 1611 2367 L
4221 2367 mt 4207 2367 L
1598 2285 mt 1611 2285 L
4221 2285 mt 4207 2285 L
1598 2227 mt 1611 2227 L
4221 2227 mt 4207 2227 L
1598 2182 mt 1611 2182 L
4221 2182 mt 4207 2182 L
1598 2146 mt 1611 2146 L
4221 2146 mt 4207 2146 L
1598 2114 mt 1611 2114 L
4221 2114 mt 4207 2114 L
1598 2088 mt 1611 2088 L
4221 2088 mt 4207 2088 L
1598 2064 mt 1611 2064 L
4221 2064 mt 4207 2064 L
1598 2043 mt 1611 2043 L
4221 2043 mt 4207 2043 L
1598 2043 mt 1624 2043 L
4221 2043 mt 4194 2043 L
%%IncludeResource: font Helvetica
/Helvetica /WindowsLatin1Encoding 144 FMSR

1350 2096 mt 
(10) s
%%IncludeResource: font Helvetica
/Helvetica /WindowsLatin1Encoding 96 FMSR

1510 2007 mt 
(2) s
1598 2043 mt 4221 2043 L
1598 2972 mt 4221 2972 L
4221 2972 mt 4221 2043 L
1598 2972 mt 1598 2043 L
gs 1598 2043 2624 930 rc
24 w
c11
103 92 56 49 3 2 2 2 2 2 3 3 2 2 2 2 
3 2 2 2 3 2 2 3 3 2 2 2 3 2 3 3 
2 2 3 3 3 2 3 2 2 3 3 2 3 3 3 2 
3 3 3 3 3 2 3 3 3 3 3 3 3 2 4 3 
3 3 3 3 4 3 3 3 3 3 4 3 4 4 3 3 
4 3 4 3 4 4 3 3 4 4 4 3 5 4 4 4 
4 3 4 4 5 4 4 4 5 4 5 4 4 5 5 4 
5 4 5 5 6 5 5 4 5 5 6 5 6 5 6 6 
6 5 6 5 6 6 7 6 7 6 7 6 7 7 8 6 
7 7 8 7 9 7 8 8 9 8 9 8 10 9 10 9 
11 9 11 10 12 10 12 11 13 12 14 12 15 13 15 14 
17 15 18 16 20 18 22 19 24 21 27 24 30 -113 19 -538 
2022 2973 97 MP stroke
c8
124 111 56 50 3 2 2 2 2 2 3 2 2 2 2 2 
3 2 2 2 3 3 2 2 3 2 2 2 3 3 3 2 
2 2 3 3 3 2 3 3 2 2 3 3 3 2 3 3 
3 2 3 3 3 3 3 2 3 3 3 3 3 3 4 3 
3 2 3 3 4 3 3 3 3 3 4 4 4 3 3 3 
4 3 4 4 4 3 3 3 4 4 4 4 5 3 4 4 
4 4 4 3 5 4 4 4 5 4 5 5 4 4 5 4 
5 5 5 4 6 5 5 5 5 4 6 5 6 6 6 -154 
6 5 6 6 6 5 7 6 2 -219 2399 2973 70 MP stroke
c9
158 -21 158 -9 158 -6 157 4 158 10 158 0 158 6 158 -139 
158 81 56 50 3 2 2 2 2 2 3 2 2 2 2 3 
3 2 2 2 3 2 2 2 3 3 2 2 3 2 3 3 
2 2 3 2 3 3 3 2 2 -41 3 3 3 2 3 3 
3 3 3 2 3 3 3 3 3 2 3 3 3 3 4 3 
3 3 3 3 4 3 3 3 3 3 4 3 4 3 3 3 
4 3 4 4 4 3 3 4 4 3 4 4 5 3 4 4 
4 4 4 4 5 4 4 4 5 4 5 4 4 4 5 4 
5 5 5 4 6 5 5 5 5 5 6 5 6 5 6 -14 
6 5 6 6 6 5 7 6 7 6 7 6 7 7 8 6 
7 7 8 7 9 8 8 7 9 8 9 8 10 9 10 9 
11 -150 11 10 5 -326 2275 2973 92 MP stroke
0 sg
158 -10 158 -8 158 -15 157 10 158 5 158 -19 158 -15 158 6 
158 -12 56 -45 3 2 2 2 2 2 3 2 2 3 2 2 
3 2 2 2 3 2 2 -43 3 3 2 2 3 2 3 3 
2 2 3 2 3 3 3 2 2 3 3 2 3 3 3 2 
3 3 3 3 3 2 3 3 3 3 3 2 3 3 4 3 
3 3 3 3 4 3 3 3 3 3 4 3 4 3 3 4 
4 3 4 3 4 4 3 3 4 4 4 3 5 4 4 -55 
4 -20 4 4 5 4 4 4 5 4 5 -193 4 4 5 4 
5 5 5 4 6 5 5 5 5 4 6 5 6 5 2 -191 
2430 2973 73 MP stroke
DA
c11
158 -18 158 -19 158 -4 157 -5 158 21 158 3 158 -6 158 -21 
158 51 56 -32 3 2 2 -16 2 3 3 2 2 2 2 2 
3 2 2 -62 3 -37 2 3 3 2 2 2 3 2 3 3 
2 2 3 3 3 2 3 2 2 -16 3 2 3 3 3 2 
3 3 3 2 3 3 3 3 3 3 3 2 3 3 4 3 
3 3 3 3 4 3 3 3 3 3 4 3 4 3 3 4 
4 3 4 3 4 4 3 3 4 4 4 3 5 4 4 23 
4 -16 4 4 5 4 4 4 5 4 5 4 4 4 5 5 
5 4 5 5 6 4 5 5 5 5 6 -19 6 -173 6 5 
6 5 6 6 6 6 7 5 7 -13 7 6 7 7 8 6 
7 7 8 7 9 8 8 7 9 8 9 8 10 9 10 9 
11 29 11 9 12 -8 12 10 13 12 14 12 15 13 15 14 
17 15 18 16 20 18 22 19 24 21 27 24 30 46 35 12 
42 37 51 45 65 58 60 -709 1788 2973 109 MP stroke
gr

24 w
c11
DA
0 sg
%%IncludeResource: font Helvetica
/Helvetica /WindowsLatin1Encoding 144 FMSR

2404 1929 mt 
(plink fastepi vs. ) s
1263 2960 mt  -90 rotate
(intersection %) s
90 rotate
2381 3345 mt 
(sorted list length) s
SO
6 w
1 sg
0 929 2623 0 0 -929 5050 2972 4 MP
PP
-2623 0 0 929 2623 0 0 -929 5050 2972 5 MP stroke
4 w
DO
SO
6 w
0 sg
5050 2043 mt 7673 2043 L
5050 2972 mt 7673 2972 L
7673 2972 mt 7673 2043 L
5050 2972 mt 5050 2043 L
5050 2972 mt 7673 2972 L
5050 2972 mt 5050 2043 L
5050 2972 mt 5050 2958 L
5050 2043 mt 5050 2056 L
5050 2972 mt 5050 2945 L
5050 2043 mt 5050 2069 L
4944 3184 mt 
(10) s
%%IncludeResource: font Helvetica
/Helvetica /WindowsLatin1Encoding 96 FMSR

5104 3095 mt 
(0) s
5207 2972 mt 5207 2958 L
5207 2043 mt 5207 2056 L
5300 2972 mt 5300 2958 L
5300 2043 mt 5300 2056 L
5365 2972 mt 5365 2958 L
5365 2043 mt 5365 2056 L
5416 2972 mt 5416 2958 L
5416 2043 mt 5416 2056 L
5458 2972 mt 5458 2958 L
5458 2043 mt 5458 2056 L
5493 2972 mt 5493 2958 L
5493 2043 mt 5493 2056 L
5523 2972 mt 5523 2958 L
5523 2043 mt 5523 2056 L
5550 2972 mt 5550 2958 L
5550 2043 mt 5550 2056 L
5574 2972 mt 5574 2958 L
5574 2043 mt 5574 2056 L
5574 2972 mt 5574 2945 L
5574 2043 mt 5574 2069 L
%%IncludeResource: font Helvetica
/Helvetica /WindowsLatin1Encoding 144 FMSR

5468 3184 mt 
(10) s
%%IncludeResource: font Helvetica
/Helvetica /WindowsLatin1Encoding 96 FMSR

5628 3095 mt 
(1) s
5732 2972 mt 5732 2958 L
5732 2043 mt 5732 2056 L
5824 2972 mt 5824 2958 L
5824 2043 mt 5824 2056 L
5890 2972 mt 5890 2958 L
5890 2043 mt 5890 2056 L
5941 2972 mt 5941 2958 L
5941 2043 mt 5941 2056 L
5982 2972 mt 5982 2958 L
5982 2043 mt 5982 2056 L
6017 2972 mt 6017 2958 L
6017 2043 mt 6017 2056 L
6048 2972 mt 6048 2958 L
6048 2043 mt 6048 2056 L
6075 2972 mt 6075 2958 L
6075 2043 mt 6075 2056 L
6099 2972 mt 6099 2958 L
6099 2043 mt 6099 2056 L
6099 2972 mt 6099 2945 L
6099 2043 mt 6099 2069 L
%%IncludeResource: font Helvetica
/Helvetica /WindowsLatin1Encoding 144 FMSR

5993 3184 mt 
(10) s
%%IncludeResource: font Helvetica
/Helvetica /WindowsLatin1Encoding 96 FMSR

6153 3095 mt 
(2) s
6257 2972 mt 6257 2958 L
6257 2043 mt 6257 2056 L
6349 2972 mt 6349 2958 L
6349 2043 mt 6349 2056 L
6415 2972 mt 6415 2958 L
6415 2043 mt 6415 2056 L
6465 2972 mt 6465 2958 L
6465 2043 mt 6465 2056 L
6507 2972 mt 6507 2958 L
6507 2043 mt 6507 2056 L
6542 2972 mt 6542 2958 L
6542 2043 mt 6542 2056 L
6572 2972 mt 6572 2958 L
6572 2043 mt 6572 2056 L
6599 2972 mt 6599 2958 L
6599 2043 mt 6599 2056 L
6623 2972 mt 6623 2958 L
6623 2043 mt 6623 2056 L
6623 2972 mt 6623 2945 L
6623 2043 mt 6623 2069 L
%%IncludeResource: font Helvetica
/Helvetica /WindowsLatin1Encoding 144 FMSR

6517 3184 mt 
(10) s
%%IncludeResource: font Helvetica
/Helvetica /WindowsLatin1Encoding 96 FMSR

6677 3095 mt 
(3) s
6781 2972 mt 6781 2958 L
6781 2043 mt 6781 2056 L
6874 2972 mt 6874 2958 L
6874 2043 mt 6874 2056 L
6939 2972 mt 6939 2958 L
6939 2043 mt 6939 2056 L
6990 2972 mt 6990 2958 L
6990 2043 mt 6990 2056 L
7032 2972 mt 7032 2958 L
7032 2043 mt 7032 2056 L
7067 2972 mt 7067 2958 L
7067 2043 mt 7067 2056 L
7097 2972 mt 7097 2958 L
7097 2043 mt 7097 2056 L
7124 2972 mt 7124 2958 L
7124 2043 mt 7124 2056 L
7148 2972 mt 7148 2958 L
7148 2043 mt 7148 2056 L
7148 2972 mt 7148 2945 L
7148 2043 mt 7148 2069 L
%%IncludeResource: font Helvetica
/Helvetica /WindowsLatin1Encoding 144 FMSR

7042 3184 mt 
(10) s
%%IncludeResource: font Helvetica
/Helvetica /WindowsLatin1Encoding 96 FMSR

7202 3095 mt 
(4) s
7306 2972 mt 7306 2958 L
7306 2043 mt 7306 2056 L
7398 2972 mt 7398 2958 L
7398 2043 mt 7398 2056 L
7464 2972 mt 7464 2958 L
7464 2043 mt 7464 2056 L
7515 2972 mt 7515 2958 L
7515 2043 mt 7515 2056 L
7556 2972 mt 7556 2958 L
7556 2043 mt 7556 2056 L
7591 2972 mt 7591 2958 L
7591 2043 mt 7591 2056 L
7622 2972 mt 7622 2958 L
7622 2043 mt 7622 2056 L
7648 2972 mt 7648 2958 L
7648 2043 mt 7648 2056 L
7673 2972 mt 7673 2958 L
7673 2043 mt 7673 2056 L
7673 2972 mt 7673 2945 L
7673 2043 mt 7673 2069 L
%%IncludeResource: font Helvetica
/Helvetica /WindowsLatin1Encoding 144 FMSR

7567 3184 mt 
(10) s
%%IncludeResource: font Helvetica
/Helvetica /WindowsLatin1Encoding 96 FMSR

7727 3095 mt 
(5) s
5050 2972 mt 5063 2972 L
7673 2972 mt 7659 2972 L
5050 2972 mt 5076 2972 L
7673 2972 mt 7646 2972 L
%%IncludeResource: font Helvetica
/Helvetica /WindowsLatin1Encoding 144 FMSR

4802 3025 mt 
(10) s
%%IncludeResource: font Helvetica
/Helvetica /WindowsLatin1Encoding 96 FMSR

4962 2936 mt 
(0) s
5050 2832 mt 5063 2832 L
7673 2832 mt 7659 2832 L
5050 2750 mt 5063 2750 L
7673 2750 mt 7659 2750 L
5050 2692 mt 5063 2692 L
7673 2692 mt 7659 2692 L
5050 2647 mt 5063 2647 L
7673 2647 mt 7659 2647 L
5050 2610 mt 5063 2610 L
7673 2610 mt 7659 2610 L
5050 2579 mt 5063 2579 L
7673 2579 mt 7659 2579 L
5050 2552 mt 5063 2552 L
7673 2552 mt 7659 2552 L
5050 2528 mt 5063 2528 L
7673 2528 mt 7659 2528 L
5050 2507 mt 5063 2507 L
7673 2507 mt 7659 2507 L
5050 2507 mt 5076 2507 L
7673 2507 mt 7646 2507 L
%%IncludeResource: font Helvetica
/Helvetica /WindowsLatin1Encoding 144 FMSR

4802 2560 mt 
(10) s
%%IncludeResource: font Helvetica
/Helvetica /WindowsLatin1Encoding 96 FMSR

4962 2471 mt 
(1) s
5050 2367 mt 5063 2367 L
7673 2367 mt 7659 2367 L
5050 2285 mt 5063 2285 L
7673 2285 mt 7659 2285 L
5050 2227 mt 5063 2227 L
7673 2227 mt 7659 2227 L
5050 2182 mt 5063 2182 L
7673 2182 mt 7659 2182 L
5050 2146 mt 5063 2146 L
7673 2146 mt 7659 2146 L
5050 2114 mt 5063 2114 L
7673 2114 mt 7659 2114 L
5050 2088 mt 5063 2088 L
7673 2088 mt 7659 2088 L
5050 2064 mt 5063 2064 L
7673 2064 mt 7659 2064 L
5050 2043 mt 5063 2043 L
7673 2043 mt 7659 2043 L
5050 2043 mt 5076 2043 L
7673 2043 mt 7646 2043 L
%%IncludeResource: font Helvetica
/Helvetica /WindowsLatin1Encoding 144 FMSR

4802 2096 mt 
(10) s
%%IncludeResource: font Helvetica
/Helvetica /WindowsLatin1Encoding 96 FMSR

4962 2007 mt 
(2) s
5050 2043 mt 7673 2043 L
5050 2972 mt 7673 2972 L
7673 2972 mt 7673 2043 L
5050 2972 mt 5050 2043 L
gs 5050 2043 2624 930 rc
24 w
c9
158 -7 158 -9 158 -13 157 -11 158 -55 158 -13 158 -32 158 -320 
158 36 56 50 3 -80 2 2 2 2 3 3 2 2 2 2 
3 2 2 2 3 2 2 3 3 2 2 2 3 2 3 3 
2 2 3 3 3 2 3 2 2 3 3 2 3 3 3 2 
3 3 3 3 3 2 3 3 3 3 3 3 3 -137 4 2 
3 3 3 3 4 3 3 3 3 3 4 4 4 3 3 3 
4 3 4 4 4 3 3 3 4 4 4 3 5 4 4 4 
4 4 4 3 5 4 4 4 5 4 5 5 4 4 5 4 
5 5 2 -163 5915 2973 67 MP stroke
c10
158 -10 158 -8 158 -15 157 10 158 5 158 -19 158 -15 158 6 
158 -12 56 -45 3 2 2 2 2 2 3 2 2 3 2 2 
3 2 2 2 3 2 2 -43 3 3 2 2 3 2 3 3 
2 2 3 2 3 3 3 2 2 3 3 2 3 3 3 2 
3 3 3 3 3 2 3 3 3 3 3 2 3 3 4 3 
3 3 3 3 4 3 3 3 3 3 4 3 4 3 3 4 
4 3 4 3 4 4 3 3 4 4 4 3 5 4 4 -55 
4 -78 4 4 5 4 4 4 5 4 5 -116 4 4 5 4 
5 5 5 -15 6 5 5 5 5 4 6 5 6 5 2 -191 
5882 2973 73 MP stroke
DA
c11
158 -7 158 -8 158 -10 157 -2 158 -12 158 -15 158 -27 158 -24 
158 -25 56 -61 3 2 2 -17 2 2 3 2 2 2 2 2 
3 3 2 -19 3 -22 2 -25 3 3 2 2 3 2 3 -29 
2 3 3 -35 3 3 3 2 2 3 3 -24 3 3 3 3 
3 2 3 3 3 2 3 3 3 3 3 3 3 2 4 3 
3 3 3 3 4 3 3 3 3 3 4 3 4 4 3 3 
4 3 4 3 4 4 3 -74 4 4 4 3 5 4 4 23 
4 -16 4 4 5 4 4 4 5 4 5 4 4 4 5 5 
5 4 5 5 6 4 5 5 5 5 6 5 6 5 6 5 
6 6 6 5 6 6 7 6 7 6 7 6 7 -75 8 6 
7 7 8 7 9 -132 8 7 4 -273 5788 2973 86 MP stroke
gr

24 w
c11
DA
0 sg
%%IncludeResource: font Helvetica
/Helvetica /WindowsLatin1Encoding 144 FMSR

5932 1929 mt 
(Info. Gain vs. ) s
4715 2960 mt  -90 rotate
(intersection %) s
90 rotate
5833 3345 mt 
(sorted list length) s
SO
6 w
1 sg
0 929 2623 0 0 -929 8501 2972 4 MP
PP
-2623 0 0 929 2623 0 0 -929 8501 2972 5 MP stroke
4 w
DO
SO
6 w
0 sg
8501 2043 mt 11124 2043 L
8501 2972 mt 11124 2972 L
11124 2972 mt 11124 2043 L
8501 2972 mt 8501 2043 L
8501 2972 mt 11124 2972 L
8501 2972 mt 8501 2043 L
8501 2972 mt 8501 2958 L
8501 2043 mt 8501 2056 L
8501 2972 mt 8501 2945 L
8501 2043 mt 8501 2069 L
8395 3184 mt 
(10) s
%%IncludeResource: font Helvetica
/Helvetica /WindowsLatin1Encoding 96 FMSR

8555 3095 mt 
(0) s
8658 2972 mt 8658 2958 L
8658 2043 mt 8658 2056 L
8751 2972 mt 8751 2958 L
8751 2043 mt 8751 2056 L
8816 2972 mt 8816 2958 L
8816 2043 mt 8816 2056 L
8867 2972 mt 8867 2958 L
8867 2043 mt 8867 2056 L
8909 2972 mt 8909 2958 L
8909 2043 mt 8909 2056 L
8944 2972 mt 8944 2958 L
8944 2043 mt 8944 2056 L
8974 2972 mt 8974 2958 L
8974 2043 mt 8974 2056 L
9001 2972 mt 9001 2958 L
9001 2043 mt 9001 2056 L
9025 2972 mt 9025 2958 L
9025 2043 mt 9025 2056 L
9025 2972 mt 9025 2945 L
9025 2043 mt 9025 2069 L
%%IncludeResource: font Helvetica
/Helvetica /WindowsLatin1Encoding 144 FMSR

8919 3184 mt 
(10) s
%%IncludeResource: font Helvetica
/Helvetica /WindowsLatin1Encoding 96 FMSR

9079 3095 mt 
(1) s
9183 2972 mt 9183 2958 L
9183 2043 mt 9183 2056 L
9275 2972 mt 9275 2958 L
9275 2043 mt 9275 2056 L
9341 2972 mt 9341 2958 L
9341 2043 mt 9341 2056 L
9392 2972 mt 9392 2958 L
9392 2043 mt 9392 2056 L
9433 2972 mt 9433 2958 L
9433 2043 mt 9433 2056 L
9468 2972 mt 9468 2958 L
9468 2043 mt 9468 2056 L
9499 2972 mt 9499 2958 L
9499 2043 mt 9499 2056 L
9526 2972 mt 9526 2958 L
9526 2043 mt 9526 2056 L
9550 2972 mt 9550 2958 L
9550 2043 mt 9550 2056 L
9550 2972 mt 9550 2945 L
9550 2043 mt 9550 2069 L
%%IncludeResource: font Helvetica
/Helvetica /WindowsLatin1Encoding 144 FMSR

9444 3184 mt 
(10) s
%%IncludeResource: font Helvetica
/Helvetica /WindowsLatin1Encoding 96 FMSR

9604 3095 mt 
(2) s
9708 2972 mt 9708 2958 L
9708 2043 mt 9708 2056 L
9800 2972 mt 9800 2958 L
9800 2043 mt 9800 2056 L
9866 2972 mt 9866 2958 L
9866 2043 mt 9866 2056 L
9916 2972 mt 9916 2958 L
9916 2043 mt 9916 2056 L
9958 2972 mt 9958 2958 L
9958 2043 mt 9958 2056 L
9993 2972 mt 9993 2958 L
9993 2043 mt 9993 2056 L
10023 2972 mt 10023 2958 L
10023 2043 mt 10023 2056 L
10050 2972 mt 10050 2958 L
10050 2043 mt 10050 2056 L
10074 2972 mt 10074 2958 L
10074 2043 mt 10074 2056 L
10074 2972 mt 10074 2945 L
10074 2043 mt 10074 2069 L
%%IncludeResource: font Helvetica
/Helvetica /WindowsLatin1Encoding 144 FMSR

9968 3184 mt 
(10) s
%%IncludeResource: font Helvetica
/Helvetica /WindowsLatin1Encoding 96 FMSR

10128 3095 mt 
(3) s
10232 2972 mt 10232 2958 L
10232 2043 mt 10232 2056 L
10325 2972 mt 10325 2958 L
10325 2043 mt 10325 2056 L
10390 2972 mt 10390 2958 L
10390 2043 mt 10390 2056 L
10441 2972 mt 10441 2958 L
10441 2043 mt 10441 2056 L
10483 2972 mt 10483 2958 L
10483 2043 mt 10483 2056 L
10518 2972 mt 10518 2958 L
10518 2043 mt 10518 2056 L
10548 2972 mt 10548 2958 L
10548 2043 mt 10548 2056 L
10575 2972 mt 10575 2958 L
10575 2043 mt 10575 2056 L
10599 2972 mt 10599 2958 L
10599 2043 mt 10599 2056 L
10599 2972 mt 10599 2945 L
10599 2043 mt 10599 2069 L
%%IncludeResource: font Helvetica
/Helvetica /WindowsLatin1Encoding 144 FMSR

10493 3184 mt 
(10) s
%%IncludeResource: font Helvetica
/Helvetica /WindowsLatin1Encoding 96 FMSR

10653 3095 mt 
(4) s
10757 2972 mt 10757 2958 L
10757 2043 mt 10757 2056 L
10849 2972 mt 10849 2958 L
10849 2043 mt 10849 2056 L
10915 2972 mt 10915 2958 L
10915 2043 mt 10915 2056 L
10966 2972 mt 10966 2958 L
10966 2043 mt 10966 2056 L
11007 2972 mt 11007 2958 L
11007 2043 mt 11007 2056 L
11042 2972 mt 11042 2958 L
11042 2043 mt 11042 2056 L
11073 2972 mt 11073 2958 L
11073 2043 mt 11073 2056 L
11099 2972 mt 11099 2958 L
11099 2043 mt 11099 2056 L
11124 2972 mt 11124 2958 L
11124 2043 mt 11124 2056 L
11124 2972 mt 11124 2945 L
11124 2043 mt 11124 2069 L
%%IncludeResource: font Helvetica
/Helvetica /WindowsLatin1Encoding 144 FMSR

11018 3184 mt 
(10) s
%%IncludeResource: font Helvetica
/Helvetica /WindowsLatin1Encoding 96 FMSR

11178 3095 mt 
(5) s
8501 2972 mt 8514 2972 L
11124 2972 mt 11110 2972 L
8501 2972 mt 8527 2972 L
11124 2972 mt 11097 2972 L
%%IncludeResource: font Helvetica
/Helvetica /WindowsLatin1Encoding 144 FMSR

8253 3025 mt 
(10) s
%%IncludeResource: font Helvetica
/Helvetica /WindowsLatin1Encoding 96 FMSR

8413 2936 mt 
(0) s
8501 2832 mt 8514 2832 L
11124 2832 mt 11110 2832 L
8501 2750 mt 8514 2750 L
11124 2750 mt 11110 2750 L
8501 2692 mt 8514 2692 L
11124 2692 mt 11110 2692 L
8501 2647 mt 8514 2647 L
11124 2647 mt 11110 2647 L
8501 2610 mt 8514 2610 L
11124 2610 mt 11110 2610 L
8501 2579 mt 8514 2579 L
11124 2579 mt 11110 2579 L
8501 2552 mt 8514 2552 L
11124 2552 mt 11110 2552 L
8501 2528 mt 8514 2528 L
11124 2528 mt 11110 2528 L
8501 2507 mt 8514 2507 L
11124 2507 mt 11110 2507 L
8501 2507 mt 8527 2507 L
11124 2507 mt 11097 2507 L
%%IncludeResource: font Helvetica
/Helvetica /WindowsLatin1Encoding 144 FMSR

8253 2560 mt 
(10) s
%%IncludeResource: font Helvetica
/Helvetica /WindowsLatin1Encoding 96 FMSR

8413 2471 mt 
(1) s
8501 2367 mt 8514 2367 L
11124 2367 mt 11110 2367 L
8501 2285 mt 8514 2285 L
11124 2285 mt 11110 2285 L
8501 2227 mt 8514 2227 L
11124 2227 mt 11110 2227 L
8501 2182 mt 8514 2182 L
11124 2182 mt 11110 2182 L
8501 2146 mt 8514 2146 L
11124 2146 mt 11110 2146 L
8501 2114 mt 8514 2114 L
11124 2114 mt 11110 2114 L
8501 2088 mt 8514 2088 L
11124 2088 mt 11110 2088 L
8501 2064 mt 8514 2064 L
11124 2064 mt 11110 2064 L
8501 2043 mt 8514 2043 L
11124 2043 mt 11110 2043 L
8501 2043 mt 8527 2043 L
11124 2043 mt 11097 2043 L
%%IncludeResource: font Helvetica
/Helvetica /WindowsLatin1Encoding 144 FMSR

8253 2096 mt 
(10) s
%%IncludeResource: font Helvetica
/Helvetica /WindowsLatin1Encoding 96 FMSR

8413 2007 mt 
(2) s
8501 2043 mt 11124 2043 L
8501 2972 mt 11124 2972 L
11124 2972 mt 11124 2043 L
8501 2972 mt 8501 2043 L
gs 8501 2043 2624 930 rc
24 w
c11
88 79 158 125 158 140 158 140 56 50 3 2 2 2 2 2 
3 2 2 2 2 2 3 3 2 2 3 2 2 2 3 2 
2 3 3 2 3 2 2 3 3 2 3 2 3 3 2 2 
3 3 3 2 3 3 3 3 3 2 3 3 3 3 3 2 
3 3 3 3 4 3 3 3 3 3 4 3 3 3 3 3 
4 3 4 3 3 3 4 4 4 3 4 3 3 4 4 3 
4 4 5 3 4 4 4 4 4 4 5 4 4 4 5 4 
5 4 4 4 5 5 5 4 5 -10 6 4 5 5 5 5 
6 -11 6 -13 6 -14 6 6 6 5 6 6 7 6 7 6 
7 6 7 6 8 -14 7 6 8 8 9 7 8 -43 9 8 
9 8 10 9 10 8 11 10 11 10 12 10 12 -20 13 -25 
14 12 15 13 15 14 17 15 18 16 20 -28 22 -38 24 -61 
27 24 30 27 35 31 42 37 51 -95 65 58 56 -709 8695 2973 104 MP stroke
c8
18 16 158 140 158 130 158 140 158 140 56 40 3 2 2 2 
2 2 3 2 2 2 2 2 3 2 2 3 3 2 2 2 
3 2 2 3 3 2 3 2 2 3 3 2 3 2 3 3 
2 2 3 3 3 2 3 3 3 3 3 2 3 3 3 3 
3 2 3 3 3 3 4 -8 3 3 3 3 4 3 3 3 
3 3 4 4 4 3 3 3 4 3 4 4 4 3 3 3 
4 4 4 3 5 4 4 4 4 4 4 3 5 4 4 -7 
5 -7 5 4 4 4 5 5 5 -8 5 -9 6 5 5 5 
5 5 6 -9 6 -10 6 -11 6 5 6 -12 6 6 7 6 
7 6 7 6 7 6 8 -12 7 7 8 7 9 7 8 -14 
9 8 9 9 10 8 10 -15 11 2 11 10 12 -40 12 30 
13 -8 14 13 15 13 15 14 17 15 18 16 20 17 22 -17 
24 -82 27 -39 30 27 35 31 42 37 51 26 65 58 93 -58 
101 -791 8557 2973 106 MP stroke
c9
158 3 158 6 158 5 157 16 158 8 158 23 158 21 158 15 
158 55 56 -4 3 -1 2 2 2 2 3 -2 2 2 2 3 
3 2 2 2 3 -1 2 -2 3 -5 2 2 3 -1 3 2 
2 -2 3 3 3 2 3 -1 2 -2 3 3 3 2 3 3 
3 -2 3 3 3 -2 3 -6 3 -2 3 -6 3 -2 4 -2 
3 -3 3 -2 4 -2 3 3 3 3 4 -3 4 -2 3 -9 
4 -9 4 3 4 4 3 -3 4 -4 4 -11 5 4 4 -4 
4 4 4 -4 5 4 4 -13 5 -14 5 4 4 4 5 4 
5 -5 5 -17 6 5 5 5 5 4 6 -6 6 -20 6 -24 
6 9 6 -14 6 6 7 5 7 6 7 8 7 7 8 -13 
7 7 8 7 9 7 8 -13 9 8 9 -35 10 1 10 9 
11 -41 11 10 12 29 12 30 13 -7 14 12 15 13 15 14 
17 15 18 16 20 17 22 -17 24 -43 27 -34 30 -17 35 31 
42 37 51 26 65 58 93 -58 103 -810 8555 2973 110 MP stroke
c10
158 -18 158 -19 158 -4 157 -5 158 21 158 3 158 -6 158 -2 
158 32 56 -32 3 2 2 -35 2 2 3 2 2 3 2 2 
3 2 2 -43 3 -56 2 2 3 3 2 2 3 2 3 3 
2 2 3 2 3 3 3 2 2 3 3 2 3 3 3 2 
3 3 3 2 3 3 3 3 3 3 3 2 3 3 4 3 
3 3 3 3 4 3 3 3 3 3 4 3 4 3 3 4 
4 3 4 3 4 4 3 3 4 4 4 3 5 4 4 3 
4 4 4 4 5 4 4 4 5 4 5 4 4 4 5 5 
5 4 5 5 6 4 5 5 5 5 6 -77 6 -135 6 6 
6 5 6 6 6 5 7 6 7 6 7 6 7 7 8 6 
7 7 8 7 9 8 8 7 9 8 9 8 10 9 10 9 
11 9 11 10 12 11 12 10 13 12 14 12 15 13 15 14 
17 15 18 16 20 18 22 19 24 21 27 24 30 27 35 31 
42 37 51 64 65 58 58 -728 8693 2973 109 MP stroke
0 sg
158 -7 158 -8 158 -10 157 -2 158 -12 158 -15 158 -27 158 -24 
158 -25 56 -61 3 2 2 -17 2 2 3 2 2 2 2 2 
3 3 2 -19 3 -22 2 -25 3 3 2 2 3 2 3 -29 
2 3 3 -35 3 3 3 2 2 3 3 -43 3 3 3 2 
3 3 3 3 3 2 3 3 3 3 3 2 3 3 4 3 
3 3 3 3 4 3 3 3 3 3 4 3 4 3 3 4 
4 3 4 3 4 4 3 -36 4 4 4 3 5 4 4 4 
4 3 4 4 5 4 4 4 5 4 5 4 4 5 5 4 
5 4 5 5 6 5 5 4 5 5 6 -14 6 5 6 5 
6 6 6 5 6 6 7 6 7 6 7 6 7 -75 8 6 
7 7 8 7 9 -113 8 7 4 -292 9239 2973 86 MP stroke
gr

24 w
%%IncludeResource: font Helvetica
/Helvetica /WindowsLatin1Encoding 144 FMSR

9345 1929 mt 
(SHEsisEpi vs. ) s
8166 2960 mt  -90 rotate
(intersection %) s
90 rotate
9284 3345 mt 
(sorted list length) s
6 w
1 sg
0 929 2623 0 0 -929 5050 4547 4 MP
PP
-2623 0 0 929 2623 0 0 -929 5050 4547 5 MP stroke
4 w
DO
SO
6 w
0 sg
5050 3618 mt 7673 3618 L
5050 4547 mt 7673 4547 L
7673 4547 mt 7673 3618 L
5050 4547 mt 5050 3618 L
5050 4547 mt 7673 4547 L
5050 4547 mt 5050 3618 L
5050 4547 mt 5050 4533 L
5050 3618 mt 5050 3631 L
5050 4547 mt 5050 4520 L
5050 3618 mt 5050 3644 L
4944 4759 mt 
(10) s
%%IncludeResource: font Helvetica
/Helvetica /WindowsLatin1Encoding 96 FMSR

5104 4670 mt 
(0) s
5207 4547 mt 5207 4533 L
5207 3618 mt 5207 3631 L
5300 4547 mt 5300 4533 L
5300 3618 mt 5300 3631 L
5365 4547 mt 5365 4533 L
5365 3618 mt 5365 3631 L
5416 4547 mt 5416 4533 L
5416 3618 mt 5416 3631 L
5458 4547 mt 5458 4533 L
5458 3618 mt 5458 3631 L
5493 4547 mt 5493 4533 L
5493 3618 mt 5493 3631 L
5523 4547 mt 5523 4533 L
5523 3618 mt 5523 3631 L
5550 4547 mt 5550 4533 L
5550 3618 mt 5550 3631 L
5574 4547 mt 5574 4533 L
5574 3618 mt 5574 3631 L
5574 4547 mt 5574 4520 L
5574 3618 mt 5574 3644 L
%%IncludeResource: font Helvetica
/Helvetica /WindowsLatin1Encoding 144 FMSR

5468 4759 mt 
(10) s
%%IncludeResource: font Helvetica
/Helvetica /WindowsLatin1Encoding 96 FMSR

5628 4670 mt 
(1) s
5732 4547 mt 5732 4533 L
5732 3618 mt 5732 3631 L
5824 4547 mt 5824 4533 L
5824 3618 mt 5824 3631 L
5890 4547 mt 5890 4533 L
5890 3618 mt 5890 3631 L
5941 4547 mt 5941 4533 L
5941 3618 mt 5941 3631 L
5982 4547 mt 5982 4533 L
5982 3618 mt 5982 3631 L
6017 4547 mt 6017 4533 L
6017 3618 mt 6017 3631 L
6048 4547 mt 6048 4533 L
6048 3618 mt 6048 3631 L
6075 4547 mt 6075 4533 L
6075 3618 mt 6075 3631 L
6099 4547 mt 6099 4533 L
6099 3618 mt 6099 3631 L
6099 4547 mt 6099 4520 L
6099 3618 mt 6099 3644 L
%%IncludeResource: font Helvetica
/Helvetica /WindowsLatin1Encoding 144 FMSR

5993 4759 mt 
(10) s
%%IncludeResource: font Helvetica
/Helvetica /WindowsLatin1Encoding 96 FMSR

6153 4670 mt 
(2) s
6257 4547 mt 6257 4533 L
6257 3618 mt 6257 3631 L
6349 4547 mt 6349 4533 L
6349 3618 mt 6349 3631 L
6415 4547 mt 6415 4533 L
6415 3618 mt 6415 3631 L
6465 4547 mt 6465 4533 L
6465 3618 mt 6465 3631 L
6507 4547 mt 6507 4533 L
6507 3618 mt 6507 3631 L
6542 4547 mt 6542 4533 L
6542 3618 mt 6542 3631 L
6572 4547 mt 6572 4533 L
6572 3618 mt 6572 3631 L
6599 4547 mt 6599 4533 L
6599 3618 mt 6599 3631 L
6623 4547 mt 6623 4533 L
6623 3618 mt 6623 3631 L
6623 4547 mt 6623 4520 L
6623 3618 mt 6623 3644 L
%%IncludeResource: font Helvetica
/Helvetica /WindowsLatin1Encoding 144 FMSR

6517 4759 mt 
(10) s
%%IncludeResource: font Helvetica
/Helvetica /WindowsLatin1Encoding 96 FMSR

6677 4670 mt 
(3) s
6781 4547 mt 6781 4533 L
6781 3618 mt 6781 3631 L
6874 4547 mt 6874 4533 L
6874 3618 mt 6874 3631 L
6939 4547 mt 6939 4533 L
6939 3618 mt 6939 3631 L
6990 4547 mt 6990 4533 L
6990 3618 mt 6990 3631 L
7032 4547 mt 7032 4533 L
7032 3618 mt 7032 3631 L
7067 4547 mt 7067 4533 L
7067 3618 mt 7067 3631 L
7097 4547 mt 7097 4533 L
7097 3618 mt 7097 3631 L
7124 4547 mt 7124 4533 L
7124 3618 mt 7124 3631 L
7148 4547 mt 7148 4533 L
7148 3618 mt 7148 3631 L
7148 4547 mt 7148 4520 L
7148 3618 mt 7148 3644 L
%%IncludeResource: font Helvetica
/Helvetica /WindowsLatin1Encoding 144 FMSR

7042 4759 mt 
(10) s
%%IncludeResource: font Helvetica
/Helvetica /WindowsLatin1Encoding 96 FMSR

7202 4670 mt 
(4) s
7306 4547 mt 7306 4533 L
7306 3618 mt 7306 3631 L
7398 4547 mt 7398 4533 L
7398 3618 mt 7398 3631 L
7464 4547 mt 7464 4533 L
7464 3618 mt 7464 3631 L
7515 4547 mt 7515 4533 L
7515 3618 mt 7515 3631 L
7556 4547 mt 7556 4533 L
7556 3618 mt 7556 3631 L
7591 4547 mt 7591 4533 L
7591 3618 mt 7591 3631 L
7622 4547 mt 7622 4533 L
7622 3618 mt 7622 3631 L
7648 4547 mt 7648 4533 L
7648 3618 mt 7648 3631 L
7673 4547 mt 7673 4533 L
7673 3618 mt 7673 3631 L
7673 4547 mt 7673 4520 L
7673 3618 mt 7673 3644 L
%%IncludeResource: font Helvetica
/Helvetica /WindowsLatin1Encoding 144 FMSR

7567 4759 mt 
(10) s
%%IncludeResource: font Helvetica
/Helvetica /WindowsLatin1Encoding 96 FMSR

7727 4670 mt 
(5) s
5050 4547 mt 5063 4547 L
7673 4547 mt 7659 4547 L
5050 4547 mt 5076 4547 L
7673 4547 mt 7646 4547 L
%%IncludeResource: font Helvetica
/Helvetica /WindowsLatin1Encoding 144 FMSR

4802 4600 mt 
(10) s
%%IncludeResource: font Helvetica
/Helvetica /WindowsLatin1Encoding 96 FMSR

4962 4511 mt 
(0) s
5050 4453 mt 5063 4453 L
7673 4453 mt 7659 4453 L
5050 4399 mt 5063 4399 L
7673 4399 mt 7659 4399 L
5050 4360 mt 5063 4360 L
7673 4360 mt 7659 4360 L
5050 4330 mt 5063 4330 L
7673 4330 mt 7659 4330 L
5050 4306 mt 5063 4306 L
7673 4306 mt 7659 4306 L
5050 4285 mt 5063 4285 L
7673 4285 mt 7659 4285 L
5050 4267 mt 5063 4267 L
7673 4267 mt 7659 4267 L
5050 4251 mt 5063 4251 L
7673 4251 mt 7659 4251 L
5050 4237 mt 5063 4237 L
7673 4237 mt 7659 4237 L
5050 4237 mt 5076 4237 L
7673 4237 mt 7646 4237 L
%%IncludeResource: font Helvetica
/Helvetica /WindowsLatin1Encoding 144 FMSR

4802 4290 mt 
(10) s
%%IncludeResource: font Helvetica
/Helvetica /WindowsLatin1Encoding 96 FMSR

4962 4201 mt 
(1) s
5050 4144 mt 5063 4144 L
7673 4144 mt 7659 4144 L
5050 4089 mt 5063 4089 L
7673 4089 mt 7659 4089 L
5050 4050 mt 5063 4050 L
7673 4050 mt 7659 4050 L
5050 4020 mt 5063 4020 L
7673 4020 mt 7659 4020 L
5050 3996 mt 5063 3996 L
7673 3996 mt 7659 3996 L
5050 3975 mt 5063 3975 L
7673 3975 mt 7659 3975 L
5050 3957 mt 5063 3957 L
7673 3957 mt 7659 3957 L
5050 3941 mt 5063 3941 L
7673 3941 mt 7659 3941 L
5050 3927 mt 5063 3927 L
7673 3927 mt 7659 3927 L
5050 3927 mt 5076 3927 L
7673 3927 mt 7646 3927 L
%%IncludeResource: font Helvetica
/Helvetica /WindowsLatin1Encoding 144 FMSR

4802 3980 mt 
(10) s
%%IncludeResource: font Helvetica
/Helvetica /WindowsLatin1Encoding 96 FMSR

4962 3891 mt 
(2) s
5050 3834 mt 5063 3834 L
7673 3834 mt 7659 3834 L
5050 3779 mt 5063 3779 L
7673 3779 mt 7659 3779 L
5050 3741 mt 5063 3741 L
7673 3741 mt 7659 3741 L
5050 3711 mt 5063 3711 L
7673 3711 mt 7659 3711 L
5050 3686 mt 5063 3686 L
7673 3686 mt 7659 3686 L
5050 3665 mt 5063 3665 L
7673 3665 mt 7659 3665 L
5050 3648 mt 5063 3648 L
7673 3648 mt 7659 3648 L
5050 3632 mt 5063 3632 L
7673 3632 mt 7659 3632 L
5050 3618 mt 5063 3618 L
7673 3618 mt 7659 3618 L
5050 3618 mt 5076 3618 L
7673 3618 mt 7646 3618 L
%%IncludeResource: font Helvetica
/Helvetica /WindowsLatin1Encoding 144 FMSR

4802 3671 mt 
(10) s
%%IncludeResource: font Helvetica
/Helvetica /WindowsLatin1Encoding 96 FMSR

4962 3582 mt 
(3) s
5050 3618 mt 7673 3618 L
5050 4547 mt 7673 4547 L
7673 4547 mt 7673 3618 L
5050 4547 mt 5050 3618 L
%%IncludeResource: font Helvetica
/Helvetica /WindowsLatin1Encoding 144 FMSR

5893 3504 mt 
(pvalues for RA) s
4651 4368 mt  -90 rotate
(-log) s
90 rotate
%%IncludeResource: font Helvetica
/Helvetica /WindowsLatin1Encoding 108 FMSR

4723 4092 mt  -90 rotate
(10) s
90 rotate
%%IncludeResource: font Helvetica
/Helvetica /WindowsLatin1Encoding 144 FMSR

4651 3972 mt  -90 rotate
(\(p\)) s
90 rotate
5833 4920 mt 
(sorted list length) s
%%IncludeResource: font Helvetica
/Helvetica /WindowsLatin1Encoding 120 FMSR

5033 4590 mt 
( ) s
7657 3660 mt 
( ) s
gs 5050 3618 2624 930 rc
24 w
c11
158 1 158 2 158 1 157 2 158 1 158 1 158 2 158 1 
158 2 56 1 3 0 2 0 2 0 3 0 2 0 2 0 
3 0 2 0 3 0 2 0 3 0 2 0 3 0 3 0 
2 0 3 0 3 0 3 0 2 0 3 0 3 0 3 0 
3 1 3 0 3 0 3 0 3 0 3 0 3 0 4 0 
3 0 3 0 4 0 3 0 3 0 4 0 4 0 3 0 
4 0 4 0 4 0 3 0 4 0 4 0 5 1 4 0 
4 0 4 0 5 0 4 0 5 0 5 0 4 1 5 0 
5 0 5 0 6 0 5 0 5 0 6 0 6 0 6 1 
6 0 6 0 6 0 7 0 7 0 7 0 7 1 8 0 
7 0 8 1 9 1 8 0 9 0 9 1 10 0 10 1 
11 0 11 0 12 1 12 0 13 2 14 0 15 12 15 1 
17 1 18 1 20 3 22 2 24 1 27 1 30 3 35 2 
42 14 51 1 65 8 93 1 157 10 5050 3984 110 MP stroke
c8
158 2 158 1 158 2 157 1 158 2 158 1 158 2 158 1 
158 2 56 1 3 0 2 0 2 0 3 0 2 0 2 0 
3 0 2 0 3 0 2 0 3 0 2 0 3 0 3 0 
2 0 3 0 3 0 3 0 2 0 3 0 3 0 3 0 
3 0 3 0 3 0 3 0 3 0 3 0 3 0 4 0 
3 0 3 0 4 0 3 0 3 1 4 0 4 0 3 0 
4 0 4 0 4 0 3 0 4 0 4 0 5 0 4 0 
4 1 4 0 5 0 4 0 5 0 5 0 4 0 5 0 
5 0 5 0 6 1 5 0 5 0 6 0 6 0 6 0 
6 0 6 0 6 1 7 0 7 1 7 0 7 1 8 0 
7 0 8 0 9 1 8 1 9 2 9 1 10 1 10 1 
11 1 11 0 12 0 12 3 13 2 14 4 15 0 15 1 
17 0 18 2 20 2 22 1 24 1 27 26 30 2 35 1 
42 1 51 1 65 18 93 13 157 1 5050 3963 110 MP stroke
c10
158 6 158 7 158 6 157 5 158 5 158 6 158 5 158 5 
158 5 56 2 3 0 2 0 2 0 3 0 2 0 2 1 
3 0 2 0 3 0 2 0 3 0 2 0 3 0 3 0 
2 0 3 0 3 0 3 0 2 0 3 1 3 0 3 0 
3 0 3 1 3 0 3 0 3 0 3 0 3 0 4 0 
3 0 3 1 4 0 3 0 3 0 4 0 4 0 3 0 
4 1 4 0 4 0 3 0 4 0 4 0 5 1 4 0 
4 0 4 0 5 0 4 0 5 0 5 0 4 1 5 0 
5 0 5 0 6 0 5 0 5 1 6 0 6 0 6 0 
6 0 6 0 6 0 7 1 7 0 7 0 7 0 8 0 
7 1 8 0 9 0 8 0 9 0 9 0 10 0 10 0 
11 2 11 0 12 0 12 0 13 0 14 0 15 1 15 0 
17 0 18 0 20 1 22 1 24 0 27 1 30 0 35 1 
42 1 51 3 65 87 93 20 157 4 5050 4121 110 MP stroke
DA
c11
158 2 158 3 158 2 157 2 158 3 158 2 158 3 158 3 
158 5 56 3 3 0 2 0 2 0 3 0 2 0 2 0 
3 1 2 0 3 0 2 0 3 0 2 0 3 0 3 1 
2 0 3 0 3 0 3 1 2 0 3 0 3 1 3 0 
3 0 3 0 3 1 3 0 3 0 3 0 3 1 4 0 
3 0 3 1 4 0 3 0 3 1 4 0 4 0 3 0 
4 1 4 0 4 0 3 0 4 1 4 0 5 0 4 1 
4 0 4 0 5 0 4 0 5 1 5 0 4 0 5 0 
5 1 5 0 6 1 5 0 5 0 6 1 6 1 6 0 
6 1 6 0 6 1 7 0 7 0 7 1 7 1 8 0 
7 0 8 0 9 1 8 0 9 0 9 1 10 0 10 0 
11 1 11 0 12 0 12 0 13 1 14 0 15 1 15 0 
17 0 18 3 20 3 22 2 24 4 27 1 30 3 35 7 
42 2 51 0 65 1 93 11 157 2 5050 4388 110 MP stroke
c9
158 2 158 92 158 1 157 0 158 0 158 1 158 0 158 1 
158 1 56 1 3 0 2 0 2 0 3 0 2 0 2 0 
3 0 2 0 3 0 2 0 3 0 2 0 3 0 3 0 
2 0 3 0 3 1 3 0 2 0 3 0 3 0 3 0 
3 0 3 0 3 0 3 0 3 0 3 0 3 0 4 0 
3 0 3 0 4 0 3 0 3 0 4 0 4 0 3 0 
4 0 4 0 4 0 3 0 4 0 4 0 5 0 4 1 
4 0 4 0 5 0 4 0 5 0 5 0 4 0 5 0 
5 0 5 1 6 0 5 0 5 0 6 1 6 0 6 0 
6 0 6 0 6 2 7 0 7 0 7 0 7 0 8 0 
7 0 8 0 9 1 8 2 9 2 9 0 10 0 10 5 
11 0 11 0 12 0 12 9 13 1 14 0 15 0 15 0 
17 0 18 4 20 20 22 0 24 0 27 0 30 0 35 6 
42 2 51 11 65 20 93 0 157 0 5050 3713 110 MP stroke
SO
6 w
gr

c9
1 sg
0 1857 1269 0 0 -1857 2281 5263 4 MP
PP
-1269 0 0 1857 1269 0 0 -1857 2281 5263 5 MP stroke
4 w
DO
SO
6 w
0 sg
2281 3406 mt 3550 3406 L
2281 5263 mt 3550 5263 L
3550 5263 mt 3550 3406 L
2281 5263 mt 2281 3406 L
2281 5263 mt 3550 5263 L
2281 5263 mt 2281 3406 L
2281 3406 mt 3550 3406 L
2281 5263 mt 3550 5263 L
3550 5263 mt 3550 3406 L
2281 5263 mt 2281 3406 L
%%IncludeResource: font Helvetica
/Helvetica /WindowsLatin1Encoding 144 FMSR

2749 3633 mt 
(Chi) s
%%IncludeResource: font Helvetica
/Helvetica /WindowsLatin1Encoding 108 FMSR

2965 3561 mt 
(2) s
24 w
c11
360 0 2353 3562 2 MP stroke
0 sg
%%IncludeResource: font Helvetica
/Helvetica /WindowsLatin1Encoding 144 FMSR

2749 3853 mt 
(SS) s
c8
360 0 2353 3801 2 MP stroke
0 sg
2749 4066 mt 
(DSS) s
c9
360 0 2353 4014 2 MP stroke
0 sg
2749 4279 mt 
(plink fastepi) s
c10
360 0 2353 4227 2 MP stroke
0 sg
2749 4493 mt 
(Info. Gain) s
360 0 2353 4441 2 MP stroke
2749 4706 mt 
(SHEsisEpi) s
DA
c11
360 0 2353 4654 2 MP stroke
SO
0 sg
2749 4919 mt 
(Epiblaster) s
DA
c8
360 0 2353 4867 2 MP stroke
SO
0 sg
2749 5177 mt 
(2Chi) s
%%IncludeResource: font Helvetica
/Helvetica /WindowsLatin1Encoding 108 FMSR

3045 5105 mt 
(2) s
DA
6 w
c9
360 0 2353 5106 2 MP stroke
SO

end %%Color Dict

eplot
%%EndObject

epage
end

showpage

%%Trailer
%%EOF
